variable,amplitude,timestamp,settings
0,1,1744262500.0,2022-11-16T15:52:44.342573,"{'ex_mode': ('#exMode', 1), 'acq_on': ('#acqState', 1), 'acq_mode': ('#acqMode', 0), 'det_fft_window': ('#fftWindowFunction', 1), 'n_measurements': ('#nbOfMeas', 500), 'n_turns': ('#nbOfTurns', 256), 'interval': ('#acqPeriod', 1), 'from': ('#acqOffset', 1025), 'ex_h_amplitude': ('#exAmplitudeH', 0.07), 'ex_v_amplitude': ('#exAmplitudeV', 0.06), 'ex_h_enable': ('#exEnableH', 'True'), 'ex_v_enable': ('#exEnableV', 'False'), 'chirp_h_start': ('#chirpStartFreqH', 0.32), 'chirp_h_stop': ('#chirpStopFreqH', 0.34), 'chirp_v_start': ('#chirpStartFreqV', 0.25), 'chirp_v_stop': ('#chirpStopFreqV', 0.4), 'bias_h': ('#biasH', 0), 'bias_v': ('#biasV', 0), 'time_const_1h': ('#timeConstant1H', 1), 'time_const_2h': ('#timeConstant2H', 1), 'time_const_1v': ('#timeConstant1V', 1), 'time_const_2v': ('#timeConstant2V', 1), 'DC_det_1': ('#DCdet1', 0), 'DC_det_2': ('#DCdet2', 0), 'ex_pattern': ('#exPattern', 1)}"
0,1,1744262500.0,2022-11-16T15:52:44.346320,"{'ex_mode': ('#exMode', 1), 'acq_on': ('#acqState', 1), 'acq_mode': ('#acqMode', 0), 'det_fft_window': ('#fftWindowFunction', 1), 'n_measurements': ('#nbOfMeas', 500), 'n_turns': ('#nbOfTurns', 256), 'interval': ('#acqPeriod', 1), 'from': ('#acqOffset', 1025), 'ex_h_amplitude': ('#exAmplitudeH', 0.07), 'ex_v_amplitude': ('#exAmplitudeV', 0.06), 'ex_h_enable': ('#exEnableH', 'True'), 'ex_v_enable': ('#exEnableV', 'False'), 'chirp_h_start': ('#chirpStartFreqH', 0.32), 'chirp_h_stop': ('#chirpStopFreqH', 0.34), 'chirp_v_start': ('#chirpStartFreqV', 0.25), 'chirp_v_stop': ('#chirpStopFreqV', 0.4), 'bias_h': ('#biasH', 0), 'bias_v': ('#biasV', 0), 'time_const_1h': ('#timeConstant1H', 1), 'time_const_2h': ('#timeConstant2H', 1), 'time_const_1v': ('#timeConstant1V', 1), 'time_const_2v': ('#timeConstant2V', 1), 'DC_det_1': ('#DCdet1', 0), 'DC_det_2': ('#DCdet2', 0), 'ex_pattern': ('#exPattern', 1)}"
0,1,17692175000.0,2022-11-16T15:52:58.960049,"{'ex_mode': ('#exMode', 1), 'acq_on': ('#acqState', 1), 'acq_mode': ('#acqMode', 0), 'det_fft_window': ('#fftWindowFunction', 1), 'n_measurements': ('#nbOfMeas', 500), 'n_turns': ('#nbOfTurns', 256), 'interval': ('#acqPeriod', 1), 'from': ('#acqOffset', 1025), 'ex_h_amplitude': ('#exAmplitudeH', 0.07), 'ex_v_amplitude': ('#exAmplitudeV', 0.06), 'ex_h_enable': ('#exEnableH', 'True'), 'ex_v_enable': ('#exEnableV', 'False'), 'chirp_h_start': ('#chirpStartFreqH', 0.32), 'chirp_h_stop': ('#chirpStopFreqH', 0.34), 'chirp_v_start': ('#chirpStartFreqV', 0.25), 'chirp_v_stop': ('#chirpStopFreqV', 0.4), 'bias_h': ('#biasH', 0), 'bias_v': ('#biasV', 0), 'time_const_1h': ('#timeConstant1H', 1), 'time_const_2h': ('#timeConstant2H', 1), 'time_const_1v': ('#timeConstant1V', 1), 'time_const_2v': ('#timeConstant2V', 1), 'DC_det_1': ('#DCdet1', 0), 'DC_det_2': ('#DCdet2', 0), 'ex_pattern': ('#exPattern', 1)}"
0,1,17692175000.0,2022-11-16T15:52:58.962487,"{'ex_mode': ('#exMode', 1), 'acq_on': ('#acqState', 1), 'acq_mode': ('#acqMode', 0), 'det_fft_window': ('#fftWindowFunction', 1), 'n_measurements': ('#nbOfMeas', 500), 'n_turns': ('#nbOfTurns', 256), 'interval': ('#acqPeriod', 1), 'from': ('#acqOffset', 1025), 'ex_h_amplitude': ('#exAmplitudeH', 0.07), 'ex_v_amplitude': ('#exAmplitudeV', 0.06), 'ex_h_enable': ('#exEnableH', 'True'), 'ex_v_enable': ('#exEnableV', 'False'), 'chirp_h_start': ('#chirpStartFreqH', 0.32), 'chirp_h_stop': ('#chirpStopFreqH', 0.34), 'chirp_v_start': ('#chirpStartFreqV', 0.25), 'chirp_v_stop': ('#chirpStopFreqV', 0.4), 'bias_h': ('#biasH', 0), 'bias_v': ('#biasV', 0), 'time_const_1h': ('#timeConstant1H', 1), 'time_const_2h': ('#timeConstant2H', 1), 'time_const_1v': ('#timeConstant1V', 1), 'time_const_2v': ('#timeConstant2V', 1), 'DC_det_1': ('#DCdet1', 0), 'DC_det_2': ('#DCdet2', 0), 'ex_pattern': ('#exPattern', 1)}"
0,6,4810162500.0,2022-11-16T15:53:55.514997,"{'ex_mode': ('#exMode', 1), 'acq_on': ('#acqState', 1), 'acq_mode': ('#acqMode', 0), 'det_fft_window': ('#fftWindowFunction', 1), 'n_measurements': ('#nbOfMeas', 83), 'n_turns': ('#nbOfTurns', 256), 'interval': ('#acqPeriod', 6), 'from': ('#acqOffset', 1025), 'ex_h_amplitude': ('#exAmplitudeH', 0.07), 'ex_v_amplitude': ('#exAmplitudeV', 0.06), 'ex_h_enable': ('#exEnableH', 'True'), 'ex_v_enable': ('#exEnableV', 'False'), 'chirp_h_start': ('#chirpStartFreqH', 0.32), 'chirp_h_stop': ('#chirpStopFreqH', 0.34), 'chirp_v_start': ('#chirpStartFreqV', 0.25), 'chirp_v_stop': ('#chirpStopFreqV', 0.4), 'bias_h': ('#biasH', 0), 'bias_v': ('#biasV', 0), 'time_const_1h': ('#timeConstant1H', 1), 'time_const_2h': ('#timeConstant2H', 1), 'time_const_1v': ('#timeConstant1V', 1), 'time_const_2v': ('#timeConstant2V', 1), 'DC_det_1': ('#DCdet1', 0), 'DC_det_2': ('#DCdet2', 0), 'ex_pattern': ('#exPattern', 1)}"
0,6,4810162500.0,2022-11-16T15:53:55.518094,"{'ex_mode': ('#exMode', 1), 'acq_on': ('#acqState', 1), 'acq_mode': ('#acqMode', 0), 'det_fft_window': ('#fftWindowFunction', 1), 'n_measurements': ('#nbOfMeas', 83), 'n_turns': ('#nbOfTurns', 256), 'interval': ('#acqPeriod', 6), 'from': ('#acqOffset', 1025), 'ex_h_amplitude': ('#exAmplitudeH', 0.07), 'ex_v_amplitude': ('#exAmplitudeV', 0.06), 'ex_h_enable': ('#exEnableH', 'True'), 'ex_v_enable': ('#exEnableV', 'False'), 'chirp_h_start': ('#chirpStartFreqH', 0.32), 'chirp_h_stop': ('#chirpStopFreqH', 0.34), 'chirp_v_start': ('#chirpStartFreqV', 0.25), 'chirp_v_stop': ('#chirpStopFreqV', 0.4), 'bias_h': ('#biasH', 0), 'bias_v': ('#biasV', 0), 'time_const_1h': ('#timeConstant1H', 1), 'time_const_2h': ('#timeConstant2H', 1), 'time_const_1v': ('#timeConstant1V', 1), 'time_const_2v': ('#timeConstant2V', 1), 'DC_det_1': ('#DCdet1', 0), 'DC_det_2': ('#DCdet2', 0), 'ex_pattern': ('#exPattern', 1)}"
0,11,3188950000.0,2022-11-16T15:54:51.797299,"{'ex_mode': ('#exMode', 1), 'acq_on': ('#acqState', 1), 'acq_mode': ('#acqMode', 0), 'det_fft_window': ('#fftWindowFunction', 1), 'n_measurements': ('#nbOfMeas', 45), 'n_turns': ('#nbOfTurns', 256), 'interval': ('#acqPeriod', 11), 'from': ('#acqOffset', 1025), 'ex_h_amplitude': ('#exAmplitudeH', 0.07), 'ex_v_amplitude': ('#exAmplitudeV', 0.06), 'ex_h_enable': ('#exEnableH', 'True'), 'ex_v_enable': ('#exEnableV', 'False'), 'chirp_h_start': ('#chirpStartFreqH', 0.32), 'chirp_h_stop': ('#chirpStopFreqH', 0.34), 'chirp_v_start': ('#chirpStartFreqV', 0.25), 'chirp_v_stop': ('#chirpStopFreqV', 0.4), 'bias_h': ('#biasH', 0), 'bias_v': ('#biasV', 0), 'time_const_1h': ('#timeConstant1H', 1), 'time_const_2h': ('#timeConstant2H', 1), 'time_const_1v': ('#timeConstant1V', 1), 'time_const_2v': ('#timeConstant2V', 1), 'DC_det_1': ('#DCdet1', 0), 'DC_det_2': ('#DCdet2', 0), 'ex_pattern': ('#exPattern', 1)}"
0,11,3188950000.0,2022-11-16T15:54:51.803208,"{'ex_mode': ('#exMode', 1), 'acq_on': ('#acqState', 1), 'acq_mode': ('#acqMode', 0), 'det_fft_window': ('#fftWindowFunction', 1), 'n_measurements': ('#nbOfMeas', 45), 'n_turns': ('#nbOfTurns', 256), 'interval': ('#acqPeriod', 11), 'from': ('#acqOffset', 1025), 'ex_h_amplitude': ('#exAmplitudeH', 0.07), 'ex_v_amplitude': ('#exAmplitudeV', 0.06), 'ex_h_enable': ('#exEnableH', 'True'), 'ex_v_enable': ('#exEnableV', 'False'), 'chirp_h_start': ('#chirpStartFreqH', 0.32), 'chirp_h_stop': ('#chirpStopFreqH', 0.34), 'chirp_v_start': ('#chirpStartFreqV', 0.25), 'chirp_v_stop': ('#chirpStopFreqV', 0.4), 'bias_h': ('#biasH', 0), 'bias_v': ('#biasV', 0), 'time_const_1h': ('#timeConstant1H', 1), 'time_const_2h': ('#timeConstant2H', 1), 'time_const_1v': ('#timeConstant1V', 1), 'time_const_2v': ('#timeConstant2V', 1), 'DC_det_1': ('#DCdet1', 0), 'DC_det_2': ('#DCdet2', 0), 'ex_pattern': ('#exPattern', 1)}"
0,16,2176662500.0,2022-11-16T15:55:48.215619,"{'ex_mode': ('#exMode', 1), 'acq_on': ('#acqState', 1), 'acq_mode': ('#acqMode', 0), 'det_fft_window': ('#fftWindowFunction', 1), 'n_measurements': ('#nbOfMeas', 31), 'n_turns': ('#nbOfTurns', 256), 'interval': ('#acqPeriod', 16), 'from': ('#acqOffset', 1025), 'ex_h_amplitude': ('#exAmplitudeH', 0.07), 'ex_v_amplitude': ('#exAmplitudeV', 0.06), 'ex_h_enable': ('#exEnableH', 'True'), 'ex_v_enable': ('#exEnableV', 'False'), 'chirp_h_start': ('#chirpStartFreqH', 0.32), 'chirp_h_stop': ('#chirpStopFreqH', 0.34), 'chirp_v_start': ('#chirpStartFreqV', 0.25), 'chirp_v_stop': ('#chirpStopFreqV', 0.4), 'bias_h': ('#biasH', 0), 'bias_v': ('#biasV', 0), 'time_const_1h': ('#timeConstant1H', 1), 'time_const_2h': ('#timeConstant2H', 1), 'time_const_1v': ('#timeConstant1V', 1), 'time_const_2v': ('#timeConstant2V', 1), 'DC_det_1': ('#DCdet1', 0), 'DC_det_2': ('#DCdet2', 0), 'ex_pattern': ('#exPattern', 1)}"
0,16,2176662500.0,2022-11-16T15:55:48.220032,"{'ex_mode': ('#exMode', 1), 'acq_on': ('#acqState', 1), 'acq_mode': ('#acqMode', 0), 'det_fft_window': ('#fftWindowFunction', 1), 'n_measurements': ('#nbOfMeas', 31), 'n_turns': ('#nbOfTurns', 256), 'interval': ('#acqPeriod', 16), 'from': ('#acqOffset', 1025), 'ex_h_amplitude': ('#exAmplitudeH', 0.07), 'ex_v_amplitude': ('#exAmplitudeV', 0.06), 'ex_h_enable': ('#exEnableH', 'True'), 'ex_v_enable': ('#exEnableV', 'False'), 'chirp_h_start': ('#chirpStartFreqH', 0.32), 'chirp_h_stop': ('#chirpStopFreqH', 0.34), 'chirp_v_start': ('#chirpStartFreqV', 0.25), 'chirp_v_stop': ('#chirpStopFreqV', 0.4), 'bias_h': ('#biasH', 0), 'bias_v': ('#biasV', 0), 'time_const_1h': ('#timeConstant1H', 1), 'time_const_2h': ('#timeConstant2H', 1), 'time_const_1v': ('#timeConstant1V', 1), 'time_const_2v': ('#timeConstant2V', 1), 'DC_det_1': ('#DCdet1', 0), 'DC_det_2': ('#DCdet2', 0), 'ex_pattern': ('#exPattern', 1)}"
0,21,1083875000.0,2022-11-16T15:56:44.551531,"{'ex_mode': ('#exMode', 1), 'acq_on': ('#acqState', 1), 'acq_mode': ('#acqMode', 0), 'det_fft_window': ('#fftWindowFunction', 1), 'n_measurements': ('#nbOfMeas', 23), 'n_turns': ('#nbOfTurns', 256), 'interval': ('#acqPeriod', 21), 'from': ('#acqOffset', 1025), 'ex_h_amplitude': ('#exAmplitudeH', 0.07), 'ex_v_amplitude': ('#exAmplitudeV', 0.06), 'ex_h_enable': ('#exEnableH', 'True'), 'ex_v_enable': ('#exEnableV', 'False'), 'chirp_h_start': ('#chirpStartFreqH', 0.32), 'chirp_h_stop': ('#chirpStopFreqH', 0.34), 'chirp_v_start': ('#chirpStartFreqV', 0.25), 'chirp_v_stop': ('#chirpStopFreqV', 0.4), 'bias_h': ('#biasH', 0), 'bias_v': ('#biasV', 0), 'time_const_1h': ('#timeConstant1H', 1), 'time_const_2h': ('#timeConstant2H', 1), 'time_const_1v': ('#timeConstant1V', 1), 'time_const_2v': ('#timeConstant2V', 1), 'DC_det_1': ('#DCdet1', 0), 'DC_det_2': ('#DCdet2', 0), 'ex_pattern': ('#exPattern', 1)}"
0,21,1083875000.0,2022-11-16T15:56:44.555735,"{'ex_mode': ('#exMode', 1), 'acq_on': ('#acqState', 1), 'acq_mode': ('#acqMode', 0), 'det_fft_window': ('#fftWindowFunction', 1), 'n_measurements': ('#nbOfMeas', 23), 'n_turns': ('#nbOfTurns', 256), 'interval': ('#acqPeriod', 21), 'from': ('#acqOffset', 1025), 'ex_h_amplitude': ('#exAmplitudeH', 0.07), 'ex_v_amplitude': ('#exAmplitudeV', 0.06), 'ex_h_enable': ('#exEnableH', 'True'), 'ex_v_enable': ('#exEnableV', 'False'), 'chirp_h_start': ('#chirpStartFreqH', 0.32), 'chirp_h_stop': ('#chirpStopFreqH', 0.34), 'chirp_v_start': ('#chirpStartFreqV', 0.25), 'chirp_v_stop': ('#chirpStopFreqV', 0.4), 'bias_h': ('#biasH', 0), 'bias_v': ('#biasV', 0), 'time_const_1h': ('#timeConstant1H', 1), 'time_const_2h': ('#timeConstant2H', 1), 'time_const_1v': ('#timeConstant1V', 1), 'time_const_2v': ('#timeConstant2V', 1), 'DC_det_1': ('#DCdet1', 0), 'DC_det_2': ('#DCdet2', 0), 'ex_pattern': ('#exPattern', 1)}"
0,26,1613737500.0,2022-11-16T15:57:40.977844,"{'ex_mode': ('#exMode', 1), 'acq_on': ('#acqState', 1), 'acq_mode': ('#acqMode', 0), 'det_fft_window': ('#fftWindowFunction', 1), 'n_measurements': ('#nbOfMeas', 19), 'n_turns': ('#nbOfTurns', 256), 'interval': ('#acqPeriod', 26), 'from': ('#acqOffset', 1025), 'ex_h_amplitude': ('#exAmplitudeH', 0.07), 'ex_v_amplitude': ('#exAmplitudeV', 0.06), 'ex_h_enable': ('#exEnableH', 'True'), 'ex_v_enable': ('#exEnableV', 'False'), 'chirp_h_start': ('#chirpStartFreqH', 0.32), 'chirp_h_stop': ('#chirpStopFreqH', 0.34), 'chirp_v_start': ('#chirpStartFreqV', 0.25), 'chirp_v_stop': ('#chirpStopFreqV', 0.4), 'bias_h': ('#biasH', 0), 'bias_v': ('#biasV', 0), 'time_const_1h': ('#timeConstant1H', 1), 'time_const_2h': ('#timeConstant2H', 1), 'time_const_1v': ('#timeConstant1V', 1), 'time_const_2v': ('#timeConstant2V', 1), 'DC_det_1': ('#DCdet1', 0), 'DC_det_2': ('#DCdet2', 0), 'ex_pattern': ('#exPattern', 1)}"
0,26,1613737500.0,2022-11-16T15:57:40.980700,"{'ex_mode': ('#exMode', 1), 'acq_on': ('#acqState', 1), 'acq_mode': ('#acqMode', 0), 'det_fft_window': ('#fftWindowFunction', 1), 'n_measurements': ('#nbOfMeas', 19), 'n_turns': ('#nbOfTurns', 256), 'interval': ('#acqPeriod', 26), 'from': ('#acqOffset', 1025), 'ex_h_amplitude': ('#exAmplitudeH', 0.07), 'ex_v_amplitude': ('#exAmplitudeV', 0.06), 'ex_h_enable': ('#exEnableH', 'True'), 'ex_v_enable': ('#exEnableV', 'False'), 'chirp_h_start': ('#chirpStartFreqH', 0.32), 'chirp_h_stop': ('#chirpStopFreqH', 0.34), 'chirp_v_start': ('#chirpStartFreqV', 0.25), 'chirp_v_stop': ('#chirpStopFreqV', 0.4), 'bias_h': ('#biasH', 0), 'bias_v': ('#biasV', 0), 'time_const_1h': ('#timeConstant1H', 1), 'time_const_2h': ('#timeConstant2H', 1), 'time_const_1v': ('#timeConstant1V', 1), 'time_const_2v': ('#timeConstant2V', 1), 'DC_det_1': ('#DCdet1', 0), 'DC_det_2': ('#DCdet2', 0), 'ex_pattern': ('#exPattern', 1)}"
0,31,1266437500.0,2022-11-16T15:58:37.502822,"{'ex_mode': ('#exMode', 1), 'acq_on': ('#acqState', 1), 'acq_mode': ('#acqMode', 0), 'det_fft_window': ('#fftWindowFunction', 1), 'n_measurements': ('#nbOfMeas', 16), 'n_turns': ('#nbOfTurns', 256), 'interval': ('#acqPeriod', 31), 'from': ('#acqOffset', 1025), 'ex_h_amplitude': ('#exAmplitudeH', 0.07), 'ex_v_amplitude': ('#exAmplitudeV', 0.06), 'ex_h_enable': ('#exEnableH', 'True'), 'ex_v_enable': ('#exEnableV', 'False'), 'chirp_h_start': ('#chirpStartFreqH', 0.32), 'chirp_h_stop': ('#chirpStopFreqH', 0.34), 'chirp_v_start': ('#chirpStartFreqV', 0.25), 'chirp_v_stop': ('#chirpStopFreqV', 0.4), 'bias_h': ('#biasH', 0), 'bias_v': ('#biasV', 0), 'time_const_1h': ('#timeConstant1H', 1), 'time_const_2h': ('#timeConstant2H', 1), 'time_const_1v': ('#timeConstant1V', 1), 'time_const_2v': ('#timeConstant2V', 1), 'DC_det_1': ('#DCdet1', 0), 'DC_det_2': ('#DCdet2', 0), 'ex_pattern': ('#exPattern', 1)}"
0,31,1266437500.0,2022-11-16T15:58:37.507998,"{'ex_mode': ('#exMode', 1), 'acq_on': ('#acqState', 1), 'acq_mode': ('#acqMode', 0), 'det_fft_window': ('#fftWindowFunction', 1), 'n_measurements': ('#nbOfMeas', 16), 'n_turns': ('#nbOfTurns', 256), 'interval': ('#acqPeriod', 31), 'from': ('#acqOffset', 1025), 'ex_h_amplitude': ('#exAmplitudeH', 0.07), 'ex_v_amplitude': ('#exAmplitudeV', 0.06), 'ex_h_enable': ('#exEnableH', 'True'), 'ex_v_enable': ('#exEnableV', 'False'), 'chirp_h_start': ('#chirpStartFreqH', 0.32), 'chirp_h_stop': ('#chirpStopFreqH', 0.34), 'chirp_v_start': ('#chirpStartFreqV', 0.25), 'chirp_v_stop': ('#chirpStopFreqV', 0.4), 'bias_h': ('#biasH', 0), 'bias_v': ('#biasV', 0), 'time_const_1h': ('#timeConstant1H', 1), 'time_const_2h': ('#timeConstant2H', 1), 'time_const_1v': ('#timeConstant1V', 1), 'time_const_2v': ('#timeConstant2V', 1), 'DC_det_1': ('#DCdet1', 0), 'DC_det_2': ('#DCdet2', 0), 'ex_pattern': ('#exPattern', 1)}"
0,36,1285987500.0,2022-11-16T15:59:33.796486,"{'ex_mode': ('#exMode', 1), 'acq_on': ('#acqState', 1), 'acq_mode': ('#acqMode', 0), 'det_fft_window': ('#fftWindowFunction', 1), 'n_measurements': ('#nbOfMeas', 13), 'n_turns': ('#nbOfTurns', 256), 'interval': ('#acqPeriod', 36), 'from': ('#acqOffset', 1025), 'ex_h_amplitude': ('#exAmplitudeH', 0.07), 'ex_v_amplitude': ('#exAmplitudeV', 0.06), 'ex_h_enable': ('#exEnableH', 'True'), 'ex_v_enable': ('#exEnableV', 'False'), 'chirp_h_start': ('#chirpStartFreqH', 0.32), 'chirp_h_stop': ('#chirpStopFreqH', 0.34), 'chirp_v_start': ('#chirpStartFreqV', 0.25), 'chirp_v_stop': ('#chirpStopFreqV', 0.4), 'bias_h': ('#biasH', 0), 'bias_v': ('#biasV', 0), 'time_const_1h': ('#timeConstant1H', 1), 'time_const_2h': ('#timeConstant2H', 1), 'time_const_1v': ('#timeConstant1V', 1), 'time_const_2v': ('#timeConstant2V', 1), 'DC_det_1': ('#DCdet1', 0), 'DC_det_2': ('#DCdet2', 0), 'ex_pattern': ('#exPattern', 1)}"
0,36,1285987500.0,2022-11-16T15:59:33.801062,"{'ex_mode': ('#exMode', 1), 'acq_on': ('#acqState', 1), 'acq_mode': ('#acqMode', 0), 'det_fft_window': ('#fftWindowFunction', 1), 'n_measurements': ('#nbOfMeas', 13), 'n_turns': ('#nbOfTurns', 256), 'interval': ('#acqPeriod', 36), 'from': ('#acqOffset', 1025), 'ex_h_amplitude': ('#exAmplitudeH', 0.07), 'ex_v_amplitude': ('#exAmplitudeV', 0.06), 'ex_h_enable': ('#exEnableH', 'True'), 'ex_v_enable': ('#exEnableV', 'False'), 'chirp_h_start': ('#chirpStartFreqH', 0.32), 'chirp_h_stop': ('#chirpStopFreqH', 0.34), 'chirp_v_start': ('#chirpStartFreqV', 0.25), 'chirp_v_stop': ('#chirpStopFreqV', 0.4), 'bias_h': ('#biasH', 0), 'bias_v': ('#biasV', 0), 'time_const_1h': ('#timeConstant1H', 1), 'time_const_2h': ('#timeConstant2H', 1), 'time_const_1v': ('#timeConstant1V', 1), 'time_const_2v': ('#timeConstant2V', 1), 'DC_det_1': ('#DCdet1', 0), 'DC_det_2': ('#DCdet2', 0), 'ex_pattern': ('#exPattern', 1)}"
0,41,1175012500.0,2022-11-16T16:00:30.218880,"{'ex_mode': ('#exMode', 1), 'acq_on': ('#acqState', 1), 'acq_mode': ('#acqMode', 0), 'det_fft_window': ('#fftWindowFunction', 1), 'n_measurements': ('#nbOfMeas', 12), 'n_turns': ('#nbOfTurns', 256), 'interval': ('#acqPeriod', 41), 'from': ('#acqOffset', 1025), 'ex_h_amplitude': ('#exAmplitudeH', 0.07), 'ex_v_amplitude': ('#exAmplitudeV', 0.06), 'ex_h_enable': ('#exEnableH', 'True'), 'ex_v_enable': ('#exEnableV', 'False'), 'chirp_h_start': ('#chirpStartFreqH', 0.32), 'chirp_h_stop': ('#chirpStopFreqH', 0.34), 'chirp_v_start': ('#chirpStartFreqV', 0.25), 'chirp_v_stop': ('#chirpStopFreqV', 0.4), 'bias_h': ('#biasH', 0), 'bias_v': ('#biasV', 0), 'time_const_1h': ('#timeConstant1H', 1), 'time_const_2h': ('#timeConstant2H', 1), 'time_const_1v': ('#timeConstant1V', 1), 'time_const_2v': ('#timeConstant2V', 1), 'DC_det_1': ('#DCdet1', 0), 'DC_det_2': ('#DCdet2', 0), 'ex_pattern': ('#exPattern', 1)}"
0,41,1175012500.0,2022-11-16T16:00:30.224712,"{'ex_mode': ('#exMode', 1), 'acq_on': ('#acqState', 1), 'acq_mode': ('#acqMode', 0), 'det_fft_window': ('#fftWindowFunction', 1), 'n_measurements': ('#nbOfMeas', 12), 'n_turns': ('#nbOfTurns', 256), 'interval': ('#acqPeriod', 41), 'from': ('#acqOffset', 1025), 'ex_h_amplitude': ('#exAmplitudeH', 0.07), 'ex_v_amplitude': ('#exAmplitudeV', 0.06), 'ex_h_enable': ('#exEnableH', 'True'), 'ex_v_enable': ('#exEnableV', 'False'), 'chirp_h_start': ('#chirpStartFreqH', 0.32), 'chirp_h_stop': ('#chirpStopFreqH', 0.34), 'chirp_v_start': ('#chirpStartFreqV', 0.25), 'chirp_v_stop': ('#chirpStopFreqV', 0.4), 'bias_h': ('#biasH', 0), 'bias_v': ('#biasV', 0), 'time_const_1h': ('#timeConstant1H', 1), 'time_const_2h': ('#timeConstant2H', 1), 'time_const_1v': ('#timeConstant1V', 1), 'time_const_2v': ('#timeConstant2V', 1), 'DC_det_1': ('#DCdet1', 0), 'DC_det_2': ('#DCdet2', 0), 'ex_pattern': ('#exPattern', 1)}"
0,46,855025000.0,2022-11-16T16:01:26.563735,"{'ex_mode': ('#exMode', 1), 'acq_on': ('#acqState', 1), 'acq_mode': ('#acqMode', 0), 'det_fft_window': ('#fftWindowFunction', 1), 'n_measurements': ('#nbOfMeas', 10), 'n_turns': ('#nbOfTurns', 256), 'interval': ('#acqPeriod', 46), 'from': ('#acqOffset', 1025), 'ex_h_amplitude': ('#exAmplitudeH', 0.07), 'ex_v_amplitude': ('#exAmplitudeV', 0.06), 'ex_h_enable': ('#exEnableH', 'True'), 'ex_v_enable': ('#exEnableV', 'False'), 'chirp_h_start': ('#chirpStartFreqH', 0.32), 'chirp_h_stop': ('#chirpStopFreqH', 0.34), 'chirp_v_start': ('#chirpStartFreqV', 0.25), 'chirp_v_stop': ('#chirpStopFreqV', 0.4), 'bias_h': ('#biasH', 0), 'bias_v': ('#biasV', 0), 'time_const_1h': ('#timeConstant1H', 1), 'time_const_2h': ('#timeConstant2H', 1), 'time_const_1v': ('#timeConstant1V', 1), 'time_const_2v': ('#timeConstant2V', 1), 'DC_det_1': ('#DCdet1', 0), 'DC_det_2': ('#DCdet2', 0), 'ex_pattern': ('#exPattern', 1)}"
0,46,855025000.0,2022-11-16T16:01:26.570535,"{'ex_mode': ('#exMode', 1), 'acq_on': ('#acqState', 1), 'acq_mode': ('#acqMode', 0), 'det_fft_window': ('#fftWindowFunction', 1), 'n_measurements': ('#nbOfMeas', 10), 'n_turns': ('#nbOfTurns', 256), 'interval': ('#acqPeriod', 46), 'from': ('#acqOffset', 1025), 'ex_h_amplitude': ('#exAmplitudeH', 0.07), 'ex_v_amplitude': ('#exAmplitudeV', 0.06), 'ex_h_enable': ('#exEnableH', 'True'), 'ex_v_enable': ('#exEnableV', 'False'), 'chirp_h_start': ('#chirpStartFreqH', 0.32), 'chirp_h_stop': ('#chirpStopFreqH', 0.34), 'chirp_v_start': ('#chirpStartFreqV', 0.25), 'chirp_v_stop': ('#chirpStopFreqV', 0.4), 'bias_h': ('#biasH', 0), 'bias_v': ('#biasV', 0), 'time_const_1h': ('#timeConstant1H', 1), 'time_const_2h': ('#timeConstant2H', 1), 'time_const_1v': ('#timeConstant1V', 1), 'time_const_2v': ('#timeConstant2V', 1), 'DC_det_1': ('#DCdet1', 0), 'DC_det_2': ('#DCdet2', 0), 'ex_pattern': ('#exPattern', 1)}"
