frequencies,amplitudes,timestamp,settings
0,0.0,34036.0,2,sampling period
1,0.006451612903225807,5477.0321274733815,0,sampling bounds
2,0.012903225806451615,1040.505233565089,2,
3,0.01935483870967742,387.65096985800506,2,
4,0.02580645161290323,614.941870458755,-,
5,0.03225806451612903,251.84820310694153,1,
6,0.03870967741935484,271.0793763364425,1,
7,0.04516129032258065,585.4267416096249,-,
8,0.05161290322580646,320.34950489336796,1,
9,0.05806451612903227,109.97747857710132,7,
10,0.06451612903225806,252.0525881717499,T,
11,0.07096774193548387,460.4639344073342,1,
12,0.07741935483870968,667.0290454557477,0,
13,0.08387096774193549,300.09367943420233,:,
14,0.0903225806451613,159.6208383428221,1,
15,0.09677419354838711,38.98123451524527,6,
16,0.10322580645161292,502.83069777928773,:,
17,0.10967741935483873,151.393879749814,4,
18,0.11612903225806454,182.83087088247308,6,
19,0.12258064516129033,303.0887859521696,.,
20,0.12903225806451613,393.35665381559284,5,
21,0.13548387096774195,278.22278420371987,5,
22,0.14193548387096774,474.85486806883483,3,
23,0.14838709677419357,342.6057578709991,9,
24,0.15483870967741936,57.27438942675653,9,
25,0.16129032258064518,478.15810148422725,2,
26,0.16774193548387098,149.6708321684324,,
27,0.1741935483870968,207.43568787547582,,
28,0.1806451612903226,510.4688162202147,,
29,0.18709677419354842,188.70388838857434,,
30,0.19354838709677422,227.80559401436207,,
31,0.20000000000000004,473.0000519701566,,
32,0.20645161290322583,366.80737508060275,,
33,0.21290322580645163,971.0400070149531,,
34,0.21935483870967745,595.3599452121186,,
35,0.22580645161290325,493.8276407048083,,
36,0.23225806451612907,418.4811556184847,,
37,0.23870967741935487,294.1760488865422,,
38,0.24516129032258066,339.76573314203154,,
39,0.2516129032258065,254.88551812192878,,
40,0.25806451612903225,238.11586853646546,,
41,0.26451612903225813,315.7193173475611,,
42,0.2709677419354839,276.4549493276484,,
43,0.2774193548387097,244.6643376217512,,
44,0.2838709677419355,417.467424713868,,
45,0.29032258064516137,454.1008876718552,,
46,0.29677419354838713,743.3411490461344,,
47,0.30322580645161296,807.3056788097812,,
48,0.3096774193548387,237.67128744158111,,
49,0.31612903225806455,568.2485587172642,,
50,0.32258064516129037,1598.5674361489919,,
51,0.32903225806451614,530.3144303464069,,
52,0.33548387096774196,232.9708605811228,,
53,0.3419354838709677,280.4209577461378,,
54,0.3483870967741936,340.80360865128364,,
55,0.3548387096774194,1117.1986678203891,,
56,0.3612903225806452,748.57427044736,,
57,0.36774193548387096,478.3186122358897,,
58,0.37419354838709684,864.32736666758,,
59,0.3806451612903226,104.2650984630211,,
60,0.38709677419354843,781.9974088260841,,
61,0.3935483870967742,481.00277186238566,,
62,0.4000000000000001,368.89616116399014,,
63,0.40645161290322585,45.366610792931134,,
64,0.41290322580645167,365.04311582706316,,
65,0.41935483870967744,643.1879221293723,,
66,0.42580645161290326,770.097961564486,,
67,0.4322580645161291,1192.0535786277446,,
68,0.4387096774193549,274.78468722510036,,
69,0.44516129032258067,66.88278522322003,,
70,0.4516129032258065,217.00317414562923,,
71,0.4580645161290323,295.50415180628283,,
72,0.46451612903225814,149.73741117627793,,
73,0.4709677419354839,1204.6271980813442,,
74,0.47741935483870973,637.0040672725254,,
75,0.48387096774193555,294.36148867278877,,
76,0.4903225806451613,769.9288774108425,,
77,0.49677419354838714,590.2400426025059,,
78,0.503225806451613,281.5690950338801,,
79,0.5096774193548388,317.07068253037846,,
80,0.5161290322580645,553.7103757447968,,
81,0.5225806451612903,767.9316124087294,,
82,0.5290322580645163,522.1989239212643,,
83,0.535483870967742,617.9316118796029,,
84,0.5419354838709678,554.576468839921,,
85,0.5483870967741935,420.53564257616915,,
86,0.5548387096774194,455.35169202961634,,
87,0.5612903225806453,851.606802631362,,
88,0.567741935483871,552.8113468624178,,
89,0.5741935483870968,1114.3288938487435,,
90,0.5806451612903227,692.5185500490727,,
91,0.5870967741935484,829.6806236668488,,
92,0.5935483870967743,586.4777339931044,,
93,0.6,595.733206441207,,
94,0.6064516129032259,1302.7583403194965,,
95,0.6129032258064517,1512.0224992542621,,
96,0.6193548387096774,1057.365598330084,,
97,0.6258064516129033,696.4285363917484,,
98,0.6322580645161291,1556.5821218036854,,
99,0.6387096774193549,981.9931570192596,,
100,0.6451612903225807,2281.4914171654873,,
101,0.6516129032258065,1445.475297786101,,
102,0.6580645161290323,1543.9594463962073,,
103,0.6645161290322582,918.456452161488,,
104,0.6709677419354839,530.322382091705,,
105,0.6774193548387097,1112.575814125079,,
106,0.6838709677419355,99.18282666012107,,
107,0.6903225806451614,1150.3282099010953,,
108,0.6967741935483872,931.6433871158463,,
109,0.7032258064516129,1322.6614603147093,,
110,0.7096774193548387,1182.653597085909,,
111,0.7161290322580647,1458.978569801648,,
112,0.7225806451612904,1949.2341596201636,,
113,0.7290322580645162,1105.6488398362847,,
114,0.7354838709677419,449.7307528981997,,
115,0.7419354838709679,499.45125994413195,,
116,0.7483870967741937,406.1224049059168,,
117,0.7548387096774194,1275.90204123371,,
118,0.7612903225806452,416.6064344943238,,
119,0.767741935483871,1563.3257761749462,,
120,0.7741935483870969,882.5929784878568,,
121,0.7806451612903227,516.8184500246173,,
122,0.7870967741935484,333.270548102722,,
123,0.7935483870967743,646.8359247801748,,
124,0.8000000000000002,470.056802426128,,
125,0.8064516129032259,1056.0475101413806,,
126,0.8129032258064517,1227.2347841335259,,
127,0.8193548387096774,710.9882573457245,,
128,0.8258064516129033,52.890254258188214,,
129,0.8322580645161292,398.61310984227964,,
130,0.8387096774193549,70.99010766657956,,
131,0.8451612903225807,214.15667289523896,,
132,0.8516129032258065,533.5612529400711,,
133,0.8580645161290323,721.9850132948332,,
134,0.8645161290322582,846.6634654927601,,
135,0.8709677419354839,761.6766902224837,,
136,0.8774193548387098,360.42668344974174,,
137,0.8838709677419356,605.3259670262071,,
138,0.8903225806451613,513.6762431299588,,
139,0.8967741935483872,177.1347099772446,,
140,0.903225806451613,516.4397126922028,,
141,0.9096774193548388,815.2993489942668,,
142,0.9161290322580646,370.481398210649,,
143,0.9225806451612903,53.67737025498233,,
144,0.9290322580645163,276.37724669347324,,
145,0.935483870967742,416.5204190776933,,
146,0.9419354838709678,199.72063838067916,,
147,0.9483870967741936,251.58809078814525,,
148,0.9548387096774195,204.07547856644223,,
149,0.9612903225806453,98.92557134054466,,
150,0.9677419354838711,264.2576051779922,,
151,0.9741935483870968,347.69484823948795,,
152,0.9806451612903226,354.1043128722279,,
153,0.9870967741935485,255.24193547396547,,
154,0.9935483870967743,199.01411299894997,,
155,1.0000000000000002,266.1291526032765,,
156,1.006451612903226,230.09886923781534,,
157,1.0129032258064516,223.56663210642125,,
158,1.0193548387096776,80.24160810869759,,
159,1.0258064516129035,73.48907288261239,,
160,1.032258064516129,279.5220583479535,,
161,1.038709677419355,258.2062838557824,,
162,1.0451612903225806,304.82433307458075,,
163,1.0516129032258066,703.065903134022,,
164,1.0580645161290325,167.5032202795428,,
165,1.064516129032258,610.9352717256181,,
166,1.070967741935484,932.2840367097664,,
167,1.0774193548387099,3321.4660775376683,,
168,1.0838709677419356,2899.330735715179,,
169,1.0903225806451615,1150.040292176677,,
170,1.096774193548387,372.31734160432165,,
171,1.103225806451613,694.3172477088617,,
172,1.1096774193548389,405.13784204930244,,
173,1.1161290322580646,378.7159601310173,,
174,1.1225806451612905,115.7030058631165,,
175,1.1290322580645165,161.3739636751806,,
176,1.135483870967742,212.8537658032457,,
177,1.1419354838709679,255.9766636068042,,
178,1.1483870967741936,421.94555750301146,,
179,1.1548387096774195,164.45978573026525,,
180,1.1612903225806455,218.54422652873873,,
181,1.167741935483871,136.5325701561645,,
182,1.1741935483870969,164.3140520749007,,
183,1.1806451612903226,90.12034666641418,,
184,1.1870967741935485,54.684607090293795,,
185,1.1935483870967745,409.6141859343586,,
186,1.2,274.24419588511665,,
187,1.206451612903226,83.93866769499422,,
188,1.2129032258064518,239.26973038334927,,
189,1.2193548387096775,303.9412530050042,,
190,1.2258064516129035,120.31375219060183,,
191,1.232258064516129,43.08249793287136,,
192,1.238709677419355,466.0856041946592,,
193,1.2451612903225808,261.11494959747205,,
194,1.2516129032258065,170.8676697502225,,
195,1.2580645161290325,457.86531860482387,,
196,1.2645161290322582,478.2876271953872,,
197,1.270967741935484,40.407718988941646,,
198,1.2774193548387098,309.889848028879,,
199,1.2838709677419355,83.856062264415,,
200,1.2903225806451615,374.7500541058546,,
201,1.2967741935483874,484.70729708885324,,
202,1.303225806451613,318.8712998207661,,
203,1.3096774193548388,83.42336371478027,,
204,1.3161290322580645,134.68431329817665,,
205,1.3225806451612905,358.06144118536577,,
206,1.3290322580645164,277.3758940270693,,
207,1.335483870967742,352.1976630207906,,
208,1.3419354838709678,40.60178119608801,,
209,1.3483870967741938,169.33104584588358,,
210,1.3548387096774195,232.13252152087153,,
211,1.3612903225806454,383.613699586638,,
212,1.367741935483871,119.97658509273852,,
213,1.3741935483870968,260.7147469061842,,
214,1.3806451612903228,291.1625198238199,,
215,1.3870967741935485,299.48902558759943,,
216,1.3935483870967744,125.27489324714647,,
217,1.4000000000000001,197.44284473328378,,
218,1.4064516129032258,232.44429364643852,,
219,1.4129032258064518,303.10901531990277,,
220,1.4193548387096775,77.51891300419095,,
221,1.4258064516129034,125.87819665188049,,
222,1.4322580645161294,90.8403248823284,,
223,1.4387096774193548,440.36684817939033,,
224,1.4451612903225808,163.38874251880418,,
225,1.4516129032258067,106.04461790619538,,
226,1.4580645161290324,22.27303350305547,,
227,1.4645161290322584,66.7719858089523,,
228,1.4709677419354839,421.37567543647293,,
229,1.4774193548387098,173.79806893655325,,
230,1.4838709677419357,123.42036482773094,,
231,1.4903225806451614,213.81418662450324,,
232,1.4967741935483874,227.98049947433498,,
233,1.5032258064516129,407.2814754951305,,
234,1.5096774193548388,464.1711649655681,,
235,1.5161290322580647,326.7458362046469,,
236,1.5225806451612904,399.5973491910831,,
237,1.5290322580645164,111.57574466163642,,
238,1.535483870967742,343.37178325965414,,
239,1.5419354838709678,226.89734253962823,,
240,1.5483870967741937,181.8555844843508,,
241,1.5548387096774194,322.5877470421304,,
242,1.5612903225806454,91.47377677047483,,
243,1.567741935483871,110.76729566679593,,
244,1.5741935483870968,250.44749204954826,,
245,1.5806451612903227,133.33380855102817,,
246,1.5870967741935487,140.70776092385907,,
247,1.5935483870967744,279.0641662495909,,
248,1.6000000000000003,182.26108067629968,,
249,1.6064516129032258,189.81865742465757,,
250,1.6129032258064517,150.4662959746249,,
251,1.6193548387096777,511.8572451126004,,
252,1.6258064516129034,438.8674125948641,,
253,1.6322580645161293,163.42619178207713,,
254,1.6387096774193548,288.1565584732161,,
255,1.6451612903225807,144.68069694762193,,
256,1.6516129032258067,56.051084210686724,,
257,1.6580645161290324,361.21921147698595,,
258,1.6645161290322583,86.7196336895645,,
259,1.670967741935484,130.88019263980752,,
260,1.6774193548387097,166.20930099583947,,
261,1.6838709677419357,389.09275791145546,,
262,1.6903225806451614,171.6554681398546,,
263,1.6967741935483873,120.34434738519965,,
264,1.703225806451613,247.08020424658764,,
265,1.7096774193548387,223.65963225033508,,
266,1.7161290322580647,78.29290108737713,,
267,1.7225806451612906,396.2200571189079,,
268,1.7290322580645163,409.318993791608,,
269,1.7354838709677423,25.35290634904695,,
270,1.7419354838709677,152.65336722381656,,
271,1.7483870967741937,244.80833581961963,,
272,1.7548387096774196,156.40420302078067,,
273,1.7612903225806453,190.52589901088987,,
274,1.7677419354838713,101.73887028565989,,
275,1.7741935483870968,131.8923281083375,,
276,1.7806451612903227,414.45368364467294,,
277,1.7870967741935486,114.37973655736013,,
278,1.7935483870967743,282.064567176864,,
279,1.8000000000000003,83.81696610020315,,
280,1.806451612903226,173.00473593999834,,
281,1.8129032258064517,104.05333397141928,,
282,1.8193548387096776,316.83634805972997,,
283,1.8258064516129033,63.93572251677197,,
284,1.8322580645161293,112.45769033752033,,
285,1.838709677419355,95.4338742540578,,
286,1.8451612903225807,169.74922477289616,,
287,1.8516129032258066,84.2671287882217,,
288,1.8580645161290326,19.535387641034482,,
289,1.8645161290322583,202.35857668122546,,
290,1.870967741935484,88.24107952986708,,
291,1.8774193548387097,119.786737979336,,
292,1.8838709677419356,396.7913439714378,,
293,1.8903225806451616,83.93417450387804,,
294,1.8967741935483873,147.57806462980872,,
295,1.9032258064516132,227.97287892303405,,
296,1.909677419354839,92.57517701383047,,
297,1.9161290322580646,253.735569338545,,
298,1.9225806451612906,176.48583605040665,,
299,1.9290322580645163,257.9087159712974,,
300,1.9354838709677422,178.6254321529959,,
301,1.941935483870968,20.055489732138184,,
302,1.9483870967741936,105.23158060069468,,
303,1.9548387096774196,336.15820284227607,,
304,1.9612903225806453,116.25757152749873,,
305,1.9677419354838712,231.8096132915366,,
306,1.974193548387097,61.4934088387875,,
307,1.9806451612903226,78.50783789148008,,
308,1.9870967741935486,170.15827532713632,,
309,1.9935483870967745,282.13331803213606,,
310,2.0000000000000004,262.1445975107638,,
311,2.0064516129032257,212.50462125611767,,
312,2.012903225806452,14.041127795041662,,
313,2.0193548387096776,232.86178199283512,,
314,2.0258064516129033,216.98722388397292,,
315,2.0322580645161294,185.65440875052857,,
316,2.038709677419355,266.1070304917608,,
317,2.045161290322581,348.4646846147921,,
318,2.051612903225807,326.32122714876505,,
319,2.0580645161290323,14.161380763338768,,
320,2.064516129032258,189.26664049423988,,
321,2.070967741935484,188.58753879442006,,
322,2.07741935483871,82.78843983550294,,
323,2.0838709677419356,163.12176748390254,,
324,2.0903225806451613,83.27482029909038,,
325,2.0967741935483875,119.65461954620186,,
326,2.103225806451613,156.65706987460257,,
327,2.109677419354839,101.89253994228221,,
328,2.116129032258065,141.85641276276007,,
329,2.1225806451612907,77.27863964279693,,
330,2.129032258064516,82.18361673184657,,
331,2.135483870967742,153.70627989820665,,
332,2.141935483870968,352.3279115937035,,
333,2.1483870967741936,139.57329900426456,,
334,2.1548387096774198,358.90724599488766,,
335,2.1612903225806455,366.02337837745307,,
336,2.167741935483871,7.522566320831996,,
337,2.174193548387097,74.99514436109175,,
338,2.180645161290323,146.74013045381304,,
339,2.1870967741935488,162.83593393819234,,
340,2.193548387096774,157.55121981976689,,
341,2.2,41.10174522491321,,
342,2.206451612903226,193.18871596057883,,
343,2.2129032258064516,109.48200849503519,,
344,2.2193548387096778,181.69615835678624,,
345,2.2258064516129035,45.56847153827272,,
346,2.232258064516129,49.923372387648385,,
347,2.2387096774193553,317.40794109540064,,
348,2.245161290322581,242.09025777414806,,
349,2.2516129032258068,215.71840834544838,,
350,2.258064516129033,177.2678046549669,,
351,2.264516129032258,234.86551237138923,,
352,2.270967741935484,64.00596937538936,,
353,2.2774193548387096,94.29078989482754,,
354,2.2838709677419358,50.60785598404533,,
355,2.2903225806451615,137.22382666125336,,
356,2.296774193548387,215.48789536455683,,
357,2.3032258064516133,302.95680583576507,,
358,2.309677419354839,195.0437324155338,,
359,2.3161290322580648,337.8733324542473,,
360,2.322580645161291,330.69305491100914,,
361,2.329032258064516,247.24302943314285,,
362,2.335483870967742,216.68192276937236,,
363,2.341935483870968,94.88734304528114,,
364,2.3483870967741938,200.96960357082338,,
365,2.3548387096774195,256.90410864822906,,
366,2.361290322580645,221.60071922920716,,
367,2.3677419354838714,243.15057024352228,,
368,2.374193548387097,59.900642301317774,,
369,2.3806451612903228,146.31319627683234,,
370,2.387096774193549,196.22656061130039,,
371,2.393548387096774,19.926862749756705,,
372,2.4,65.33071368713337,,
373,2.406451612903226,281.71741156540776,,
374,2.412903225806452,80.67776624388019,,
375,2.4193548387096775,145.12774076257693,,
376,2.4258064516129036,101.5898110594922,,
377,2.4322580645161294,193.3413408349411,,
378,2.438709677419355,150.2067807318699,,
379,2.445161290322581,111.25361256618304,,
380,2.451612903225807,97.17307207120793,,
381,2.4580645161290327,197.22124078517544,,
382,2.464516129032258,211.17003772461936,,
383,2.470967741935484,131.2059977891999,,
384,2.47741935483871,50.54713759216053,,
385,2.4838709677419355,469.1969564844121,,
386,2.4903225806451617,137.97556903047095,,
387,2.4967741935483874,158.59244683063318,,
388,2.503225806451613,233.1767709332407,,
389,2.5096774193548392,34.80521570732637,,
390,2.516129032258065,332.2016549888321,,
391,2.5225806451612907,263.6072583452665,,
392,2.5290322580645164,41.57735491762091,,
393,2.535483870967742,38.30815982206296,,
394,2.541935483870968,75.24430818837929,,
395,2.5483870967741935,120.84460889625612,,
396,2.5548387096774197,136.5165659208705,,
397,2.5612903225806454,130.13179698007843,,
398,2.567741935483871,522.176611341551,,
399,2.5741935483870972,305.09014015384815,,
400,2.580645161290323,147.30170652175426,,
401,2.5870967741935487,169.38473346156422,,
402,2.593548387096775,134.94264149668496,,
403,2.6,161.49094835926553,,
404,2.606451612903226,26.332691536332533,,
405,2.612903225806452,106.58573089584642,,
406,2.6193548387096777,166.91571166595457,,
407,2.6258064516129034,94.63803402286901,,
408,2.632258064516129,226.73059916006522,,
409,2.6387096774193552,193.63591679541398,,
410,2.645161290322581,187.29738367802616,,
411,2.6516129032258067,325.6279732851434,,
412,2.658064516129033,110.14770089850043,,
413,2.664516129032258,75.07541515915669,,
414,2.670967741935484,288.37692077275767,,
415,2.67741935483871,159.18133846854056,,
416,2.6838709677419357,154.288813420757,,
417,2.6903225806451614,167.6048545980386,,
418,2.6967741935483875,394.4352270459218,,
419,2.7032258064516133,29.007901406991255,,
420,2.709677419354839,350.4186354565844,,
421,2.716129032258065,233.37948846047385,,
422,2.722580645161291,112.12088492398533,,
423,2.7290322580645165,70.37803797523266,,
424,2.735483870967742,89.80586210087344,,
425,2.741935483870968,284.8020177560605,,
426,2.7483870967741937,69.60152499516501,,
427,2.7548387096774194,215.34781283108822,,
428,2.7612903225806456,153.00637653463187,,
429,2.7677419354838713,110.45421444102665,,
430,2.774193548387097,190.48782072503596,,
431,2.780645161290323,123.90236076014013,,
432,2.787096774193549,26.209679066283353,,
433,2.7935483870967746,37.85365792219581,,
434,2.8000000000000003,178.15623460420022,,
435,2.806451612903226,122.73164997301929,,
436,2.8129032258064517,45.62599169407409,,
437,2.8193548387096774,112.62751640909246,,
438,2.8258064516129036,199.2456209029767,,
439,2.8322580645161293,89.22237741546583,,
440,2.838709677419355,170.5255783684327,,
441,2.845161290322581,240.87341517085858,,
442,2.851612903225807,86.98623240658227,,
443,2.8580645161290326,168.52685730664268,,
444,2.8645161290322587,213.1993488931583,,
445,2.870967741935484,62.1467811081963,,
446,2.8774193548387097,104.77977266521194,,
447,2.883870967741936,128.3248561069158,,
448,2.8903225806451616,147.2904695500095,,
449,2.8967741935483873,28.906676816209817,,
450,2.9032258064516134,280.9277002868589,,
451,2.909677419354839,100.36016999322254,,
452,2.916129032258065,3.1917609989222466,,
453,2.9225806451612906,102.55367857056767,,
454,2.9290322580645167,342.12832298714244,,
455,2.935483870967742,202.0220605202447,,
456,2.9419354838709677,190.992262705262,,
457,2.948387096774194,203.65223598127693,,
458,2.9548387096774196,87.24512776372407,,
459,2.9612903225806453,115.86894627313744,,
460,2.9677419354838714,191.13404705269343,,
461,2.974193548387097,235.62884424058805,,
462,2.980645161290323,161.53107828849375,,
463,2.987096774193549,201.40822145975767,,
464,2.9935483870967747,86.54453585658229,,
465,3.0,230.6561816528274,,
466,3.0064516129032257,437.55688165206095,,
467,3.012903225806452,108.4030903101028,,
468,3.0193548387096776,371.49559893469564,,
469,3.0258064516129033,56.76270736315074,,
470,3.0322580645161294,168.34709119382086,,
471,3.038709677419355,211.9852644546147,,
472,3.045161290322581,83.57450232583359,,
473,3.051612903225807,117.68177969442912,,
474,3.0580645161290327,105.50424174799423,,
475,3.0645161290322585,95.73653089460713,,
476,3.070967741935484,69.4427696661576,,
477,3.07741935483871,183.60340537935883,,
478,3.0838709677419356,220.79351568687153,,
479,3.0903225806451613,183.7500658520286,,
480,3.0967741935483875,96.78652736162861,,
481,3.103225806451613,35.79032588951874,,
482,3.109677419354839,255.3699381662103,,
483,3.116129032258065,69.95393333642801,,
484,3.1225806451612907,185.33693682669238,,
485,3.1290322580645165,174.46276239055007,,
486,3.135483870967742,98.5956901703466,,
487,3.141935483870968,140.78507204393358,,
488,3.1483870967741936,133.75658425511295,,
489,3.1548387096774198,115.66431779677546,,
490,3.1612903225806455,190.22251395719172,,
491,3.167741935483871,74.40515604337594,,
492,3.1741935483870973,81.57182338240135,,
493,3.180645161290323,245.07189425460783,,
494,3.1870967741935488,196.8159065342743,,
495,3.1935483870967745,123.74651208583795,,
496,3.2000000000000006,15.008727545901989,,
497,3.206451612903226,173.64229997377248,,
498,3.2129032258064516,120.29217878084242,,
499,3.2193548387096778,394.1892854483358,,
500,3.2258064516129035,196.12787605031232,,
501,3.232258064516129,269.7751743231449,,
502,3.2387096774193553,216.58996476541753,,
503,3.245161290322581,380.4515902155499,,
504,3.2516129032258068,111.56571623482714,,
505,3.258064516129033,46.80865376209519,,
506,3.2645161290322586,297.66158724137324,,
507,3.270967741935484,41.28920346359113,,
508,3.2774193548387096,103.38217312118924,,
509,3.2838709677419358,206.15967171582784,,
510,3.2903225806451615,256.1551598413824,,
511,3.296774193548387,26.460150076295353,,
512,3.3032258064516133,101.9919548825575,,
513,3.309677419354839,323.9510236469732,,
514,3.3161290322580648,276.10818469328876,,
515,3.322580645161291,62.61308160470811,,
516,3.3290322580645166,161.84682025675045,,
517,3.3354838709677423,407.16240088672436,,
518,3.341935483870968,286.09330459262014,,
519,3.3483870967741938,60.381543642095004,,
520,3.3548387096774195,58.532547453492974,,
521,3.3612903225806456,214.5704195587524,,
522,3.3677419354838714,114.26310467339671,,
523,3.374193548387097,243.84968362188283,,
524,3.3806451612903228,195.6281530809091,,
525,3.387096774193549,95.69690496833249,,
526,3.3935483870967746,207.91922523714808,,
527,3.4000000000000004,345.53350576605294,,
528,3.406451612903226,170.62812441769762,,
529,3.412903225806452,68.08421492302034,,
530,3.4193548387096775,182.0344345177987,,
531,3.4258064516129036,205.08106200560965,,
532,3.4322580645161294,109.6644525452158,,
533,3.438709677419355,311.06454174950443,,
534,3.4451612903225812,394.6155630718782,,
535,3.451612903225807,156.13810870566368,,
536,3.4580645161290327,225.01034734620674,,
537,3.4645161290322584,158.40636117228127,,
538,3.4709677419354845,77.86075101216699,,
539,3.47741935483871,184.4026224654637,,
540,3.4838709677419355,127.9177422499693,,
541,3.4903225806451617,59.89213134620734,,
542,3.4967741935483874,243.57922953466786,,
543,3.503225806451613,292.1411456796819,,
544,3.5096774193548392,281.38116032349393,,
545,3.516129032258065,118.75457450426104,,
546,3.5225806451612907,302.95039742494237,,
547,3.529032258064517,268.4579992341646,,
548,3.5354838709677425,61.91263790505533,,
549,3.541935483870968,137.5520449571676,,
550,3.5483870967741935,151.1108896824571,,
551,3.5548387096774197,215.22939208833913,,
552,3.5612903225806454,150.77798016898836,,
553,3.567741935483871,120.7063248698331,,
554,3.5741935483870972,50.15268359924581,,
555,3.580645161290323,99.88421530796022,,
556,3.5870967741935487,293.36778130324143,,
557,3.593548387096775,48.84667734472325,,
558,3.6000000000000005,61.084975040959804,,
559,3.6064516129032262,116.90697074114635,,
560,3.612903225806452,256.01286538948244,,
561,3.6193548387096777,118.81200861306546,,
562,3.6258064516129034,121.91226378683801,,
563,3.6322580645161295,209.4422705706527,,
564,3.6387096774193552,256.94578109460974,,
565,3.645161290322581,146.7176356929598,,
566,3.6516129032258067,120.75489971345213,,
567,3.658064516129033,233.72875068554436,,
568,3.6645161290322585,185.638646302909,,
569,3.6709677419354843,204.9312130038202,,
570,3.67741935483871,124.15455628713927,,
571,3.6838709677419357,51.23973558175557,,
572,3.6903225806451614,139.3121247934481,,
573,3.6967741935483875,190.60580237836524,,
574,3.7032258064516133,73.73850291361322,,
575,3.709677419354839,100.04777662856547,,
576,3.716129032258065,96.18838274756831,,
577,3.722580645161291,209.0653610481133,,
578,3.7290322580645165,171.80576882580786,,
579,3.7354838709677427,294.48025493812185,,
580,3.741935483870968,119.46152448888637,,
581,3.7483870967741937,154.18960404170716,,
582,3.7548387096774194,206.0938920134049,,
583,3.7612903225806456,104.58939115930302,,
584,3.7677419354838713,88.52310932232317,,
585,3.774193548387097,137.4807917623617,,
586,3.780645161290323,224.2192461668412,,
587,3.787096774193549,86.39165205005473,,
588,3.7935483870967746,104.63539255591047,,
589,3.8000000000000007,200.9013087639804,,
590,3.8064516129032264,203.20422121296997,,
591,3.8129032258064517,136.36969750159824,,
592,3.819354838709678,39.46678251049361,,
593,3.8258064516129036,97.26775499614683,,
594,3.8322580645161293,44.81018213955734,,
595,3.838709677419355,87.24682747903061,,
596,3.845161290322581,221.84300393852567,,
597,3.851612903225807,125.26775994341297,,
598,3.8580645161290326,208.77403872345064,,
599,3.8645161290322587,240.26695856403637,,
600,3.8709677419354844,147.13376613132237,,
601,3.8774193548387097,310.24738331568915,,
602,3.883870967741936,95.80282665682061,,
603,3.8903225806451616,46.80342011112723,,
604,3.8967741935483873,151.43709974551663,,
605,3.9032258064516134,82.72183545033607,,
606,3.909677419354839,137.1124508597292,,
607,3.916129032258065,158.42725867894447,,
608,3.9225806451612906,160.44673962175128,,
609,3.9290322580645167,121.49654493010404,,
610,3.9354838709677424,142.35827573710765,,
611,3.941935483870968,117.01419766437563,,
612,3.948387096774194,198.6037347675247,,
613,3.9548387096774196,197.51369906785936,,
614,3.9612903225806453,361.3771441597022,,
615,3.9677419354838714,117.47885131274768,,
616,3.974193548387097,62.57257330060691,,
617,3.980645161290323,242.01048124855586,,
618,3.987096774193549,188.7779834676216,,
619,3.9935483870967747,175.91679234158727,,
620,4.000000000000001,218.32821621567803,,
621,4.006451612903226,99.37953085026416,,
622,4.012903225806451,69.74777368722398,,
623,4.019354838709678,152.8624558774468,,
624,4.025806451612904,172.54696216353426,,
625,4.032258064516129,122.38045066755151,,
626,4.038709677419355,155.32917283785972,,
627,4.045161290322581,113.2509442447671,,
628,4.051612903225807,127.89162305268559,,
629,4.058064516129033,23.973467675765455,,
630,4.064516129032259,12.859520880076118,,
631,4.070967741935484,101.97275270046163,,
632,4.07741935483871,123.43386531483416,,
633,4.083870967741936,134.30965229040441,,
634,4.090322580645162,150.55792835172048,,
635,4.096774193548387,322.64144969217307,,
636,4.103225806451614,176.79397470369898,,
637,4.109677419354839,262.9104263033078,,
638,4.116129032258065,208.19380900706716,,
639,4.122580645161291,296.95192558301693,,
640,4.129032258064516,332.96529390473484,,
641,4.135483870967742,97.19045772191491,,
642,4.141935483870968,190.64849168004548,,
643,4.1483870967741945,133.35404842332326,,
644,4.15483870967742,155.63379916634017,,
645,4.161290322580646,215.8418313777758,,
646,4.167741935483871,245.08307472919526,,
647,4.174193548387097,45.73774793194139,,
648,4.180645161290323,148.96686423510513,,
649,4.187096774193549,230.59638407734226,,
650,4.193548387096775,73.06126210147764,,
651,4.2,143.02635109886668,,
652,4.206451612903226,53.87870024347842,,
653,4.212903225806452,179.2251762400754,,
654,4.219354838709678,35.13131559965359,,
655,4.225806451612904,71.10034213911577,,
656,4.23225806451613,112.1148450845351,,
657,4.238709677419355,301.93908063557546,,
658,4.2451612903225815,232.26267229550174,,
659,4.251612903225807,290.91482159843093,,
660,4.258064516129032,70.69274223141869,,
661,4.264516129032258,82.2524755592571,,
662,4.270967741935484,147.28961669147728,,
663,4.2774193548387105,79.62888418435718,,
664,4.283870967741936,127.46007925594468,,
665,4.290322580645162,100.89852621033916,,
666,4.296774193548387,58.579124505168366,,
667,4.303225806451613,208.9299133960935,,
668,4.3096774193548395,125.9976735842301,,
669,4.316129032258065,83.02205514300006,,
670,4.322580645161291,358.8136313009163,,
671,4.329032258064516,518.5931211643448,,
672,4.335483870967742,87.99276941014335,,
673,4.341935483870968,243.20906986560493,,
674,4.348387096774194,95.70282192476996,,
675,4.35483870967742,99.87351162283663,,
676,4.361290322580646,265.8061794955099,,
677,4.367741935483871,233.71858388416368,,
678,4.3741935483870975,33.12034583523366,,
679,4.380645161290323,123.06155736555976,,
680,4.387096774193548,152.08616773996755,,
681,4.393548387096775,92.41184986591792,,
682,4.4,102.01426989362497,,
683,4.4064516129032265,104.85018237834493,,
684,4.412903225806452,199.54291353981878,,
685,4.419354838709678,135.13379684219848,,
686,4.425806451612903,222.3407510667799,,
687,4.432258064516129,167.77503618992245,,
688,4.4387096774193555,113.81174308125648,,
689,4.445161290322582,76.79573722902327,,
690,4.451612903225807,15.606557731932979,,
691,4.458064516129032,182.01441283067481,,
692,4.464516129032258,134.79363890669984,,
693,4.470967741935484,234.99040816913748,,
694,4.477419354838711,133.9240023169043,,
695,4.483870967741936,65.63689822901115,,
696,4.490322580645162,195.42391998203067,,
697,4.496774193548387,62.07550151186299,,
698,4.5032258064516135,50.27500326130204,,
699,4.509677419354839,147.36540713836308,,
700,4.516129032258066,219.9173102130622,,
701,4.522580645161291,163.17716604514735,,
702,4.529032258064516,178.8473389843131,,
703,4.5354838709677425,96.17861591376538,,
704,4.541935483870968,84.04712329527224,,
705,4.548387096774194,100.98240080917445,,
706,4.554838709677419,63.88969110151258,,
707,4.561290322580646,197.13234531787418,,
708,4.5677419354838715,29.571882565304755,,
709,4.574193548387098,105.64462237749326,,
710,4.580645161290323,45.444984226492416,,
711,4.587096774193548,201.04246191581043,,
712,4.593548387096774,71.9394367191378,,
713,4.6000000000000005,265.3092165675159,,
714,4.606451612903227,328.077617365142,,
715,4.612903225806452,93.58281073608605,,
716,4.619354838709678,326.4887076297207,,
717,4.625806451612903,63.34902058113656,,
718,4.6322580645161295,219.72908452959248,,
719,4.638709677419355,238.82133534317663,,
720,4.645161290322582,152.0175799768443,,
721,4.651612903225807,120.10910465636901,,
722,4.658064516129032,181.05431612695952,,
723,4.6645161290322585,133.8143445663415,,
724,4.670967741935484,169.56775912907563,,
725,4.67741935483871,177.59810500402767,,
726,4.683870967741936,182.35130669632247,,
727,4.690322580645162,264.3367691058859,,
728,4.6967741935483875,148.46307458483693,,
729,4.703225806451614,325.1954191654595,,
730,4.709677419354839,151.77479582402046,,
731,4.716129032258065,33.10365846121638,,
732,4.72258064516129,53.47544070413264,,
733,4.7290322580645165,253.5135435689786,,
734,4.735483870967743,263.7986583714483,,
735,4.741935483870968,281.4215146362694,,
736,4.748387096774194,226.24389235733372,,
737,4.754838709677419,30.028413217436313,,
738,4.7612903225806456,333.83828792408246,,
739,4.767741935483872,89.04640478862962,,
740,4.774193548387098,49.22166782118493,,
741,4.780645161290323,67.47197026342454,,
742,4.787096774193548,218.34991577074172,,
743,4.7935483870967746,182.00278249694847,,
744,4.8,24.019801122839034,,
745,4.806451612903226,169.8767204270455,,
746,4.812903225806452,61.0232018054637,,
747,4.819354838709678,141.03405137043256,,
748,4.825806451612904,241.77505297357803,,
749,4.83225806451613,177.82460846333123,,
750,4.838709677419355,72.88091636109495,,
751,4.845161290322581,261.8886938242182,,
752,4.851612903225807,205.64272918026302,,
753,4.858064516129033,159.08860811834398,,
754,4.864516129032259,151.86749749428566,,
755,4.870967741935484,87.90984696997478,,
756,4.87741935483871,163.27202329563315,,
757,4.883870967741935,42.423185024940494,,
758,4.890322580645162,180.34274917406543,,
759,4.896774193548388,260.2668883383544,,
760,4.903225806451614,78.36110596887103,,
761,4.909677419354839,98.14037805298989,,
762,4.916129032258065,146.46184182915957,,
763,4.922580645161291,336.9799542359527,,
764,4.929032258064516,28.61221851208512,,
765,4.935483870967743,90.79835945333907,,
766,4.941935483870968,77.68921511705332,,
767,4.948387096774194,116.34993288692225,,
768,4.95483870967742,129.28563858768317,,
769,4.961290322580646,260.5557563109061,,
770,4.967741935483871,177.7424667487645,,
771,4.974193548387098,185.48189869528784,,
772,4.980645161290323,345.1451448269529,,
773,4.9870967741935495,116.33076721037187,,
774,4.993548387096775,102.84143469652848,,
775,5.0,294.0,,
0,0.0,34036.0,2,sampling period
1,0.006451612903225807,5477.0321274733815,0,sampling bounds
2,0.012903225806451615,1040.505233565089,2,
3,0.01935483870967742,387.65096985800506,2,
4,0.02580645161290323,614.941870458755,-,
5,0.03225806451612903,251.84820310694153,1,
6,0.03870967741935484,271.0793763364425,1,
7,0.04516129032258065,585.4267416096249,-,
8,0.05161290322580646,320.34950489336796,1,
9,0.05806451612903227,109.97747857710132,7,
10,0.06451612903225806,252.0525881717499,T,
11,0.07096774193548387,460.4639344073342,1,
12,0.07741935483870968,667.0290454557477,0,
13,0.08387096774193549,300.09367943420233,:,
14,0.0903225806451613,159.6208383428221,1,
15,0.09677419354838711,38.98123451524527,6,
16,0.10322580645161292,502.83069777928773,:,
17,0.10967741935483873,151.393879749814,4,
18,0.11612903225806454,182.83087088247308,6,
19,0.12258064516129033,303.0887859521696,.,
20,0.12903225806451613,393.35665381559284,5,
21,0.13548387096774195,278.22278420371987,7,
22,0.14193548387096774,474.85486806883483,0,
23,0.14838709677419357,342.6057578709991,9,
24,0.15483870967741936,57.27438942675653,6,
25,0.16129032258064518,478.15810148422725,0,
26,0.16774193548387098,149.6708321684324,,
27,0.1741935483870968,207.43568787547582,,
28,0.1806451612903226,510.4688162202147,,
29,0.18709677419354842,188.70388838857434,,
30,0.19354838709677422,227.80559401436207,,
31,0.20000000000000004,473.0000519701566,,
32,0.20645161290322583,366.80737508060275,,
33,0.21290322580645163,971.0400070149531,,
34,0.21935483870967745,595.3599452121186,,
35,0.22580645161290325,493.8276407048083,,
36,0.23225806451612907,418.4811556184847,,
37,0.23870967741935487,294.1760488865422,,
38,0.24516129032258066,339.76573314203154,,
39,0.2516129032258065,254.88551812192878,,
40,0.25806451612903225,238.11586853646546,,
41,0.26451612903225813,315.7193173475611,,
42,0.2709677419354839,276.4549493276484,,
43,0.2774193548387097,244.6643376217512,,
44,0.2838709677419355,417.467424713868,,
45,0.29032258064516137,454.1008876718552,,
46,0.29677419354838713,743.3411490461344,,
47,0.30322580645161296,807.3056788097812,,
48,0.3096774193548387,237.67128744158111,,
49,0.31612903225806455,568.2485587172642,,
50,0.32258064516129037,1598.5674361489919,,
51,0.32903225806451614,530.3144303464069,,
52,0.33548387096774196,232.9708605811228,,
53,0.3419354838709677,280.4209577461378,,
54,0.3483870967741936,340.80360865128364,,
55,0.3548387096774194,1117.1986678203891,,
56,0.3612903225806452,748.57427044736,,
57,0.36774193548387096,478.3186122358897,,
58,0.37419354838709684,864.32736666758,,
59,0.3806451612903226,104.2650984630211,,
60,0.38709677419354843,781.9974088260841,,
61,0.3935483870967742,481.00277186238566,,
62,0.4000000000000001,368.89616116399014,,
63,0.40645161290322585,45.366610792931134,,
64,0.41290322580645167,365.04311582706316,,
65,0.41935483870967744,643.1879221293723,,
66,0.42580645161290326,770.097961564486,,
67,0.4322580645161291,1192.0535786277446,,
68,0.4387096774193549,274.78468722510036,,
69,0.44516129032258067,66.88278522322003,,
70,0.4516129032258065,217.00317414562923,,
71,0.4580645161290323,295.50415180628283,,
72,0.46451612903225814,149.73741117627793,,
73,0.4709677419354839,1204.6271980813442,,
74,0.47741935483870973,637.0040672725254,,
75,0.48387096774193555,294.36148867278877,,
76,0.4903225806451613,769.9288774108425,,
77,0.49677419354838714,590.2400426025059,,
78,0.503225806451613,281.5690950338801,,
79,0.5096774193548388,317.07068253037846,,
80,0.5161290322580645,553.7103757447968,,
81,0.5225806451612903,767.9316124087294,,
82,0.5290322580645163,522.1989239212643,,
83,0.535483870967742,617.9316118796029,,
84,0.5419354838709678,554.576468839921,,
85,0.5483870967741935,420.53564257616915,,
86,0.5548387096774194,455.35169202961634,,
87,0.5612903225806453,851.606802631362,,
88,0.567741935483871,552.8113468624178,,
89,0.5741935483870968,1114.3288938487435,,
90,0.5806451612903227,692.5185500490727,,
91,0.5870967741935484,829.6806236668488,,
92,0.5935483870967743,586.4777339931044,,
93,0.6,595.733206441207,,
94,0.6064516129032259,1302.7583403194965,,
95,0.6129032258064517,1512.0224992542621,,
96,0.6193548387096774,1057.365598330084,,
97,0.6258064516129033,696.4285363917484,,
98,0.6322580645161291,1556.5821218036854,,
99,0.6387096774193549,981.9931570192596,,
100,0.6451612903225807,2281.4914171654873,,
101,0.6516129032258065,1445.475297786101,,
102,0.6580645161290323,1543.9594463962073,,
103,0.6645161290322582,918.456452161488,,
104,0.6709677419354839,530.322382091705,,
105,0.6774193548387097,1112.575814125079,,
106,0.6838709677419355,99.18282666012107,,
107,0.6903225806451614,1150.3282099010953,,
108,0.6967741935483872,931.6433871158463,,
109,0.7032258064516129,1322.6614603147093,,
110,0.7096774193548387,1182.653597085909,,
111,0.7161290322580647,1458.978569801648,,
112,0.7225806451612904,1949.2341596201636,,
113,0.7290322580645162,1105.6488398362847,,
114,0.7354838709677419,449.7307528981997,,
115,0.7419354838709679,499.45125994413195,,
116,0.7483870967741937,406.1224049059168,,
117,0.7548387096774194,1275.90204123371,,
118,0.7612903225806452,416.6064344943238,,
119,0.767741935483871,1563.3257761749462,,
120,0.7741935483870969,882.5929784878568,,
121,0.7806451612903227,516.8184500246173,,
122,0.7870967741935484,333.270548102722,,
123,0.7935483870967743,646.8359247801748,,
124,0.8000000000000002,470.056802426128,,
125,0.8064516129032259,1056.0475101413806,,
126,0.8129032258064517,1227.2347841335259,,
127,0.8193548387096774,710.9882573457245,,
128,0.8258064516129033,52.890254258188214,,
129,0.8322580645161292,398.61310984227964,,
130,0.8387096774193549,70.99010766657956,,
131,0.8451612903225807,214.15667289523896,,
132,0.8516129032258065,533.5612529400711,,
133,0.8580645161290323,721.9850132948332,,
134,0.8645161290322582,846.6634654927601,,
135,0.8709677419354839,761.6766902224837,,
136,0.8774193548387098,360.42668344974174,,
137,0.8838709677419356,605.3259670262071,,
138,0.8903225806451613,513.6762431299588,,
139,0.8967741935483872,177.1347099772446,,
140,0.903225806451613,516.4397126922028,,
141,0.9096774193548388,815.2993489942668,,
142,0.9161290322580646,370.481398210649,,
143,0.9225806451612903,53.67737025498233,,
144,0.9290322580645163,276.37724669347324,,
145,0.935483870967742,416.5204190776933,,
146,0.9419354838709678,199.72063838067916,,
147,0.9483870967741936,251.58809078814525,,
148,0.9548387096774195,204.07547856644223,,
149,0.9612903225806453,98.92557134054466,,
150,0.9677419354838711,264.2576051779922,,
151,0.9741935483870968,347.69484823948795,,
152,0.9806451612903226,354.1043128722279,,
153,0.9870967741935485,255.24193547396547,,
154,0.9935483870967743,199.01411299894997,,
155,1.0000000000000002,266.1291526032765,,
156,1.006451612903226,230.09886923781534,,
157,1.0129032258064516,223.56663210642125,,
158,1.0193548387096776,80.24160810869759,,
159,1.0258064516129035,73.48907288261239,,
160,1.032258064516129,279.5220583479535,,
161,1.038709677419355,258.2062838557824,,
162,1.0451612903225806,304.82433307458075,,
163,1.0516129032258066,703.065903134022,,
164,1.0580645161290325,167.5032202795428,,
165,1.064516129032258,610.9352717256181,,
166,1.070967741935484,932.2840367097664,,
167,1.0774193548387099,3321.4660775376683,,
168,1.0838709677419356,2899.330735715179,,
169,1.0903225806451615,1150.040292176677,,
170,1.096774193548387,372.31734160432165,,
171,1.103225806451613,694.3172477088617,,
172,1.1096774193548389,405.13784204930244,,
173,1.1161290322580646,378.7159601310173,,
174,1.1225806451612905,115.7030058631165,,
175,1.1290322580645165,161.3739636751806,,
176,1.135483870967742,212.8537658032457,,
177,1.1419354838709679,255.9766636068042,,
178,1.1483870967741936,421.94555750301146,,
179,1.1548387096774195,164.45978573026525,,
180,1.1612903225806455,218.54422652873873,,
181,1.167741935483871,136.5325701561645,,
182,1.1741935483870969,164.3140520749007,,
183,1.1806451612903226,90.12034666641418,,
184,1.1870967741935485,54.684607090293795,,
185,1.1935483870967745,409.6141859343586,,
186,1.2,274.24419588511665,,
187,1.206451612903226,83.93866769499422,,
188,1.2129032258064518,239.26973038334927,,
189,1.2193548387096775,303.9412530050042,,
190,1.2258064516129035,120.31375219060183,,
191,1.232258064516129,43.08249793287136,,
192,1.238709677419355,466.0856041946592,,
193,1.2451612903225808,261.11494959747205,,
194,1.2516129032258065,170.8676697502225,,
195,1.2580645161290325,457.86531860482387,,
196,1.2645161290322582,478.2876271953872,,
197,1.270967741935484,40.407718988941646,,
198,1.2774193548387098,309.889848028879,,
199,1.2838709677419355,83.856062264415,,
200,1.2903225806451615,374.7500541058546,,
201,1.2967741935483874,484.70729708885324,,
202,1.303225806451613,318.8712998207661,,
203,1.3096774193548388,83.42336371478027,,
204,1.3161290322580645,134.68431329817665,,
205,1.3225806451612905,358.06144118536577,,
206,1.3290322580645164,277.3758940270693,,
207,1.335483870967742,352.1976630207906,,
208,1.3419354838709678,40.60178119608801,,
209,1.3483870967741938,169.33104584588358,,
210,1.3548387096774195,232.13252152087153,,
211,1.3612903225806454,383.613699586638,,
212,1.367741935483871,119.97658509273852,,
213,1.3741935483870968,260.7147469061842,,
214,1.3806451612903228,291.1625198238199,,
215,1.3870967741935485,299.48902558759943,,
216,1.3935483870967744,125.27489324714647,,
217,1.4000000000000001,197.44284473328378,,
218,1.4064516129032258,232.44429364643852,,
219,1.4129032258064518,303.10901531990277,,
220,1.4193548387096775,77.51891300419095,,
221,1.4258064516129034,125.87819665188049,,
222,1.4322580645161294,90.8403248823284,,
223,1.4387096774193548,440.36684817939033,,
224,1.4451612903225808,163.38874251880418,,
225,1.4516129032258067,106.04461790619538,,
226,1.4580645161290324,22.27303350305547,,
227,1.4645161290322584,66.7719858089523,,
228,1.4709677419354839,421.37567543647293,,
229,1.4774193548387098,173.79806893655325,,
230,1.4838709677419357,123.42036482773094,,
231,1.4903225806451614,213.81418662450324,,
232,1.4967741935483874,227.98049947433498,,
233,1.5032258064516129,407.2814754951305,,
234,1.5096774193548388,464.1711649655681,,
235,1.5161290322580647,326.7458362046469,,
236,1.5225806451612904,399.5973491910831,,
237,1.5290322580645164,111.57574466163642,,
238,1.535483870967742,343.37178325965414,,
239,1.5419354838709678,226.89734253962823,,
240,1.5483870967741937,181.8555844843508,,
241,1.5548387096774194,322.5877470421304,,
242,1.5612903225806454,91.47377677047483,,
243,1.567741935483871,110.76729566679593,,
244,1.5741935483870968,250.44749204954826,,
245,1.5806451612903227,133.33380855102817,,
246,1.5870967741935487,140.70776092385907,,
247,1.5935483870967744,279.0641662495909,,
248,1.6000000000000003,182.26108067629968,,
249,1.6064516129032258,189.81865742465757,,
250,1.6129032258064517,150.4662959746249,,
251,1.6193548387096777,511.8572451126004,,
252,1.6258064516129034,438.8674125948641,,
253,1.6322580645161293,163.42619178207713,,
254,1.6387096774193548,288.1565584732161,,
255,1.6451612903225807,144.68069694762193,,
256,1.6516129032258067,56.051084210686724,,
257,1.6580645161290324,361.21921147698595,,
258,1.6645161290322583,86.7196336895645,,
259,1.670967741935484,130.88019263980752,,
260,1.6774193548387097,166.20930099583947,,
261,1.6838709677419357,389.09275791145546,,
262,1.6903225806451614,171.6554681398546,,
263,1.6967741935483873,120.34434738519965,,
264,1.703225806451613,247.08020424658764,,
265,1.7096774193548387,223.65963225033508,,
266,1.7161290322580647,78.29290108737713,,
267,1.7225806451612906,396.2200571189079,,
268,1.7290322580645163,409.318993791608,,
269,1.7354838709677423,25.35290634904695,,
270,1.7419354838709677,152.65336722381656,,
271,1.7483870967741937,244.80833581961963,,
272,1.7548387096774196,156.40420302078067,,
273,1.7612903225806453,190.52589901088987,,
274,1.7677419354838713,101.73887028565989,,
275,1.7741935483870968,131.8923281083375,,
276,1.7806451612903227,414.45368364467294,,
277,1.7870967741935486,114.37973655736013,,
278,1.7935483870967743,282.064567176864,,
279,1.8000000000000003,83.81696610020315,,
280,1.806451612903226,173.00473593999834,,
281,1.8129032258064517,104.05333397141928,,
282,1.8193548387096776,316.83634805972997,,
283,1.8258064516129033,63.93572251677197,,
284,1.8322580645161293,112.45769033752033,,
285,1.838709677419355,95.4338742540578,,
286,1.8451612903225807,169.74922477289616,,
287,1.8516129032258066,84.2671287882217,,
288,1.8580645161290326,19.535387641034482,,
289,1.8645161290322583,202.35857668122546,,
290,1.870967741935484,88.24107952986708,,
291,1.8774193548387097,119.786737979336,,
292,1.8838709677419356,396.7913439714378,,
293,1.8903225806451616,83.93417450387804,,
294,1.8967741935483873,147.57806462980872,,
295,1.9032258064516132,227.97287892303405,,
296,1.909677419354839,92.57517701383047,,
297,1.9161290322580646,253.735569338545,,
298,1.9225806451612906,176.48583605040665,,
299,1.9290322580645163,257.9087159712974,,
300,1.9354838709677422,178.6254321529959,,
301,1.941935483870968,20.055489732138184,,
302,1.9483870967741936,105.23158060069468,,
303,1.9548387096774196,336.15820284227607,,
304,1.9612903225806453,116.25757152749873,,
305,1.9677419354838712,231.8096132915366,,
306,1.974193548387097,61.4934088387875,,
307,1.9806451612903226,78.50783789148008,,
308,1.9870967741935486,170.15827532713632,,
309,1.9935483870967745,282.13331803213606,,
310,2.0000000000000004,262.1445975107638,,
311,2.0064516129032257,212.50462125611767,,
312,2.012903225806452,14.041127795041662,,
313,2.0193548387096776,232.86178199283512,,
314,2.0258064516129033,216.98722388397292,,
315,2.0322580645161294,185.65440875052857,,
316,2.038709677419355,266.1070304917608,,
317,2.045161290322581,348.4646846147921,,
318,2.051612903225807,326.32122714876505,,
319,2.0580645161290323,14.161380763338768,,
320,2.064516129032258,189.26664049423988,,
321,2.070967741935484,188.58753879442006,,
322,2.07741935483871,82.78843983550294,,
323,2.0838709677419356,163.12176748390254,,
324,2.0903225806451613,83.27482029909038,,
325,2.0967741935483875,119.65461954620186,,
326,2.103225806451613,156.65706987460257,,
327,2.109677419354839,101.89253994228221,,
328,2.116129032258065,141.85641276276007,,
329,2.1225806451612907,77.27863964279693,,
330,2.129032258064516,82.18361673184657,,
331,2.135483870967742,153.70627989820665,,
332,2.141935483870968,352.3279115937035,,
333,2.1483870967741936,139.57329900426456,,
334,2.1548387096774198,358.90724599488766,,
335,2.1612903225806455,366.02337837745307,,
336,2.167741935483871,7.522566320831996,,
337,2.174193548387097,74.99514436109175,,
338,2.180645161290323,146.74013045381304,,
339,2.1870967741935488,162.83593393819234,,
340,2.193548387096774,157.55121981976689,,
341,2.2,41.10174522491321,,
342,2.206451612903226,193.18871596057883,,
343,2.2129032258064516,109.48200849503519,,
344,2.2193548387096778,181.69615835678624,,
345,2.2258064516129035,45.56847153827272,,
346,2.232258064516129,49.923372387648385,,
347,2.2387096774193553,317.40794109540064,,
348,2.245161290322581,242.09025777414806,,
349,2.2516129032258068,215.71840834544838,,
350,2.258064516129033,177.2678046549669,,
351,2.264516129032258,234.86551237138923,,
352,2.270967741935484,64.00596937538936,,
353,2.2774193548387096,94.29078989482754,,
354,2.2838709677419358,50.60785598404533,,
355,2.2903225806451615,137.22382666125336,,
356,2.296774193548387,215.48789536455683,,
357,2.3032258064516133,302.95680583576507,,
358,2.309677419354839,195.0437324155338,,
359,2.3161290322580648,337.8733324542473,,
360,2.322580645161291,330.69305491100914,,
361,2.329032258064516,247.24302943314285,,
362,2.335483870967742,216.68192276937236,,
363,2.341935483870968,94.88734304528114,,
364,2.3483870967741938,200.96960357082338,,
365,2.3548387096774195,256.90410864822906,,
366,2.361290322580645,221.60071922920716,,
367,2.3677419354838714,243.15057024352228,,
368,2.374193548387097,59.900642301317774,,
369,2.3806451612903228,146.31319627683234,,
370,2.387096774193549,196.22656061130039,,
371,2.393548387096774,19.926862749756705,,
372,2.4,65.33071368713337,,
373,2.406451612903226,281.71741156540776,,
374,2.412903225806452,80.67776624388019,,
375,2.4193548387096775,145.12774076257693,,
376,2.4258064516129036,101.5898110594922,,
377,2.4322580645161294,193.3413408349411,,
378,2.438709677419355,150.2067807318699,,
379,2.445161290322581,111.25361256618304,,
380,2.451612903225807,97.17307207120793,,
381,2.4580645161290327,197.22124078517544,,
382,2.464516129032258,211.17003772461936,,
383,2.470967741935484,131.2059977891999,,
384,2.47741935483871,50.54713759216053,,
385,2.4838709677419355,469.1969564844121,,
386,2.4903225806451617,137.97556903047095,,
387,2.4967741935483874,158.59244683063318,,
388,2.503225806451613,233.1767709332407,,
389,2.5096774193548392,34.80521570732637,,
390,2.516129032258065,332.2016549888321,,
391,2.5225806451612907,263.6072583452665,,
392,2.5290322580645164,41.57735491762091,,
393,2.535483870967742,38.30815982206296,,
394,2.541935483870968,75.24430818837929,,
395,2.5483870967741935,120.84460889625612,,
396,2.5548387096774197,136.5165659208705,,
397,2.5612903225806454,130.13179698007843,,
398,2.567741935483871,522.176611341551,,
399,2.5741935483870972,305.09014015384815,,
400,2.580645161290323,147.30170652175426,,
401,2.5870967741935487,169.38473346156422,,
402,2.593548387096775,134.94264149668496,,
403,2.6,161.49094835926553,,
404,2.606451612903226,26.332691536332533,,
405,2.612903225806452,106.58573089584642,,
406,2.6193548387096777,166.91571166595457,,
407,2.6258064516129034,94.63803402286901,,
408,2.632258064516129,226.73059916006522,,
409,2.6387096774193552,193.63591679541398,,
410,2.645161290322581,187.29738367802616,,
411,2.6516129032258067,325.6279732851434,,
412,2.658064516129033,110.14770089850043,,
413,2.664516129032258,75.07541515915669,,
414,2.670967741935484,288.37692077275767,,
415,2.67741935483871,159.18133846854056,,
416,2.6838709677419357,154.288813420757,,
417,2.6903225806451614,167.6048545980386,,
418,2.6967741935483875,394.4352270459218,,
419,2.7032258064516133,29.007901406991255,,
420,2.709677419354839,350.4186354565844,,
421,2.716129032258065,233.37948846047385,,
422,2.722580645161291,112.12088492398533,,
423,2.7290322580645165,70.37803797523266,,
424,2.735483870967742,89.80586210087344,,
425,2.741935483870968,284.8020177560605,,
426,2.7483870967741937,69.60152499516501,,
427,2.7548387096774194,215.34781283108822,,
428,2.7612903225806456,153.00637653463187,,
429,2.7677419354838713,110.45421444102665,,
430,2.774193548387097,190.48782072503596,,
431,2.780645161290323,123.90236076014013,,
432,2.787096774193549,26.209679066283353,,
433,2.7935483870967746,37.85365792219581,,
434,2.8000000000000003,178.15623460420022,,
435,2.806451612903226,122.73164997301929,,
436,2.8129032258064517,45.62599169407409,,
437,2.8193548387096774,112.62751640909246,,
438,2.8258064516129036,199.2456209029767,,
439,2.8322580645161293,89.22237741546583,,
440,2.838709677419355,170.5255783684327,,
441,2.845161290322581,240.87341517085858,,
442,2.851612903225807,86.98623240658227,,
443,2.8580645161290326,168.52685730664268,,
444,2.8645161290322587,213.1993488931583,,
445,2.870967741935484,62.1467811081963,,
446,2.8774193548387097,104.77977266521194,,
447,2.883870967741936,128.3248561069158,,
448,2.8903225806451616,147.2904695500095,,
449,2.8967741935483873,28.906676816209817,,
450,2.9032258064516134,280.9277002868589,,
451,2.909677419354839,100.36016999322254,,
452,2.916129032258065,3.1917609989222466,,
453,2.9225806451612906,102.55367857056767,,
454,2.9290322580645167,342.12832298714244,,
455,2.935483870967742,202.0220605202447,,
456,2.9419354838709677,190.992262705262,,
457,2.948387096774194,203.65223598127693,,
458,2.9548387096774196,87.24512776372407,,
459,2.9612903225806453,115.86894627313744,,
460,2.9677419354838714,191.13404705269343,,
461,2.974193548387097,235.62884424058805,,
462,2.980645161290323,161.53107828849375,,
463,2.987096774193549,201.40822145975767,,
464,2.9935483870967747,86.54453585658229,,
465,3.0,230.6561816528274,,
466,3.0064516129032257,437.55688165206095,,
467,3.012903225806452,108.4030903101028,,
468,3.0193548387096776,371.49559893469564,,
469,3.0258064516129033,56.76270736315074,,
470,3.0322580645161294,168.34709119382086,,
471,3.038709677419355,211.9852644546147,,
472,3.045161290322581,83.57450232583359,,
473,3.051612903225807,117.68177969442912,,
474,3.0580645161290327,105.50424174799423,,
475,3.0645161290322585,95.73653089460713,,
476,3.070967741935484,69.4427696661576,,
477,3.07741935483871,183.60340537935883,,
478,3.0838709677419356,220.79351568687153,,
479,3.0903225806451613,183.7500658520286,,
480,3.0967741935483875,96.78652736162861,,
481,3.103225806451613,35.79032588951874,,
482,3.109677419354839,255.3699381662103,,
483,3.116129032258065,69.95393333642801,,
484,3.1225806451612907,185.33693682669238,,
485,3.1290322580645165,174.46276239055007,,
486,3.135483870967742,98.5956901703466,,
487,3.141935483870968,140.78507204393358,,
488,3.1483870967741936,133.75658425511295,,
489,3.1548387096774198,115.66431779677546,,
490,3.1612903225806455,190.22251395719172,,
491,3.167741935483871,74.40515604337594,,
492,3.1741935483870973,81.57182338240135,,
493,3.180645161290323,245.07189425460783,,
494,3.1870967741935488,196.8159065342743,,
495,3.1935483870967745,123.74651208583795,,
496,3.2000000000000006,15.008727545901989,,
497,3.206451612903226,173.64229997377248,,
498,3.2129032258064516,120.29217878084242,,
499,3.2193548387096778,394.1892854483358,,
500,3.2258064516129035,196.12787605031232,,
501,3.232258064516129,269.7751743231449,,
502,3.2387096774193553,216.58996476541753,,
503,3.245161290322581,380.4515902155499,,
504,3.2516129032258068,111.56571623482714,,
505,3.258064516129033,46.80865376209519,,
506,3.2645161290322586,297.66158724137324,,
507,3.270967741935484,41.28920346359113,,
508,3.2774193548387096,103.38217312118924,,
509,3.2838709677419358,206.15967171582784,,
510,3.2903225806451615,256.1551598413824,,
511,3.296774193548387,26.460150076295353,,
512,3.3032258064516133,101.9919548825575,,
513,3.309677419354839,323.9510236469732,,
514,3.3161290322580648,276.10818469328876,,
515,3.322580645161291,62.61308160470811,,
516,3.3290322580645166,161.84682025675045,,
517,3.3354838709677423,407.16240088672436,,
518,3.341935483870968,286.09330459262014,,
519,3.3483870967741938,60.381543642095004,,
520,3.3548387096774195,58.532547453492974,,
521,3.3612903225806456,214.5704195587524,,
522,3.3677419354838714,114.26310467339671,,
523,3.374193548387097,243.84968362188283,,
524,3.3806451612903228,195.6281530809091,,
525,3.387096774193549,95.69690496833249,,
526,3.3935483870967746,207.91922523714808,,
527,3.4000000000000004,345.53350576605294,,
528,3.406451612903226,170.62812441769762,,
529,3.412903225806452,68.08421492302034,,
530,3.4193548387096775,182.0344345177987,,
531,3.4258064516129036,205.08106200560965,,
532,3.4322580645161294,109.6644525452158,,
533,3.438709677419355,311.06454174950443,,
534,3.4451612903225812,394.6155630718782,,
535,3.451612903225807,156.13810870566368,,
536,3.4580645161290327,225.01034734620674,,
537,3.4645161290322584,158.40636117228127,,
538,3.4709677419354845,77.86075101216699,,
539,3.47741935483871,184.4026224654637,,
540,3.4838709677419355,127.9177422499693,,
541,3.4903225806451617,59.89213134620734,,
542,3.4967741935483874,243.57922953466786,,
543,3.503225806451613,292.1411456796819,,
544,3.5096774193548392,281.38116032349393,,
545,3.516129032258065,118.75457450426104,,
546,3.5225806451612907,302.95039742494237,,
547,3.529032258064517,268.4579992341646,,
548,3.5354838709677425,61.91263790505533,,
549,3.541935483870968,137.5520449571676,,
550,3.5483870967741935,151.1108896824571,,
551,3.5548387096774197,215.22939208833913,,
552,3.5612903225806454,150.77798016898836,,
553,3.567741935483871,120.7063248698331,,
554,3.5741935483870972,50.15268359924581,,
555,3.580645161290323,99.88421530796022,,
556,3.5870967741935487,293.36778130324143,,
557,3.593548387096775,48.84667734472325,,
558,3.6000000000000005,61.084975040959804,,
559,3.6064516129032262,116.90697074114635,,
560,3.612903225806452,256.01286538948244,,
561,3.6193548387096777,118.81200861306546,,
562,3.6258064516129034,121.91226378683801,,
563,3.6322580645161295,209.4422705706527,,
564,3.6387096774193552,256.94578109460974,,
565,3.645161290322581,146.7176356929598,,
566,3.6516129032258067,120.75489971345213,,
567,3.658064516129033,233.72875068554436,,
568,3.6645161290322585,185.638646302909,,
569,3.6709677419354843,204.9312130038202,,
570,3.67741935483871,124.15455628713927,,
571,3.6838709677419357,51.23973558175557,,
572,3.6903225806451614,139.3121247934481,,
573,3.6967741935483875,190.60580237836524,,
574,3.7032258064516133,73.73850291361322,,
575,3.709677419354839,100.04777662856547,,
576,3.716129032258065,96.18838274756831,,
577,3.722580645161291,209.0653610481133,,
578,3.7290322580645165,171.80576882580786,,
579,3.7354838709677427,294.48025493812185,,
580,3.741935483870968,119.46152448888637,,
581,3.7483870967741937,154.18960404170716,,
582,3.7548387096774194,206.0938920134049,,
583,3.7612903225806456,104.58939115930302,,
584,3.7677419354838713,88.52310932232317,,
585,3.774193548387097,137.4807917623617,,
586,3.780645161290323,224.2192461668412,,
587,3.787096774193549,86.39165205005473,,
588,3.7935483870967746,104.63539255591047,,
589,3.8000000000000007,200.9013087639804,,
590,3.8064516129032264,203.20422121296997,,
591,3.8129032258064517,136.36969750159824,,
592,3.819354838709678,39.46678251049361,,
593,3.8258064516129036,97.26775499614683,,
594,3.8322580645161293,44.81018213955734,,
595,3.838709677419355,87.24682747903061,,
596,3.845161290322581,221.84300393852567,,
597,3.851612903225807,125.26775994341297,,
598,3.8580645161290326,208.77403872345064,,
599,3.8645161290322587,240.26695856403637,,
600,3.8709677419354844,147.13376613132237,,
601,3.8774193548387097,310.24738331568915,,
602,3.883870967741936,95.80282665682061,,
603,3.8903225806451616,46.80342011112723,,
604,3.8967741935483873,151.43709974551663,,
605,3.9032258064516134,82.72183545033607,,
606,3.909677419354839,137.1124508597292,,
607,3.916129032258065,158.42725867894447,,
608,3.9225806451612906,160.44673962175128,,
609,3.9290322580645167,121.49654493010404,,
610,3.9354838709677424,142.35827573710765,,
611,3.941935483870968,117.01419766437563,,
612,3.948387096774194,198.6037347675247,,
613,3.9548387096774196,197.51369906785936,,
614,3.9612903225806453,361.3771441597022,,
615,3.9677419354838714,117.47885131274768,,
616,3.974193548387097,62.57257330060691,,
617,3.980645161290323,242.01048124855586,,
618,3.987096774193549,188.7779834676216,,
619,3.9935483870967747,175.91679234158727,,
620,4.000000000000001,218.32821621567803,,
621,4.006451612903226,99.37953085026416,,
622,4.012903225806451,69.74777368722398,,
623,4.019354838709678,152.8624558774468,,
624,4.025806451612904,172.54696216353426,,
625,4.032258064516129,122.38045066755151,,
626,4.038709677419355,155.32917283785972,,
627,4.045161290322581,113.2509442447671,,
628,4.051612903225807,127.89162305268559,,
629,4.058064516129033,23.973467675765455,,
630,4.064516129032259,12.859520880076118,,
631,4.070967741935484,101.97275270046163,,
632,4.07741935483871,123.43386531483416,,
633,4.083870967741936,134.30965229040441,,
634,4.090322580645162,150.55792835172048,,
635,4.096774193548387,322.64144969217307,,
636,4.103225806451614,176.79397470369898,,
637,4.109677419354839,262.9104263033078,,
638,4.116129032258065,208.19380900706716,,
639,4.122580645161291,296.95192558301693,,
640,4.129032258064516,332.96529390473484,,
641,4.135483870967742,97.19045772191491,,
642,4.141935483870968,190.64849168004548,,
643,4.1483870967741945,133.35404842332326,,
644,4.15483870967742,155.63379916634017,,
645,4.161290322580646,215.8418313777758,,
646,4.167741935483871,245.08307472919526,,
647,4.174193548387097,45.73774793194139,,
648,4.180645161290323,148.96686423510513,,
649,4.187096774193549,230.59638407734226,,
650,4.193548387096775,73.06126210147764,,
651,4.2,143.02635109886668,,
652,4.206451612903226,53.87870024347842,,
653,4.212903225806452,179.2251762400754,,
654,4.219354838709678,35.13131559965359,,
655,4.225806451612904,71.10034213911577,,
656,4.23225806451613,112.1148450845351,,
657,4.238709677419355,301.93908063557546,,
658,4.2451612903225815,232.26267229550174,,
659,4.251612903225807,290.91482159843093,,
660,4.258064516129032,70.69274223141869,,
661,4.264516129032258,82.2524755592571,,
662,4.270967741935484,147.28961669147728,,
663,4.2774193548387105,79.62888418435718,,
664,4.283870967741936,127.46007925594468,,
665,4.290322580645162,100.89852621033916,,
666,4.296774193548387,58.579124505168366,,
667,4.303225806451613,208.9299133960935,,
668,4.3096774193548395,125.9976735842301,,
669,4.316129032258065,83.02205514300006,,
670,4.322580645161291,358.8136313009163,,
671,4.329032258064516,518.5931211643448,,
672,4.335483870967742,87.99276941014335,,
673,4.341935483870968,243.20906986560493,,
674,4.348387096774194,95.70282192476996,,
675,4.35483870967742,99.87351162283663,,
676,4.361290322580646,265.8061794955099,,
677,4.367741935483871,233.71858388416368,,
678,4.3741935483870975,33.12034583523366,,
679,4.380645161290323,123.06155736555976,,
680,4.387096774193548,152.08616773996755,,
681,4.393548387096775,92.41184986591792,,
682,4.4,102.01426989362497,,
683,4.4064516129032265,104.85018237834493,,
684,4.412903225806452,199.54291353981878,,
685,4.419354838709678,135.13379684219848,,
686,4.425806451612903,222.3407510667799,,
687,4.432258064516129,167.77503618992245,,
688,4.4387096774193555,113.81174308125648,,
689,4.445161290322582,76.79573722902327,,
690,4.451612903225807,15.606557731932979,,
691,4.458064516129032,182.01441283067481,,
692,4.464516129032258,134.79363890669984,,
693,4.470967741935484,234.99040816913748,,
694,4.477419354838711,133.9240023169043,,
695,4.483870967741936,65.63689822901115,,
696,4.490322580645162,195.42391998203067,,
697,4.496774193548387,62.07550151186299,,
698,4.5032258064516135,50.27500326130204,,
699,4.509677419354839,147.36540713836308,,
700,4.516129032258066,219.9173102130622,,
701,4.522580645161291,163.17716604514735,,
702,4.529032258064516,178.8473389843131,,
703,4.5354838709677425,96.17861591376538,,
704,4.541935483870968,84.04712329527224,,
705,4.548387096774194,100.98240080917445,,
706,4.554838709677419,63.88969110151258,,
707,4.561290322580646,197.13234531787418,,
708,4.5677419354838715,29.571882565304755,,
709,4.574193548387098,105.64462237749326,,
710,4.580645161290323,45.444984226492416,,
711,4.587096774193548,201.04246191581043,,
712,4.593548387096774,71.9394367191378,,
713,4.6000000000000005,265.3092165675159,,
714,4.606451612903227,328.077617365142,,
715,4.612903225806452,93.58281073608605,,
716,4.619354838709678,326.4887076297207,,
717,4.625806451612903,63.34902058113656,,
718,4.6322580645161295,219.72908452959248,,
719,4.638709677419355,238.82133534317663,,
720,4.645161290322582,152.0175799768443,,
721,4.651612903225807,120.10910465636901,,
722,4.658064516129032,181.05431612695952,,
723,4.6645161290322585,133.8143445663415,,
724,4.670967741935484,169.56775912907563,,
725,4.67741935483871,177.59810500402767,,
726,4.683870967741936,182.35130669632247,,
727,4.690322580645162,264.3367691058859,,
728,4.6967741935483875,148.46307458483693,,
729,4.703225806451614,325.1954191654595,,
730,4.709677419354839,151.77479582402046,,
731,4.716129032258065,33.10365846121638,,
732,4.72258064516129,53.47544070413264,,
733,4.7290322580645165,253.5135435689786,,
734,4.735483870967743,263.7986583714483,,
735,4.741935483870968,281.4215146362694,,
736,4.748387096774194,226.24389235733372,,
737,4.754838709677419,30.028413217436313,,
738,4.7612903225806456,333.83828792408246,,
739,4.767741935483872,89.04640478862962,,
740,4.774193548387098,49.22166782118493,,
741,4.780645161290323,67.47197026342454,,
742,4.787096774193548,218.34991577074172,,
743,4.7935483870967746,182.00278249694847,,
744,4.8,24.019801122839034,,
745,4.806451612903226,169.8767204270455,,
746,4.812903225806452,61.0232018054637,,
747,4.819354838709678,141.03405137043256,,
748,4.825806451612904,241.77505297357803,,
749,4.83225806451613,177.82460846333123,,
750,4.838709677419355,72.88091636109495,,
751,4.845161290322581,261.8886938242182,,
752,4.851612903225807,205.64272918026302,,
753,4.858064516129033,159.08860811834398,,
754,4.864516129032259,151.86749749428566,,
755,4.870967741935484,87.90984696997478,,
756,4.87741935483871,163.27202329563315,,
757,4.883870967741935,42.423185024940494,,
758,4.890322580645162,180.34274917406543,,
759,4.896774193548388,260.2668883383544,,
760,4.903225806451614,78.36110596887103,,
761,4.909677419354839,98.14037805298989,,
762,4.916129032258065,146.46184182915957,,
763,4.922580645161291,336.9799542359527,,
764,4.929032258064516,28.61221851208512,,
765,4.935483870967743,90.79835945333907,,
766,4.941935483870968,77.68921511705332,,
767,4.948387096774194,116.34993288692225,,
768,4.95483870967742,129.28563858768317,,
769,4.961290322580646,260.5557563109061,,
770,4.967741935483871,177.7424667487645,,
771,4.974193548387098,185.48189869528784,,
772,4.980645161290323,345.1451448269529,,
773,4.9870967741935495,116.33076721037187,,
774,4.993548387096775,102.84143469652848,,
775,5.0,294.0,,
