frequencies,amplitudes,timestamp,settings
0,0.0,92.0,2,sampling period
1,0.02,26.500545420619936,0,sampling bounds
2,0.04,9.015727600322299,2,
3,0.06,24.095705836897665,2,
4,0.08,9.921753339397187,-,
5,0.1,30.739231772675772,1,
6,0.12,6.4481381988915825,1,
7,0.14,7.650943258893863,-,
8,0.16,12.861812101736913,1,
9,0.18,14.48004775638096,7,
10,0.2,7.717145827405929,T,
11,0.22,1.3669320320275318,1,
12,0.24,2.529990836333652,5,
13,0.26,8.843195184131122,:,
14,0.28,5.448914127005424,4,
15,0.3,3.967104420415546,9,
16,0.32,10.807127874454372,:,
17,0.34,14.659871320234705,1,
18,0.36,18.11032264563699,2,
19,0.38,0.5913443678889448,,
20,0.4,1.8676614258556359,,
21,0.42,7.218338746934043,,
22,0.44,3.1656802036631038,,
23,0.46,6.8168161319674905,,
24,0.48,16.80052930441289,,
25,0.5,19.04212906088323,,
26,0.52,4.580763965683723,,
27,0.54,13.781530642371573,,
28,0.56,11.377328216397649,,
29,0.58,12.0560955097217,,
30,0.6,18.141065058226626,,
31,0.62,16.161741718955103,,
32,0.64,1.4433968029834587,,
33,0.66,3.072924488590175,,
34,0.68,5.826644304697777,,
35,0.7000000000000001,6.072197963405475,,
36,0.72,4.219930363534151,,
37,0.74,3.883202582970007,,
38,0.76,17.39636198296788,,
39,0.78,9.174620579892835,,
40,0.8,10.305682126344612,,
41,0.8200000000000001,8.552326601498093,,
42,0.84,17.828599760075015,,
43,0.86,14.251896993443351,,
44,0.88,7.501483373492343,,
45,0.9,12.912578859698082,,
46,0.92,9.942149310124144,,
47,0.9400000000000001,15.117857130170849,,
48,0.96,0.1975310585075995,,
49,0.98,4.32357203250101,,
50,1.0,4.908173789073638,,
51,1.02,15.949843764880203,,
52,1.04,15.843287962907956,,
53,1.06,8.7690356175805,,
54,1.08,12.346088900656147,,
55,1.1,9.015651062977799,,
56,1.12,7.831184024491605,,
57,1.1400000000000001,11.927014050711433,,
58,1.16,2.0885343794184754,,
59,1.18,7.809063423912425,,
60,1.2,4.464104818475479,,
61,1.22,16.508411815419304,,
62,1.24,15.504380788566632,,
63,1.26,6.877247707300897,,
64,1.28,4.392485691362626,,
65,1.3,11.574022696243194,,
66,1.32,4.9935890368915,,
67,1.34,11.098170337371355,,
68,1.36,7.784228875817835,,
69,1.3800000000000001,7.905256288286194,,
70,1.4000000000000001,18.346537331662027,,
71,1.42,12.885755959193954,,
72,1.44,8.54180614269414,,
73,1.46,8.538528060322713,,
74,1.48,5.870702138593998,,
75,1.5,12.750623214941827,,
76,1.52,6.905694445536561,,
77,1.54,11.375984317291538,,
78,1.56,6.505411656563376,,
79,1.58,16.278763732606546,,
80,1.6,10.880759624674555,,
81,1.62,9.322043250559442,,
82,1.6400000000000001,8.920273428857126,,
83,1.6600000000000001,9.524004502727967,,
84,1.68,26.108483715305795,,
85,1.7,8.370504767158558,,
86,1.72,7.422978818367727,,
87,1.74,14.569003484237514,,
88,1.76,1.914017860553618,,
89,1.78,1.4143101702086964,,
90,1.8,14.462454846788543,,
91,1.82,12.319461572400636,,
92,1.84,8.343636157638949,,
93,1.86,16.471543555671957,,
94,1.8800000000000001,9.650421186197324,,
95,1.9000000000000001,6.315063753853617,,
96,1.92,9.202321059951522,,
97,1.94,3.892349741695165,,
98,1.96,12.815485095059707,,
99,1.98,7.524284392211499,,
100,2.0,4.122496209975139,,
101,2.02,8.232703952756282,,
102,2.04,8.470422633490264,,
103,2.06,20.052024904063813,,
104,2.08,14.537052225716124,,
105,2.1,8.148017757456651,,
106,2.12,5.785287022938893,,
107,2.14,7.139389086671238,,
108,2.16,54.32724138179482,,
109,2.18,34.08065063210704,,
110,2.2,4.612701200949536,,
111,2.22,11.088640074231169,,
112,2.24,9.459684017387461,,
113,2.2600000000000002,26.36897235132923,,
114,2.2800000000000002,22.338957417399676,,
115,2.3000000000000003,12.65883185828186,,
116,2.32,10.065321577199681,,
117,2.34,6.114697467941569,,
118,2.36,13.240455227650378,,
119,2.38,9.033445241874627,,
120,2.4,8.729854135879208,,
121,2.42,9.478997357358818,,
122,2.44,10.28450570332332,,
123,2.46,8.602433520182878,,
124,2.48,1.9550916191629706,,
125,2.5,3.1622776601683795,,
126,2.52,22.206620993055168,,
127,2.54,9.570390328052099,,
128,2.56,2.2900173586810935,,
129,2.58,8.200565570425747,,
130,2.6,3.7985980373243797,,
131,2.62,4.340543338965479,,
132,2.64,5.756536138221292,,
133,2.66,9.902910950872746,,
134,2.68,12.438954190585841,,
135,2.7,0.9309093954674739,,
136,2.72,4.448225880038078,,
137,2.74,5.32535301115404,,
138,2.7600000000000002,20.392147248245013,,
139,2.7800000000000002,15.708381243644617,,
140,2.8000000000000003,5.477595702348926,,
141,2.82,9.422824182341667,,
142,2.84,7.416151645880508,,
143,2.86,1.656326977451318,,
144,2.88,4.579433124889555,,
145,2.9,2.630781698387617,,
146,2.92,9.871869372758724,,
147,2.94,24.92199341602088,,
148,2.96,6.133604119981051,,
149,2.98,3.0649755165993775,,
150,3.0,3.5930251956047443,,
151,3.02,8.416798744443646,,
152,3.04,13.409191460318436,,
153,3.06,7.3878131793230475,,
154,3.08,4.493189056397019,,
155,3.1,16.79259974907957,,
156,3.12,13.032544304068184,,
157,3.14,13.909735885918066,,
158,3.16,8.75716412649777,,
159,3.18,6.131107914680838,,
160,3.2,18.099360470299736,,
161,3.22,3.636010175759093,,
162,3.24,9.849918026691856,,
163,3.2600000000000002,10.724608566953204,,
164,3.2800000000000002,9.43354199238227,,
165,3.3000000000000003,17.283137780585857,,
166,3.3200000000000003,6.177217873279079,,
167,3.34,12.768420127696926,,
168,3.36,6.195508135794935,,
169,3.38,6.4385059037793635,,
170,3.4,17.150493141622007,,
171,3.42,1.6641746371348631,,
172,3.44,7.012229265565505,,
173,3.46,2.978238849397031,,
174,3.48,7.745016805351837,,
175,3.5,20.233117287212124,,
176,3.52,15.504571641581704,,
177,3.54,1.3300501575112575,,
178,3.56,7.944419216487454,,
179,3.58,6.804882710628798,,
180,3.6,19.668308575056038,,
181,3.62,2.2423626270158175,,
182,3.64,8.701482397538996,,
183,3.66,10.702542169633757,,
184,3.68,2.271735410775522,,
185,3.7,17.791835068166495,,
186,3.72,3.519802542385649,,
187,3.74,5.408788439556807,,
188,3.7600000000000002,16.826557700953362,,
189,3.7800000000000002,11.740722224668344,,
190,3.8000000000000003,1.7843738790209938,,
191,3.8200000000000003,3.183347096923867,,
192,3.84,15.87613464424238,,
193,3.86,13.214732251076377,,
194,3.88,6.7846374436750665,,
195,3.9,11.685629361175998,,
196,3.92,13.87155191605601,,
197,3.94,4.320472571830978,,
198,3.96,10.151091436999476,,
199,3.98,22.6997716807116,,
200,4.0,14.697109409633605,,
201,4.0200000000000005,9.758364011402678,,
202,4.04,5.314625189619937,,
203,4.0600000000000005,11.041167509827039,,
204,4.08,14.372675941881942,,
205,4.1,6.778959072571319,,
206,4.12,9.42268728109202,,
207,4.14,22.760709278341555,,
208,4.16,3.5210721398083815,,
209,4.18,8.160607944593483,,
210,4.2,4.31281015754999,,
211,4.22,15.736134022460128,,
212,4.24,15.52168944682994,,
213,4.26,16.27639394303182,,
214,4.28,2.723215808795654,,
215,4.3,6.9091554336437495,,
216,4.32,37.26401407184131,,
217,4.34,25.02928688419882,,
218,4.36,7.347165044255,,
219,4.38,4.254563800898112,,
220,4.4,6.8336948247137315,,
221,4.42,12.413386351557655,,
222,4.44,21.535876931944124,,
223,4.46,1.8670356510058994,,
224,4.48,8.23592782073415,,
225,4.5,10.74429584948082,,
226,4.5200000000000005,12.065724826754172,,
227,4.54,20.48522838646419,,
228,4.5600000000000005,9.622946804499348,,
229,4.58,4.8747879721478675,,
230,4.6000000000000005,10.43835669824739,,
231,4.62,16.07648940678277,,
232,4.64,20.778568184997454,,
233,4.66,6.6963456325130295,,
234,4.68,20.614409230686988,,
235,4.7,16.971026287321354,,
236,4.72,2.9041232920992224,,
237,4.74,9.640693727977396,,
238,4.76,5.435286619536982,,
239,4.78,7.129662453546953,,
240,4.8,8.34521361990925,,
241,4.82,5.036776142379053,,
242,4.84,8.086449929574362,,
243,4.86,12.229848219646476,,
244,4.88,5.285687301935244,,
245,4.9,0.7988924587253505,,
246,4.92,4.210367921139056,,
247,4.94,6.878248192383194,,
248,4.96,6.8538270959806935,,
249,4.98,5.136586133486958,,
250,5.0,6.0,,
0,0.0,92.0,2,sampling period
1,0.02,26.500545420619936,0,sampling bounds
2,0.04,9.015727600322299,2,
3,0.06,24.095705836897665,2,
4,0.08,9.921753339397187,-,
5,0.1,30.739231772675772,1,
6,0.12,6.4481381988915825,1,
7,0.14,7.650943258893863,-,
8,0.16,12.861812101736913,1,
9,0.18,14.48004775638096,7,
10,0.2,7.717145827405929,T,
11,0.22,1.3669320320275318,1,
12,0.24,2.529990836333652,5,
13,0.26,8.843195184131122,:,
14,0.28,5.448914127005424,4,
15,0.3,3.967104420415546,9,
16,0.32,10.807127874454372,:,
17,0.34,14.659871320234705,1,
18,0.36,18.11032264563699,2,
19,0.38,0.5913443678889448,,
20,0.4,1.8676614258556359,,
21,0.42,7.218338746934043,,
22,0.44,3.1656802036631038,,
23,0.46,6.8168161319674905,,
24,0.48,16.80052930441289,,
25,0.5,19.04212906088323,,
26,0.52,4.580763965683723,,
27,0.54,13.781530642371573,,
28,0.56,11.377328216397649,,
29,0.58,12.0560955097217,,
30,0.6,18.141065058226626,,
31,0.62,16.161741718955103,,
32,0.64,1.4433968029834587,,
33,0.66,3.072924488590175,,
34,0.68,5.826644304697777,,
35,0.7000000000000001,6.072197963405475,,
36,0.72,4.219930363534151,,
37,0.74,3.883202582970007,,
38,0.76,17.39636198296788,,
39,0.78,9.174620579892835,,
40,0.8,10.305682126344612,,
41,0.8200000000000001,8.552326601498093,,
42,0.84,17.828599760075015,,
43,0.86,14.251896993443351,,
44,0.88,7.501483373492343,,
45,0.9,12.912578859698082,,
46,0.92,9.942149310124144,,
47,0.9400000000000001,15.117857130170849,,
48,0.96,0.1975310585075995,,
49,0.98,4.32357203250101,,
50,1.0,4.908173789073638,,
51,1.02,15.949843764880203,,
52,1.04,15.843287962907956,,
53,1.06,8.7690356175805,,
54,1.08,12.346088900656147,,
55,1.1,9.015651062977799,,
56,1.12,7.831184024491605,,
57,1.1400000000000001,11.927014050711433,,
58,1.16,2.0885343794184754,,
59,1.18,7.809063423912425,,
60,1.2,4.464104818475479,,
61,1.22,16.508411815419304,,
62,1.24,15.504380788566632,,
63,1.26,6.877247707300897,,
64,1.28,4.392485691362626,,
65,1.3,11.574022696243194,,
66,1.32,4.9935890368915,,
67,1.34,11.098170337371355,,
68,1.36,7.784228875817835,,
69,1.3800000000000001,7.905256288286194,,
70,1.4000000000000001,18.346537331662027,,
71,1.42,12.885755959193954,,
72,1.44,8.54180614269414,,
73,1.46,8.538528060322713,,
74,1.48,5.870702138593998,,
75,1.5,12.750623214941827,,
76,1.52,6.905694445536561,,
77,1.54,11.375984317291538,,
78,1.56,6.505411656563376,,
79,1.58,16.278763732606546,,
80,1.6,10.880759624674555,,
81,1.62,9.322043250559442,,
82,1.6400000000000001,8.920273428857126,,
83,1.6600000000000001,9.524004502727967,,
84,1.68,26.108483715305795,,
85,1.7,8.370504767158558,,
86,1.72,7.422978818367727,,
87,1.74,14.569003484237514,,
88,1.76,1.914017860553618,,
89,1.78,1.4143101702086964,,
90,1.8,14.462454846788543,,
91,1.82,12.319461572400636,,
92,1.84,8.343636157638949,,
93,1.86,16.471543555671957,,
94,1.8800000000000001,9.650421186197324,,
95,1.9000000000000001,6.315063753853617,,
96,1.92,9.202321059951522,,
97,1.94,3.892349741695165,,
98,1.96,12.815485095059707,,
99,1.98,7.524284392211499,,
100,2.0,4.122496209975139,,
101,2.02,8.232703952756282,,
102,2.04,8.470422633490264,,
103,2.06,20.052024904063813,,
104,2.08,14.537052225716124,,
105,2.1,8.148017757456651,,
106,2.12,5.785287022938893,,
107,2.14,7.139389086671238,,
108,2.16,54.32724138179482,,
109,2.18,34.08065063210704,,
110,2.2,4.612701200949536,,
111,2.22,11.088640074231169,,
112,2.24,9.459684017387461,,
113,2.2600000000000002,26.36897235132923,,
114,2.2800000000000002,22.338957417399676,,
115,2.3000000000000003,12.65883185828186,,
116,2.32,10.065321577199681,,
117,2.34,6.114697467941569,,
118,2.36,13.240455227650378,,
119,2.38,9.033445241874627,,
120,2.4,8.729854135879208,,
121,2.42,9.478997357358818,,
122,2.44,10.28450570332332,,
123,2.46,8.602433520182878,,
124,2.48,1.9550916191629706,,
125,2.5,3.1622776601683795,,
126,2.52,22.206620993055168,,
127,2.54,9.570390328052099,,
128,2.56,2.2900173586810935,,
129,2.58,8.200565570425747,,
130,2.6,3.7985980373243797,,
131,2.62,4.340543338965479,,
132,2.64,5.756536138221292,,
133,2.66,9.902910950872746,,
134,2.68,12.438954190585841,,
135,2.7,0.9309093954674739,,
136,2.72,4.448225880038078,,
137,2.74,5.32535301115404,,
138,2.7600000000000002,20.392147248245013,,
139,2.7800000000000002,15.708381243644617,,
140,2.8000000000000003,5.477595702348926,,
141,2.82,9.422824182341667,,
142,2.84,7.416151645880508,,
143,2.86,1.656326977451318,,
144,2.88,4.579433124889555,,
145,2.9,2.630781698387617,,
146,2.92,9.871869372758724,,
147,2.94,24.92199341602088,,
148,2.96,6.133604119981051,,
149,2.98,3.0649755165993775,,
150,3.0,3.5930251956047443,,
151,3.02,8.416798744443646,,
152,3.04,13.409191460318436,,
153,3.06,7.3878131793230475,,
154,3.08,4.493189056397019,,
155,3.1,16.79259974907957,,
156,3.12,13.032544304068184,,
157,3.14,13.909735885918066,,
158,3.16,8.75716412649777,,
159,3.18,6.131107914680838,,
160,3.2,18.099360470299736,,
161,3.22,3.636010175759093,,
162,3.24,9.849918026691856,,
163,3.2600000000000002,10.724608566953204,,
164,3.2800000000000002,9.43354199238227,,
165,3.3000000000000003,17.283137780585857,,
166,3.3200000000000003,6.177217873279079,,
167,3.34,12.768420127696926,,
168,3.36,6.195508135794935,,
169,3.38,6.4385059037793635,,
170,3.4,17.150493141622007,,
171,3.42,1.6641746371348631,,
172,3.44,7.012229265565505,,
173,3.46,2.978238849397031,,
174,3.48,7.745016805351837,,
175,3.5,20.233117287212124,,
176,3.52,15.504571641581704,,
177,3.54,1.3300501575112575,,
178,3.56,7.944419216487454,,
179,3.58,6.804882710628798,,
180,3.6,19.668308575056038,,
181,3.62,2.2423626270158175,,
182,3.64,8.701482397538996,,
183,3.66,10.702542169633757,,
184,3.68,2.271735410775522,,
185,3.7,17.791835068166495,,
186,3.72,3.519802542385649,,
187,3.74,5.408788439556807,,
188,3.7600000000000002,16.826557700953362,,
189,3.7800000000000002,11.740722224668344,,
190,3.8000000000000003,1.7843738790209938,,
191,3.8200000000000003,3.183347096923867,,
192,3.84,15.87613464424238,,
193,3.86,13.214732251076377,,
194,3.88,6.7846374436750665,,
195,3.9,11.685629361175998,,
196,3.92,13.87155191605601,,
197,3.94,4.320472571830978,,
198,3.96,10.151091436999476,,
199,3.98,22.6997716807116,,
200,4.0,14.697109409633605,,
201,4.0200000000000005,9.758364011402678,,
202,4.04,5.314625189619937,,
203,4.0600000000000005,11.041167509827039,,
204,4.08,14.372675941881942,,
205,4.1,6.778959072571319,,
206,4.12,9.42268728109202,,
207,4.14,22.760709278341555,,
208,4.16,3.5210721398083815,,
209,4.18,8.160607944593483,,
210,4.2,4.31281015754999,,
211,4.22,15.736134022460128,,
212,4.24,15.52168944682994,,
213,4.26,16.27639394303182,,
214,4.28,2.723215808795654,,
215,4.3,6.9091554336437495,,
216,4.32,37.26401407184131,,
217,4.34,25.02928688419882,,
218,4.36,7.347165044255,,
219,4.38,4.254563800898112,,
220,4.4,6.8336948247137315,,
221,4.42,12.413386351557655,,
222,4.44,21.535876931944124,,
223,4.46,1.8670356510058994,,
224,4.48,8.23592782073415,,
225,4.5,10.74429584948082,,
226,4.5200000000000005,12.065724826754172,,
227,4.54,20.48522838646419,,
228,4.5600000000000005,9.622946804499348,,
229,4.58,4.8747879721478675,,
230,4.6000000000000005,10.43835669824739,,
231,4.62,16.07648940678277,,
232,4.64,20.778568184997454,,
233,4.66,6.6963456325130295,,
234,4.68,20.614409230686988,,
235,4.7,16.971026287321354,,
236,4.72,2.9041232920992224,,
237,4.74,9.640693727977396,,
238,4.76,5.435286619536982,,
239,4.78,7.129662453546953,,
240,4.8,8.34521361990925,,
241,4.82,5.036776142379053,,
242,4.84,8.086449929574362,,
243,4.86,12.229848219646476,,
244,4.88,5.285687301935244,,
245,4.9,0.7988924587253505,,
246,4.92,4.210367921139056,,
247,4.94,6.878248192383194,,
248,4.96,6.8538270959806935,,
249,4.98,5.136586133486958,,
250,5.0,6.0,,
