variable,amplitude,timestamp,settings
0,1,871987500.0,2022-11-22T11:46:51,"{'ex_mode': ('#exMode', 1), 'acq_on': ('#acqState', 1), 'acq_mode': ('#acqMode', 0), 'det_fft_window': ('#fftWindowFunction', 1), 'n_measurements': ('#nbOfMeas', 500), 'n_turns': ('#nbOfTurns', 256), 'interval': ('#acqPeriod', 1), 'from': ('#acqOffset', 1025), 'ex_h_amplitude': ('#exAmplitudeH', 0.09), 'ex_v_amplitude': ('#exAmplitudeV', 0.06), 'ex_h_enable': ('#exEnableH', 'True'), 'ex_v_enable': ('#exEnableV', 'False'), 'chirp_h_start': ('#chirpStartFreqH', 0.3), 'chirp_h_stop': ('#chirpStopFreqH', 0.35), 'chirp_v_start': ('#chirpStartFreqV', 0.25), 'chirp_v_stop': ('#chirpStopFreqV', 0.4), 'bias_h': ('#biasH', 0), 'bias_v': ('#biasV', 0), 'time_const_1h': ('#timeConstant1H', 1), 'time_const_2h': ('#timeConstant2H', 1), 'time_const_1v': ('#timeConstant1V', 1), 'time_const_2v': ('#timeConstant2V', 1), 'DC_det_1': ('#DCdet1', 0), 'DC_det_2': ('#DCdet2', 0), 'ex_pattern': ('#exPattern', 1)}"
0,1,871987500.0,2022-11-22T11:46:51,"{'ex_mode': ('#exMode', 1), 'acq_on': ('#acqState', 1), 'acq_mode': ('#acqMode', 0), 'det_fft_window': ('#fftWindowFunction', 1), 'n_measurements': ('#nbOfMeas', 500), 'n_turns': ('#nbOfTurns', 256), 'interval': ('#acqPeriod', 1), 'from': ('#acqOffset', 1025), 'ex_h_amplitude': ('#exAmplitudeH', 0.09), 'ex_v_amplitude': ('#exAmplitudeV', 0.06), 'ex_h_enable': ('#exEnableH', 'True'), 'ex_v_enable': ('#exEnableV', 'False'), 'chirp_h_start': ('#chirpStartFreqH', 0.3), 'chirp_h_stop': ('#chirpStopFreqH', 0.35), 'chirp_v_start': ('#chirpStartFreqV', 0.25), 'chirp_v_stop': ('#chirpStopFreqV', 0.4), 'bias_h': ('#biasH', 0), 'bias_v': ('#biasV', 0), 'time_const_1h': ('#timeConstant1H', 1), 'time_const_2h': ('#timeConstant2H', 1), 'time_const_1v': ('#timeConstant1V', 1), 'time_const_2v': ('#timeConstant2V', 1), 'DC_det_1': ('#DCdet1', 0), 'DC_det_2': ('#DCdet2', 0), 'ex_pattern': ('#exPattern', 1)}"
0,1,885500000.0,2022-11-22T11:47:26,"{'ex_mode': ('#exMode', 1), 'acq_on': ('#acqState', 1), 'acq_mode': ('#acqMode', 0), 'det_fft_window': ('#fftWindowFunction', 1), 'n_measurements': ('#nbOfMeas', 500), 'n_turns': ('#nbOfTurns', 256), 'interval': ('#acqPeriod', 1), 'from': ('#acqOffset', 1025), 'ex_h_amplitude': ('#exAmplitudeH', 0.09), 'ex_v_amplitude': ('#exAmplitudeV', 0.06), 'ex_h_enable': ('#exEnableH', 'True'), 'ex_v_enable': ('#exEnableV', 'False'), 'chirp_h_start': ('#chirpStartFreqH', 0.3), 'chirp_h_stop': ('#chirpStopFreqH', 0.35), 'chirp_v_start': ('#chirpStartFreqV', 0.25), 'chirp_v_stop': ('#chirpStopFreqV', 0.4), 'bias_h': ('#biasH', 0), 'bias_v': ('#biasV', 0), 'time_const_1h': ('#timeConstant1H', 1), 'time_const_2h': ('#timeConstant2H', 1), 'time_const_1v': ('#timeConstant1V', 1), 'time_const_2v': ('#timeConstant2V', 1), 'DC_det_1': ('#DCdet1', 0), 'DC_det_2': ('#DCdet2', 0), 'ex_pattern': ('#exPattern', 1)}"
0,1,885500000.0,2022-11-22T11:47:26,"{'ex_mode': ('#exMode', 1), 'acq_on': ('#acqState', 1), 'acq_mode': ('#acqMode', 0), 'det_fft_window': ('#fftWindowFunction', 1), 'n_measurements': ('#nbOfMeas', 500), 'n_turns': ('#nbOfTurns', 256), 'interval': ('#acqPeriod', 1), 'from': ('#acqOffset', 1025), 'ex_h_amplitude': ('#exAmplitudeH', 0.09), 'ex_v_amplitude': ('#exAmplitudeV', 0.06), 'ex_h_enable': ('#exEnableH', 'True'), 'ex_v_enable': ('#exEnableV', 'False'), 'chirp_h_start': ('#chirpStartFreqH', 0.3), 'chirp_h_stop': ('#chirpStopFreqH', 0.35), 'chirp_v_start': ('#chirpStartFreqV', 0.25), 'chirp_v_stop': ('#chirpStopFreqV', 0.4), 'bias_h': ('#biasH', 0), 'bias_v': ('#biasV', 0), 'time_const_1h': ('#timeConstant1H', 1), 'time_const_2h': ('#timeConstant2H', 1), 'time_const_1v': ('#timeConstant1V', 1), 'time_const_2v': ('#timeConstant2V', 1), 'DC_det_1': ('#DCdet1', 0), 'DC_det_2': ('#DCdet2', 0), 'ex_pattern': ('#exPattern', 1)}"
0,2,538487500.0,2022-11-22T11:48:19,"{'ex_mode': ('#exMode', 1), 'acq_on': ('#acqState', 1), 'acq_mode': ('#acqMode', 0), 'det_fft_window': ('#fftWindowFunction', 1), 'n_measurements': ('#nbOfMeas', 250), 'n_turns': ('#nbOfTurns', 256), 'interval': ('#acqPeriod', 2), 'from': ('#acqOffset', 1025), 'ex_h_amplitude': ('#exAmplitudeH', 0.09), 'ex_v_amplitude': ('#exAmplitudeV', 0.06), 'ex_h_enable': ('#exEnableH', 'True'), 'ex_v_enable': ('#exEnableV', 'False'), 'chirp_h_start': ('#chirpStartFreqH', 0.3), 'chirp_h_stop': ('#chirpStopFreqH', 0.35), 'chirp_v_start': ('#chirpStartFreqV', 0.25), 'chirp_v_stop': ('#chirpStopFreqV', 0.4), 'bias_h': ('#biasH', 0), 'bias_v': ('#biasV', 0), 'time_const_1h': ('#timeConstant1H', 1), 'time_const_2h': ('#timeConstant2H', 1), 'time_const_1v': ('#timeConstant1V', 1), 'time_const_2v': ('#timeConstant2V', 1), 'DC_det_1': ('#DCdet1', 0), 'DC_det_2': ('#DCdet2', 0), 'ex_pattern': ('#exPattern', 1)}"
0,2,538487500.0,2022-11-22T11:48:19,"{'ex_mode': ('#exMode', 1), 'acq_on': ('#acqState', 1), 'acq_mode': ('#acqMode', 0), 'det_fft_window': ('#fftWindowFunction', 1), 'n_measurements': ('#nbOfMeas', 250), 'n_turns': ('#nbOfTurns', 256), 'interval': ('#acqPeriod', 2), 'from': ('#acqOffset', 1025), 'ex_h_amplitude': ('#exAmplitudeH', 0.09), 'ex_v_amplitude': ('#exAmplitudeV', 0.06), 'ex_h_enable': ('#exEnableH', 'True'), 'ex_v_enable': ('#exEnableV', 'False'), 'chirp_h_start': ('#chirpStartFreqH', 0.3), 'chirp_h_stop': ('#chirpStopFreqH', 0.35), 'chirp_v_start': ('#chirpStartFreqV', 0.25), 'chirp_v_stop': ('#chirpStopFreqV', 0.4), 'bias_h': ('#biasH', 0), 'bias_v': ('#biasV', 0), 'time_const_1h': ('#timeConstant1H', 1), 'time_const_2h': ('#timeConstant2H', 1), 'time_const_1v': ('#timeConstant1V', 1), 'time_const_2v': ('#timeConstant2V', 1), 'DC_det_1': ('#DCdet1', 0), 'DC_det_2': ('#DCdet2', 0), 'ex_pattern': ('#exPattern', 1)}"
0,3,396462500.0,2022-11-22T11:49:12,"{'ex_mode': ('#exMode', 1), 'acq_on': ('#acqState', 1), 'acq_mode': ('#acqMode', 0), 'det_fft_window': ('#fftWindowFunction', 1), 'n_measurements': ('#nbOfMeas', 166), 'n_turns': ('#nbOfTurns', 256), 'interval': ('#acqPeriod', 3), 'from': ('#acqOffset', 1025), 'ex_h_amplitude': ('#exAmplitudeH', 0.09), 'ex_v_amplitude': ('#exAmplitudeV', 0.06), 'ex_h_enable': ('#exEnableH', 'True'), 'ex_v_enable': ('#exEnableV', 'False'), 'chirp_h_start': ('#chirpStartFreqH', 0.3), 'chirp_h_stop': ('#chirpStopFreqH', 0.35), 'chirp_v_start': ('#chirpStartFreqV', 0.25), 'chirp_v_stop': ('#chirpStopFreqV', 0.4), 'bias_h': ('#biasH', 0), 'bias_v': ('#biasV', 0), 'time_const_1h': ('#timeConstant1H', 1), 'time_const_2h': ('#timeConstant2H', 1), 'time_const_1v': ('#timeConstant1V', 1), 'time_const_2v': ('#timeConstant2V', 1), 'DC_det_1': ('#DCdet1', 0), 'DC_det_2': ('#DCdet2', 0), 'ex_pattern': ('#exPattern', 1)}"
0,3,396462500.0,2022-11-22T11:49:12,"{'ex_mode': ('#exMode', 1), 'acq_on': ('#acqState', 1), 'acq_mode': ('#acqMode', 0), 'det_fft_window': ('#fftWindowFunction', 1), 'n_measurements': ('#nbOfMeas', 166), 'n_turns': ('#nbOfTurns', 256), 'interval': ('#acqPeriod', 3), 'from': ('#acqOffset', 1025), 'ex_h_amplitude': ('#exAmplitudeH', 0.09), 'ex_v_amplitude': ('#exAmplitudeV', 0.06), 'ex_h_enable': ('#exEnableH', 'True'), 'ex_v_enable': ('#exEnableV', 'False'), 'chirp_h_start': ('#chirpStartFreqH', 0.3), 'chirp_h_stop': ('#chirpStopFreqH', 0.35), 'chirp_v_start': ('#chirpStartFreqV', 0.25), 'chirp_v_stop': ('#chirpStopFreqV', 0.4), 'bias_h': ('#biasH', 0), 'bias_v': ('#biasV', 0), 'time_const_1h': ('#timeConstant1H', 1), 'time_const_2h': ('#timeConstant2H', 1), 'time_const_1v': ('#timeConstant1V', 1), 'time_const_2v': ('#timeConstant2V', 1), 'DC_det_1': ('#DCdet1', 0), 'DC_det_2': ('#DCdet2', 0), 'ex_pattern': ('#exPattern', 1)}"
0,4,275425000.0,2022-11-22T11:50:04,"{'ex_mode': ('#exMode', 1), 'acq_on': ('#acqState', 1), 'acq_mode': ('#acqMode', 0), 'det_fft_window': ('#fftWindowFunction', 1), 'n_measurements': ('#nbOfMeas', 125), 'n_turns': ('#nbOfTurns', 256), 'interval': ('#acqPeriod', 4), 'from': ('#acqOffset', 1025), 'ex_h_amplitude': ('#exAmplitudeH', 0.09), 'ex_v_amplitude': ('#exAmplitudeV', 0.06), 'ex_h_enable': ('#exEnableH', 'True'), 'ex_v_enable': ('#exEnableV', 'False'), 'chirp_h_start': ('#chirpStartFreqH', 0.3), 'chirp_h_stop': ('#chirpStopFreqH', 0.35), 'chirp_v_start': ('#chirpStartFreqV', 0.25), 'chirp_v_stop': ('#chirpStopFreqV', 0.4), 'bias_h': ('#biasH', 0), 'bias_v': ('#biasV', 0), 'time_const_1h': ('#timeConstant1H', 1), 'time_const_2h': ('#timeConstant2H', 1), 'time_const_1v': ('#timeConstant1V', 1), 'time_const_2v': ('#timeConstant2V', 1), 'DC_det_1': ('#DCdet1', 0), 'DC_det_2': ('#DCdet2', 0), 'ex_pattern': ('#exPattern', 1)}"
0,4,275425000.0,2022-11-22T11:50:04,"{'ex_mode': ('#exMode', 1), 'acq_on': ('#acqState', 1), 'acq_mode': ('#acqMode', 0), 'det_fft_window': ('#fftWindowFunction', 1), 'n_measurements': ('#nbOfMeas', 125), 'n_turns': ('#nbOfTurns', 256), 'interval': ('#acqPeriod', 4), 'from': ('#acqOffset', 1025), 'ex_h_amplitude': ('#exAmplitudeH', 0.09), 'ex_v_amplitude': ('#exAmplitudeV', 0.06), 'ex_h_enable': ('#exEnableH', 'True'), 'ex_v_enable': ('#exEnableV', 'False'), 'chirp_h_start': ('#chirpStartFreqH', 0.3), 'chirp_h_stop': ('#chirpStopFreqH', 0.35), 'chirp_v_start': ('#chirpStartFreqV', 0.25), 'chirp_v_stop': ('#chirpStopFreqV', 0.4), 'bias_h': ('#biasH', 0), 'bias_v': ('#biasV', 0), 'time_const_1h': ('#timeConstant1H', 1), 'time_const_2h': ('#timeConstant2H', 1), 'time_const_1v': ('#timeConstant1V', 1), 'time_const_2v': ('#timeConstant2V', 1), 'DC_det_1': ('#DCdet1', 0), 'DC_det_2': ('#DCdet2', 0), 'ex_pattern': ('#exPattern', 1)}"
0,5,330625000.0,2022-11-22T11:50:57,"{'ex_mode': ('#exMode', 1), 'acq_on': ('#acqState', 1), 'acq_mode': ('#acqMode', 0), 'det_fft_window': ('#fftWindowFunction', 1), 'n_measurements': ('#nbOfMeas', 100), 'n_turns': ('#nbOfTurns', 256), 'interval': ('#acqPeriod', 5), 'from': ('#acqOffset', 1025), 'ex_h_amplitude': ('#exAmplitudeH', 0.09), 'ex_v_amplitude': ('#exAmplitudeV', 0.06), 'ex_h_enable': ('#exEnableH', 'True'), 'ex_v_enable': ('#exEnableV', 'False'), 'chirp_h_start': ('#chirpStartFreqH', 0.3), 'chirp_h_stop': ('#chirpStopFreqH', 0.35), 'chirp_v_start': ('#chirpStartFreqV', 0.25), 'chirp_v_stop': ('#chirpStopFreqV', 0.4), 'bias_h': ('#biasH', 0), 'bias_v': ('#biasV', 0), 'time_const_1h': ('#timeConstant1H', 1), 'time_const_2h': ('#timeConstant2H', 1), 'time_const_1v': ('#timeConstant1V', 1), 'time_const_2v': ('#timeConstant2V', 1), 'DC_det_1': ('#DCdet1', 0), 'DC_det_2': ('#DCdet2', 0), 'ex_pattern': ('#exPattern', 1)}"
0,5,330625000.0,2022-11-22T11:50:57,"{'ex_mode': ('#exMode', 1), 'acq_on': ('#acqState', 1), 'acq_mode': ('#acqMode', 0), 'det_fft_window': ('#fftWindowFunction', 1), 'n_measurements': ('#nbOfMeas', 100), 'n_turns': ('#nbOfTurns', 256), 'interval': ('#acqPeriod', 5), 'from': ('#acqOffset', 1025), 'ex_h_amplitude': ('#exAmplitudeH', 0.09), 'ex_v_amplitude': ('#exAmplitudeV', 0.06), 'ex_h_enable': ('#exEnableH', 'True'), 'ex_v_enable': ('#exEnableV', 'False'), 'chirp_h_start': ('#chirpStartFreqH', 0.3), 'chirp_h_stop': ('#chirpStopFreqH', 0.35), 'chirp_v_start': ('#chirpStartFreqV', 0.25), 'chirp_v_stop': ('#chirpStopFreqV', 0.4), 'bias_h': ('#biasH', 0), 'bias_v': ('#biasV', 0), 'time_const_1h': ('#timeConstant1H', 1), 'time_const_2h': ('#timeConstant2H', 1), 'time_const_1v': ('#timeConstant1V', 1), 'time_const_2v': ('#timeConstant2V', 1), 'DC_det_1': ('#DCdet1', 0), 'DC_det_2': ('#DCdet2', 0), 'ex_pattern': ('#exPattern', 1)}"
