variable,amplitude,timestamp,settings
0,1,1733050000.0,2022-11-23T15:16:56,"{'ex_mode': ('#exMode', 1), 'acq_on': ('#acqState', 1), 'acq_mode': ('#acqMode', 0), 'det_fft_window': ('#fftWindowFunction', 1), 'n_measurements': ('#nbOfMeas', 500), 'n_turns': ('#nbOfTurns', 256), 'interval': ('#acqPeriod', 1), 'from': ('#acqOffset', 1025), 'ex_h_amplitude': ('#exAmplitudeH', 0.15), 'ex_v_amplitude': ('#exAmplitudeV', 0.06), 'ex_h_enable': ('#exEnableH', 'True'), 'ex_v_enable': ('#exEnableV', 'False'), 'chirp_h_start': ('#chirpStartFreqH', 0.3), 'chirp_h_stop': ('#chirpStopFreqH', 0.35), 'chirp_v_start': ('#chirpStartFreqV', 0.25), 'chirp_v_stop': ('#chirpStopFreqV', 0.4), 'bias_h': ('#biasH', 0), 'bias_v': ('#biasV', 0), 'time_const_1h': ('#timeConstant1H', 1), 'time_const_2h': ('#timeConstant2H', 1), 'time_const_1v': ('#timeConstant1V', 1), 'time_const_2v': ('#timeConstant2V', 1), 'DC_det_1': ('#DCdet1', 0), 'DC_det_2': ('#DCdet2', 0), 'ex_pattern': ('#exPattern', 1), 'length': ('#exLength', 0)}"
0,1,1733050000.0,2022-11-23T15:16:56,"{'ex_mode': ('#exMode', 1), 'acq_on': ('#acqState', 1), 'acq_mode': ('#acqMode', 0), 'det_fft_window': ('#fftWindowFunction', 1), 'n_measurements': ('#nbOfMeas', 500), 'n_turns': ('#nbOfTurns', 256), 'interval': ('#acqPeriod', 1), 'from': ('#acqOffset', 1025), 'ex_h_amplitude': ('#exAmplitudeH', 0.15), 'ex_v_amplitude': ('#exAmplitudeV', 0.06), 'ex_h_enable': ('#exEnableH', 'True'), 'ex_v_enable': ('#exEnableV', 'False'), 'chirp_h_start': ('#chirpStartFreqH', 0.3), 'chirp_h_stop': ('#chirpStopFreqH', 0.35), 'chirp_v_start': ('#chirpStartFreqV', 0.25), 'chirp_v_stop': ('#chirpStopFreqV', 0.4), 'bias_h': ('#biasH', 0), 'bias_v': ('#biasV', 0), 'time_const_1h': ('#timeConstant1H', 1), 'time_const_2h': ('#timeConstant2H', 1), 'time_const_1v': ('#timeConstant1V', 1), 'time_const_2v': ('#timeConstant2V', 1), 'DC_det_1': ('#DCdet1', 0), 'DC_det_2': ('#DCdet2', 0), 'ex_pattern': ('#exPattern', 1), 'length': ('#exLength', 0)}"
0,1,13779300000.0,2022-11-23T15:17:11,"{'ex_mode': ('#exMode', 1), 'acq_on': ('#acqState', 1), 'acq_mode': ('#acqMode', 0), 'det_fft_window': ('#fftWindowFunction', 1), 'n_measurements': ('#nbOfMeas', 500), 'n_turns': ('#nbOfTurns', 256), 'interval': ('#acqPeriod', 1), 'from': ('#acqOffset', 1025), 'ex_h_amplitude': ('#exAmplitudeH', 0.15), 'ex_v_amplitude': ('#exAmplitudeV', 0.06), 'ex_h_enable': ('#exEnableH', 'True'), 'ex_v_enable': ('#exEnableV', 'False'), 'chirp_h_start': ('#chirpStartFreqH', 0.3), 'chirp_h_stop': ('#chirpStopFreqH', 0.35), 'chirp_v_start': ('#chirpStartFreqV', 0.25), 'chirp_v_stop': ('#chirpStopFreqV', 0.4), 'bias_h': ('#biasH', 0), 'bias_v': ('#biasV', 0), 'time_const_1h': ('#timeConstant1H', 1), 'time_const_2h': ('#timeConstant2H', 1), 'time_const_1v': ('#timeConstant1V', 1), 'time_const_2v': ('#timeConstant2V', 1), 'DC_det_1': ('#DCdet1', 0), 'DC_det_2': ('#DCdet2', 0), 'ex_pattern': ('#exPattern', 1), 'length': ('#exLength', 0)}"
0,1,13779300000.0,2022-11-23T15:17:11,"{'ex_mode': ('#exMode', 1), 'acq_on': ('#acqState', 1), 'acq_mode': ('#acqMode', 0), 'det_fft_window': ('#fftWindowFunction', 1), 'n_measurements': ('#nbOfMeas', 500), 'n_turns': ('#nbOfTurns', 256), 'interval': ('#acqPeriod', 1), 'from': ('#acqOffset', 1025), 'ex_h_amplitude': ('#exAmplitudeH', 0.15), 'ex_v_amplitude': ('#exAmplitudeV', 0.06), 'ex_h_enable': ('#exEnableH', 'True'), 'ex_v_enable': ('#exEnableV', 'False'), 'chirp_h_start': ('#chirpStartFreqH', 0.3), 'chirp_h_stop': ('#chirpStopFreqH', 0.35), 'chirp_v_start': ('#chirpStartFreqV', 0.25), 'chirp_v_stop': ('#chirpStopFreqV', 0.4), 'bias_h': ('#biasH', 0), 'bias_v': ('#biasV', 0), 'time_const_1h': ('#timeConstant1H', 1), 'time_const_2h': ('#timeConstant2H', 1), 'time_const_1v': ('#timeConstant1V', 1), 'time_const_2v': ('#timeConstant2V', 1), 'DC_det_1': ('#DCdet1', 0), 'DC_det_2': ('#DCdet2', 0), 'ex_pattern': ('#exPattern', 1), 'length': ('#exLength', 0)}"
0,2,8167012500.0,2022-11-23T15:18:07,"{'ex_mode': ('#exMode', 1), 'acq_on': ('#acqState', 1), 'acq_mode': ('#acqMode', 0), 'det_fft_window': ('#fftWindowFunction', 1), 'n_measurements': ('#nbOfMeas', 250), 'n_turns': ('#nbOfTurns', 256), 'interval': ('#acqPeriod', 2), 'from': ('#acqOffset', 1025), 'ex_h_amplitude': ('#exAmplitudeH', 0.15), 'ex_v_amplitude': ('#exAmplitudeV', 0.06), 'ex_h_enable': ('#exEnableH', 'True'), 'ex_v_enable': ('#exEnableV', 'False'), 'chirp_h_start': ('#chirpStartFreqH', 0.3), 'chirp_h_stop': ('#chirpStopFreqH', 0.35), 'chirp_v_start': ('#chirpStartFreqV', 0.25), 'chirp_v_stop': ('#chirpStopFreqV', 0.4), 'bias_h': ('#biasH', 0), 'bias_v': ('#biasV', 0), 'time_const_1h': ('#timeConstant1H', 1), 'time_const_2h': ('#timeConstant2H', 1), 'time_const_1v': ('#timeConstant1V', 1), 'time_const_2v': ('#timeConstant2V', 1), 'DC_det_1': ('#DCdet1', 0), 'DC_det_2': ('#DCdet2', 0), 'ex_pattern': ('#exPattern', 1), 'length': ('#exLength', 0)}"
0,2,8167012500.0,2022-11-23T15:18:07,"{'ex_mode': ('#exMode', 1), 'acq_on': ('#acqState', 1), 'acq_mode': ('#acqMode', 0), 'det_fft_window': ('#fftWindowFunction', 1), 'n_measurements': ('#nbOfMeas', 250), 'n_turns': ('#nbOfTurns', 256), 'interval': ('#acqPeriod', 2), 'from': ('#acqOffset', 1025), 'ex_h_amplitude': ('#exAmplitudeH', 0.15), 'ex_v_amplitude': ('#exAmplitudeV', 0.06), 'ex_h_enable': ('#exEnableH', 'True'), 'ex_v_enable': ('#exEnableV', 'False'), 'chirp_h_start': ('#chirpStartFreqH', 0.3), 'chirp_h_stop': ('#chirpStopFreqH', 0.35), 'chirp_v_start': ('#chirpStartFreqV', 0.25), 'chirp_v_stop': ('#chirpStopFreqV', 0.4), 'bias_h': ('#biasH', 0), 'bias_v': ('#biasV', 0), 'time_const_1h': ('#timeConstant1H', 1), 'time_const_2h': ('#timeConstant2H', 1), 'time_const_1v': ('#timeConstant1V', 1), 'time_const_2v': ('#timeConstant2V', 1), 'DC_det_1': ('#DCdet1', 0), 'DC_det_2': ('#DCdet2', 0), 'ex_pattern': ('#exPattern', 1), 'length': ('#exLength', 0)}"
0,3,3799887500.0,2022-11-23T15:19:03,"{'ex_mode': ('#exMode', 1), 'acq_on': ('#acqState', 1), 'acq_mode': ('#acqMode', 0), 'det_fft_window': ('#fftWindowFunction', 1), 'n_measurements': ('#nbOfMeas', 166), 'n_turns': ('#nbOfTurns', 256), 'interval': ('#acqPeriod', 3), 'from': ('#acqOffset', 1025), 'ex_h_amplitude': ('#exAmplitudeH', 0.15), 'ex_v_amplitude': ('#exAmplitudeV', 0.06), 'ex_h_enable': ('#exEnableH', 'True'), 'ex_v_enable': ('#exEnableV', 'False'), 'chirp_h_start': ('#chirpStartFreqH', 0.3), 'chirp_h_stop': ('#chirpStopFreqH', 0.35), 'chirp_v_start': ('#chirpStartFreqV', 0.25), 'chirp_v_stop': ('#chirpStopFreqV', 0.4), 'bias_h': ('#biasH', 0), 'bias_v': ('#biasV', 0), 'time_const_1h': ('#timeConstant1H', 1), 'time_const_2h': ('#timeConstant2H', 1), 'time_const_1v': ('#timeConstant1V', 1), 'time_const_2v': ('#timeConstant2V', 1), 'DC_det_1': ('#DCdet1', 0), 'DC_det_2': ('#DCdet2', 0), 'ex_pattern': ('#exPattern', 1), 'length': ('#exLength', 0)}"
0,3,3799887500.0,2022-11-23T15:19:03,"{'ex_mode': ('#exMode', 1), 'acq_on': ('#acqState', 1), 'acq_mode': ('#acqMode', 0), 'det_fft_window': ('#fftWindowFunction', 1), 'n_measurements': ('#nbOfMeas', 166), 'n_turns': ('#nbOfTurns', 256), 'interval': ('#acqPeriod', 3), 'from': ('#acqOffset', 1025), 'ex_h_amplitude': ('#exAmplitudeH', 0.15), 'ex_v_amplitude': ('#exAmplitudeV', 0.06), 'ex_h_enable': ('#exEnableH', 'True'), 'ex_v_enable': ('#exEnableV', 'False'), 'chirp_h_start': ('#chirpStartFreqH', 0.3), 'chirp_h_stop': ('#chirpStopFreqH', 0.35), 'chirp_v_start': ('#chirpStartFreqV', 0.25), 'chirp_v_stop': ('#chirpStopFreqV', 0.4), 'bias_h': ('#biasH', 0), 'bias_v': ('#biasV', 0), 'time_const_1h': ('#timeConstant1H', 1), 'time_const_2h': ('#timeConstant2H', 1), 'time_const_1v': ('#timeConstant1V', 1), 'time_const_2v': ('#timeConstant2V', 1), 'DC_det_1': ('#DCdet1', 0), 'DC_det_2': ('#DCdet2', 0), 'ex_pattern': ('#exPattern', 1), 'length': ('#exLength', 0)}"
0,4,3123112500.0,2022-11-23T15:20:00,"{'ex_mode': ('#exMode', 1), 'acq_on': ('#acqState', 1), 'acq_mode': ('#acqMode', 0), 'det_fft_window': ('#fftWindowFunction', 1), 'n_measurements': ('#nbOfMeas', 125), 'n_turns': ('#nbOfTurns', 256), 'interval': ('#acqPeriod', 4), 'from': ('#acqOffset', 1025), 'ex_h_amplitude': ('#exAmplitudeH', 0.15), 'ex_v_amplitude': ('#exAmplitudeV', 0.06), 'ex_h_enable': ('#exEnableH', 'True'), 'ex_v_enable': ('#exEnableV', 'False'), 'chirp_h_start': ('#chirpStartFreqH', 0.3), 'chirp_h_stop': ('#chirpStopFreqH', 0.35), 'chirp_v_start': ('#chirpStartFreqV', 0.25), 'chirp_v_stop': ('#chirpStopFreqV', 0.4), 'bias_h': ('#biasH', 0), 'bias_v': ('#biasV', 0), 'time_const_1h': ('#timeConstant1H', 1), 'time_const_2h': ('#timeConstant2H', 1), 'time_const_1v': ('#timeConstant1V', 1), 'time_const_2v': ('#timeConstant2V', 1), 'DC_det_1': ('#DCdet1', 0), 'DC_det_2': ('#DCdet2', 0), 'ex_pattern': ('#exPattern', 1), 'length': ('#exLength', 0)}"
0,4,3123112500.0,2022-11-23T15:20:00,"{'ex_mode': ('#exMode', 1), 'acq_on': ('#acqState', 1), 'acq_mode': ('#acqMode', 0), 'det_fft_window': ('#fftWindowFunction', 1), 'n_measurements': ('#nbOfMeas', 125), 'n_turns': ('#nbOfTurns', 256), 'interval': ('#acqPeriod', 4), 'from': ('#acqOffset', 1025), 'ex_h_amplitude': ('#exAmplitudeH', 0.15), 'ex_v_amplitude': ('#exAmplitudeV', 0.06), 'ex_h_enable': ('#exEnableH', 'True'), 'ex_v_enable': ('#exEnableV', 'False'), 'chirp_h_start': ('#chirpStartFreqH', 0.3), 'chirp_h_stop': ('#chirpStopFreqH', 0.35), 'chirp_v_start': ('#chirpStartFreqV', 0.25), 'chirp_v_stop': ('#chirpStopFreqV', 0.4), 'bias_h': ('#biasH', 0), 'bias_v': ('#biasV', 0), 'time_const_1h': ('#timeConstant1H', 1), 'time_const_2h': ('#timeConstant2H', 1), 'time_const_1v': ('#timeConstant1V', 1), 'time_const_2v': ('#timeConstant2V', 1), 'DC_det_1': ('#DCdet1', 0), 'DC_det_2': ('#DCdet2', 0), 'ex_pattern': ('#exPattern', 1), 'length': ('#exLength', 0)}"
0,5,2608200000.0,2022-11-23T15:20:56,"{'ex_mode': ('#exMode', 1), 'acq_on': ('#acqState', 1), 'acq_mode': ('#acqMode', 0), 'det_fft_window': ('#fftWindowFunction', 1), 'n_measurements': ('#nbOfMeas', 100), 'n_turns': ('#nbOfTurns', 256), 'interval': ('#acqPeriod', 5), 'from': ('#acqOffset', 1025), 'ex_h_amplitude': ('#exAmplitudeH', 0.15), 'ex_v_amplitude': ('#exAmplitudeV', 0.06), 'ex_h_enable': ('#exEnableH', 'True'), 'ex_v_enable': ('#exEnableV', 'False'), 'chirp_h_start': ('#chirpStartFreqH', 0.3), 'chirp_h_stop': ('#chirpStopFreqH', 0.35), 'chirp_v_start': ('#chirpStartFreqV', 0.25), 'chirp_v_stop': ('#chirpStopFreqV', 0.4), 'bias_h': ('#biasH', 0), 'bias_v': ('#biasV', 0), 'time_const_1h': ('#timeConstant1H', 1), 'time_const_2h': ('#timeConstant2H', 1), 'time_const_1v': ('#timeConstant1V', 1), 'time_const_2v': ('#timeConstant2V', 1), 'DC_det_1': ('#DCdet1', 0), 'DC_det_2': ('#DCdet2', 0), 'ex_pattern': ('#exPattern', 1), 'length': ('#exLength', 0)}"
0,5,2608200000.0,2022-11-23T15:20:56,"{'ex_mode': ('#exMode', 1), 'acq_on': ('#acqState', 1), 'acq_mode': ('#acqMode', 0), 'det_fft_window': ('#fftWindowFunction', 1), 'n_measurements': ('#nbOfMeas', 100), 'n_turns': ('#nbOfTurns', 256), 'interval': ('#acqPeriod', 5), 'from': ('#acqOffset', 1025), 'ex_h_amplitude': ('#exAmplitudeH', 0.15), 'ex_v_amplitude': ('#exAmplitudeV', 0.06), 'ex_h_enable': ('#exEnableH', 'True'), 'ex_v_enable': ('#exEnableV', 'False'), 'chirp_h_start': ('#chirpStartFreqH', 0.3), 'chirp_h_stop': ('#chirpStopFreqH', 0.35), 'chirp_v_start': ('#chirpStartFreqV', 0.25), 'chirp_v_stop': ('#chirpStopFreqV', 0.4), 'bias_h': ('#biasH', 0), 'bias_v': ('#biasV', 0), 'time_const_1h': ('#timeConstant1H', 1), 'time_const_2h': ('#timeConstant2H', 1), 'time_const_1v': ('#timeConstant1V', 1), 'time_const_2v': ('#timeConstant2V', 1), 'DC_det_1': ('#DCdet1', 0), 'DC_det_2': ('#DCdet2', 0), 'ex_pattern': ('#exPattern', 1), 'length': ('#exLength', 0)}"
0,6,2652762500.0,2022-11-23T15:21:53,"{'ex_mode': ('#exMode', 1), 'acq_on': ('#acqState', 1), 'acq_mode': ('#acqMode', 0), 'det_fft_window': ('#fftWindowFunction', 1), 'n_measurements': ('#nbOfMeas', 83), 'n_turns': ('#nbOfTurns', 256), 'interval': ('#acqPeriod', 6), 'from': ('#acqOffset', 1025), 'ex_h_amplitude': ('#exAmplitudeH', 0.15), 'ex_v_amplitude': ('#exAmplitudeV', 0.06), 'ex_h_enable': ('#exEnableH', 'True'), 'ex_v_enable': ('#exEnableV', 'False'), 'chirp_h_start': ('#chirpStartFreqH', 0.3), 'chirp_h_stop': ('#chirpStopFreqH', 0.35), 'chirp_v_start': ('#chirpStartFreqV', 0.25), 'chirp_v_stop': ('#chirpStopFreqV', 0.4), 'bias_h': ('#biasH', 0), 'bias_v': ('#biasV', 0), 'time_const_1h': ('#timeConstant1H', 1), 'time_const_2h': ('#timeConstant2H', 1), 'time_const_1v': ('#timeConstant1V', 1), 'time_const_2v': ('#timeConstant2V', 1), 'DC_det_1': ('#DCdet1', 0), 'DC_det_2': ('#DCdet2', 0), 'ex_pattern': ('#exPattern', 1), 'length': ('#exLength', 0)}"
0,6,2652762500.0,2022-11-23T15:21:53,"{'ex_mode': ('#exMode', 1), 'acq_on': ('#acqState', 1), 'acq_mode': ('#acqMode', 0), 'det_fft_window': ('#fftWindowFunction', 1), 'n_measurements': ('#nbOfMeas', 83), 'n_turns': ('#nbOfTurns', 256), 'interval': ('#acqPeriod', 6), 'from': ('#acqOffset', 1025), 'ex_h_amplitude': ('#exAmplitudeH', 0.15), 'ex_v_amplitude': ('#exAmplitudeV', 0.06), 'ex_h_enable': ('#exEnableH', 'True'), 'ex_v_enable': ('#exEnableV', 'False'), 'chirp_h_start': ('#chirpStartFreqH', 0.3), 'chirp_h_stop': ('#chirpStopFreqH', 0.35), 'chirp_v_start': ('#chirpStartFreqV', 0.25), 'chirp_v_stop': ('#chirpStopFreqV', 0.4), 'bias_h': ('#biasH', 0), 'bias_v': ('#biasV', 0), 'time_const_1h': ('#timeConstant1H', 1), 'time_const_2h': ('#timeConstant2H', 1), 'time_const_1v': ('#timeConstant1V', 1), 'time_const_2v': ('#timeConstant2V', 1), 'DC_det_1': ('#DCdet1', 0), 'DC_det_2': ('#DCdet2', 0), 'ex_pattern': ('#exPattern', 1), 'length': ('#exLength', 0)}"
0,7,2116575000.0,2022-11-23T15:22:49,"{'ex_mode': ('#exMode', 1), 'acq_on': ('#acqState', 1), 'acq_mode': ('#acqMode', 0), 'det_fft_window': ('#fftWindowFunction', 1), 'n_measurements': ('#nbOfMeas', 71), 'n_turns': ('#nbOfTurns', 256), 'interval': ('#acqPeriod', 7), 'from': ('#acqOffset', 1025), 'ex_h_amplitude': ('#exAmplitudeH', 0.15), 'ex_v_amplitude': ('#exAmplitudeV', 0.06), 'ex_h_enable': ('#exEnableH', 'True'), 'ex_v_enable': ('#exEnableV', 'False'), 'chirp_h_start': ('#chirpStartFreqH', 0.3), 'chirp_h_stop': ('#chirpStopFreqH', 0.35), 'chirp_v_start': ('#chirpStartFreqV', 0.25), 'chirp_v_stop': ('#chirpStopFreqV', 0.4), 'bias_h': ('#biasH', 0), 'bias_v': ('#biasV', 0), 'time_const_1h': ('#timeConstant1H', 1), 'time_const_2h': ('#timeConstant2H', 1), 'time_const_1v': ('#timeConstant1V', 1), 'time_const_2v': ('#timeConstant2V', 1), 'DC_det_1': ('#DCdet1', 0), 'DC_det_2': ('#DCdet2', 0), 'ex_pattern': ('#exPattern', 1), 'length': ('#exLength', 0)}"
0,7,2116575000.0,2022-11-23T15:22:49,"{'ex_mode': ('#exMode', 1), 'acq_on': ('#acqState', 1), 'acq_mode': ('#acqMode', 0), 'det_fft_window': ('#fftWindowFunction', 1), 'n_measurements': ('#nbOfMeas', 71), 'n_turns': ('#nbOfTurns', 256), 'interval': ('#acqPeriod', 7), 'from': ('#acqOffset', 1025), 'ex_h_amplitude': ('#exAmplitudeH', 0.15), 'ex_v_amplitude': ('#exAmplitudeV', 0.06), 'ex_h_enable': ('#exEnableH', 'True'), 'ex_v_enable': ('#exEnableV', 'False'), 'chirp_h_start': ('#chirpStartFreqH', 0.3), 'chirp_h_stop': ('#chirpStopFreqH', 0.35), 'chirp_v_start': ('#chirpStartFreqV', 0.25), 'chirp_v_stop': ('#chirpStopFreqV', 0.4), 'bias_h': ('#biasH', 0), 'bias_v': ('#biasV', 0), 'time_const_1h': ('#timeConstant1H', 1), 'time_const_2h': ('#timeConstant2H', 1), 'time_const_1v': ('#timeConstant1V', 1), 'time_const_2v': ('#timeConstant2V', 1), 'DC_det_1': ('#DCdet1', 0), 'DC_det_2': ('#DCdet2', 0), 'ex_pattern': ('#exPattern', 1), 'length': ('#exLength', 0)}"
0,8,1714937500.0,2022-11-23T15:23:45,"{'ex_mode': ('#exMode', 1), 'acq_on': ('#acqState', 1), 'acq_mode': ('#acqMode', 0), 'det_fft_window': ('#fftWindowFunction', 1), 'n_measurements': ('#nbOfMeas', 62), 'n_turns': ('#nbOfTurns', 256), 'interval': ('#acqPeriod', 8), 'from': ('#acqOffset', 1025), 'ex_h_amplitude': ('#exAmplitudeH', 0.15), 'ex_v_amplitude': ('#exAmplitudeV', 0.06), 'ex_h_enable': ('#exEnableH', 'True'), 'ex_v_enable': ('#exEnableV', 'False'), 'chirp_h_start': ('#chirpStartFreqH', 0.3), 'chirp_h_stop': ('#chirpStopFreqH', 0.35), 'chirp_v_start': ('#chirpStartFreqV', 0.25), 'chirp_v_stop': ('#chirpStopFreqV', 0.4), 'bias_h': ('#biasH', 0), 'bias_v': ('#biasV', 0), 'time_const_1h': ('#timeConstant1H', 1), 'time_const_2h': ('#timeConstant2H', 1), 'time_const_1v': ('#timeConstant1V', 1), 'time_const_2v': ('#timeConstant2V', 1), 'DC_det_1': ('#DCdet1', 0), 'DC_det_2': ('#DCdet2', 0), 'ex_pattern': ('#exPattern', 1), 'length': ('#exLength', 0)}"
0,8,1714937500.0,2022-11-23T15:23:45,"{'ex_mode': ('#exMode', 1), 'acq_on': ('#acqState', 1), 'acq_mode': ('#acqMode', 0), 'det_fft_window': ('#fftWindowFunction', 1), 'n_measurements': ('#nbOfMeas', 62), 'n_turns': ('#nbOfTurns', 256), 'interval': ('#acqPeriod', 8), 'from': ('#acqOffset', 1025), 'ex_h_amplitude': ('#exAmplitudeH', 0.15), 'ex_v_amplitude': ('#exAmplitudeV', 0.06), 'ex_h_enable': ('#exEnableH', 'True'), 'ex_v_enable': ('#exEnableV', 'False'), 'chirp_h_start': ('#chirpStartFreqH', 0.3), 'chirp_h_stop': ('#chirpStopFreqH', 0.35), 'chirp_v_start': ('#chirpStartFreqV', 0.25), 'chirp_v_stop': ('#chirpStopFreqV', 0.4), 'bias_h': ('#biasH', 0), 'bias_v': ('#biasV', 0), 'time_const_1h': ('#timeConstant1H', 1), 'time_const_2h': ('#timeConstant2H', 1), 'time_const_1v': ('#timeConstant1V', 1), 'time_const_2v': ('#timeConstant2V', 1), 'DC_det_1': ('#DCdet1', 0), 'DC_det_2': ('#DCdet2', 0), 'ex_pattern': ('#exPattern', 1), 'length': ('#exLength', 0)}"
0,9,1712637500.0,2022-11-23T15:24:42,"{'ex_mode': ('#exMode', 1), 'acq_on': ('#acqState', 1), 'acq_mode': ('#acqMode', 0), 'det_fft_window': ('#fftWindowFunction', 1), 'n_measurements': ('#nbOfMeas', 55), 'n_turns': ('#nbOfTurns', 256), 'interval': ('#acqPeriod', 9), 'from': ('#acqOffset', 1025), 'ex_h_amplitude': ('#exAmplitudeH', 0.15), 'ex_v_amplitude': ('#exAmplitudeV', 0.06), 'ex_h_enable': ('#exEnableH', 'True'), 'ex_v_enable': ('#exEnableV', 'False'), 'chirp_h_start': ('#chirpStartFreqH', 0.3), 'chirp_h_stop': ('#chirpStopFreqH', 0.35), 'chirp_v_start': ('#chirpStartFreqV', 0.25), 'chirp_v_stop': ('#chirpStopFreqV', 0.4), 'bias_h': ('#biasH', 0), 'bias_v': ('#biasV', 0), 'time_const_1h': ('#timeConstant1H', 1), 'time_const_2h': ('#timeConstant2H', 1), 'time_const_1v': ('#timeConstant1V', 1), 'time_const_2v': ('#timeConstant2V', 1), 'DC_det_1': ('#DCdet1', 0), 'DC_det_2': ('#DCdet2', 0), 'ex_pattern': ('#exPattern', 1), 'length': ('#exLength', 0)}"
0,9,1712637500.0,2022-11-23T15:24:42,"{'ex_mode': ('#exMode', 1), 'acq_on': ('#acqState', 1), 'acq_mode': ('#acqMode', 0), 'det_fft_window': ('#fftWindowFunction', 1), 'n_measurements': ('#nbOfMeas', 55), 'n_turns': ('#nbOfTurns', 256), 'interval': ('#acqPeriod', 9), 'from': ('#acqOffset', 1025), 'ex_h_amplitude': ('#exAmplitudeH', 0.15), 'ex_v_amplitude': ('#exAmplitudeV', 0.06), 'ex_h_enable': ('#exEnableH', 'True'), 'ex_v_enable': ('#exEnableV', 'False'), 'chirp_h_start': ('#chirpStartFreqH', 0.3), 'chirp_h_stop': ('#chirpStopFreqH', 0.35), 'chirp_v_start': ('#chirpStartFreqV', 0.25), 'chirp_v_stop': ('#chirpStopFreqV', 0.4), 'bias_h': ('#biasH', 0), 'bias_v': ('#biasV', 0), 'time_const_1h': ('#timeConstant1H', 1), 'time_const_2h': ('#timeConstant2H', 1), 'time_const_1v': ('#timeConstant1V', 1), 'time_const_2v': ('#timeConstant2V', 1), 'DC_det_1': ('#DCdet1', 0), 'DC_det_2': ('#DCdet2', 0), 'ex_pattern': ('#exPattern', 1), 'length': ('#exLength', 0)}"
