{
    "distribution": {
        "rel_gamma": 25.598474067,
        "rel_beta": 0.9992366782560054,
        "exn": 1.5e-06,
        "eyn": 1.5e-06,
        "ex": 5.864200550957648e-08,
        "ey": 5.864200550957648e-08,
        "p": 24,
        "momentum": 24,
        "Brho": 80.0544,
        "DPP_FACTOR": 0.001,
        "N_PART": 20000
    },
    "quad_collapse": {
        "TUNE_TARGET": 0.33,
        "CHROMATICITY_TARGET": -0.5,
        "N_TURN": 500,
        "DETUNE_QUAD_KNL1": -0.04
    },
    "rfko": {
        "SEPTA": true,
        "EXCITER_SAMPLING_FREQ": 1000000.0,
        "FREV": 473128.56479373755,
        "CHIRP_START": 0.3,
        "CHIRP_STOP": 0.35,
        "CHIRP_INTERVAL": 0.01,
        "N_TURN_CHIRP": 47312,
        "SEPTA_X_MM": -60,
        "GAIN": 0.05,
        "CHIRP_REPETITIONS": 10
    }
}