frequencies,amplitudes,timestamp,settings
0,0.0,13395.0,2,sampling period
1,0.006451612903225807,3188.9385400071596,0,sampling bounds
2,0.012903225806451615,1978.986054306511,2,
3,0.01935483870967742,1471.0075546118596,2,
4,0.02580645161290323,1036.0288261789622,-,
5,0.03225806451612903,70.28916268815378,1,
6,0.03870967741935484,183.527496674248,1,
7,0.04516129032258065,365.7033124633876,-,
8,0.05161290322580646,383.2911194816836,1,
9,0.05806451612903227,237.30487517388912,6,
10,0.06451612903225806,201.4424876462702,T,
11,0.07096774193548387,273.23975894246064,1,
12,0.07741935483870968,170.1741879556995,5,
13,0.08387096774193549,152.3036597553837,:,
14,0.0903225806451613,185.17796958251972,0,
15,0.09677419354838711,241.56858321516108,1,
16,0.10322580645161292,187.23486595336783,:,
17,0.10967741935483873,161.6976685545432,1,
18,0.11612903225806454,115.07026422099659,0,
19,0.12258064516129033,382.0633147399223,.,
20,0.12903225806451613,204.19292166786806,3,
21,0.13548387096774195,275.65427649452,5,
22,0.14193548387096774,129.35329034428625,8,
23,0.14838709677419357,63.52758706300658,7,
24,0.15483870967741936,70.71738639568284,9,
25,0.16129032258064518,97.56418834814087,6,
26,0.16774193548387098,105.77134232243509,,
27,0.1741935483870968,114.94889391180325,,
28,0.1806451612903226,221.19974936962873,,
29,0.18709677419354842,163.9077884311894,,
30,0.19354838709677422,221.44501322593516,,
31,0.20000000000000004,217.8603470248862,,
32,0.20645161290322583,314.4807396979857,,
33,0.21290322580645163,204.55384040317048,,
34,0.21935483870967745,341.2005545635213,,
35,0.22580645161290325,96.93496682746516,,
36,0.23225806451612907,160.77368423444184,,
37,0.23870967741935487,43.05797052885496,,
38,0.24516129032258066,148.23605582179735,,
39,0.2516129032258065,380.39048845690786,,
40,0.25806451612903225,139.70873342355318,,
41,0.26451612903225813,186.64049641732012,,
42,0.2709677419354839,264.4641080232231,,
43,0.2774193548387097,125.50794120177102,,
44,0.2838709677419355,348.92709203393457,,
45,0.29032258064516137,316.4598629364872,,
46,0.29677419354838713,45.50105688520953,,
47,0.30322580645161296,231.3998648560236,,
48,0.3096774193548387,354.072773956912,,
49,0.31612903225806455,117.06341790022753,,
50,0.32258064516129037,626.6307128692551,,
51,0.32903225806451614,361.599329282008,,
52,0.33548387096774196,105.81871087206629,,
53,0.3419354838709677,414.23171758927657,,
54,0.3483870967741936,196.88641928489048,,
55,0.3548387096774194,405.7264848757158,,
56,0.3612903225806452,237.5389717290531,,
57,0.36774193548387096,133.34031520111893,,
58,0.37419354838709684,245.0055079342532,,
59,0.3806451612903226,183.52012096003068,,
60,0.38709677419354843,225.26352662092748,,
61,0.3935483870967742,130.30136457233078,,
62,0.4000000000000001,178.66633606000877,,
63,0.40645161290322585,63.904018559472085,,
64,0.41290322580645167,189.19350667951295,,
65,0.41935483870967744,67.55463515625284,,
66,0.42580645161290326,95.51089186095172,,
67,0.4322580645161291,274.6629790939181,,
68,0.4387096774193549,181.57955787777203,,
69,0.44516129032258067,224.73300580515917,,
70,0.4516129032258065,202.5949418760261,,
71,0.4580645161290323,163.24781989367855,,
72,0.46451612903225814,148.67171368026416,,
73,0.4709677419354839,190.23220722359306,,
74,0.47741935483870973,274.6581961461528,,
75,0.48387096774193555,117.58413578812997,,
76,0.4903225806451613,184.25415098561803,,
77,0.49677419354838714,261.3794279175109,,
78,0.503225806451613,272.76551854259657,,
79,0.5096774193548388,206.84976517155272,,
80,0.5161290322580645,109.61734233858935,,
81,0.5225806451612903,73.05693217675294,,
82,0.5290322580645163,262.2873304674816,,
83,0.535483870967742,251.00684069038257,,
84,0.5419354838709678,439.28519160492795,,
85,0.5483870967741935,116.99218437761813,,
86,0.5548387096774194,302.9369708216064,,
87,0.5612903225806453,351.8075661203905,,
88,0.567741935483871,290.6137127886485,,
89,0.5741935483870968,302.9936889719577,,
90,0.5806451612903227,179.86070083918096,,
91,0.5870967741935484,233.24010134646238,,
92,0.5935483870967743,211.34879683110222,,
93,0.6,373.0301664250762,,
94,0.6064516129032259,241.12688998018015,,
95,0.6129032258064517,296.0501629673828,,
96,0.6193548387096774,160.60914071349777,,
97,0.6258064516129033,161.91637919303724,,
98,0.6322580645161291,290.97214886347786,,
99,0.6387096774193549,401.0704279598954,,
100,0.6451612903225807,863.2594725705928,,
101,0.6516129032258065,464.8243093626631,,
102,0.6580645161290323,152.32518228025376,,
103,0.6645161290322582,207.2649673065879,,
104,0.6709677419354839,268.36458518455663,,
105,0.6774193548387097,226.39384588585534,,
106,0.6838709677419355,103.61241118929205,,
107,0.6903225806451614,220.13518803529686,,
108,0.6967741935483872,243.95286111936997,,
109,0.7032258064516129,295.5962622165539,,
110,0.7096774193548387,213.00932589657057,,
111,0.7161290322580647,735.9863256718203,,
112,0.7225806451612904,765.7916504535925,,
113,0.7290322580645162,487.3875680612996,,
114,0.7354838709677419,260.970533693051,,
115,0.7419354838709679,274.91514289343394,,
116,0.7483870967741937,203.02114960448088,,
117,0.7548387096774194,190.2813958775922,,
118,0.7612903225806452,359.3353379799896,,
119,0.767741935483871,65.63357340230378,,
120,0.7741935483870969,241.13761994592122,,
121,0.7806451612903227,282.6241717312704,,
122,0.7870967741935484,99.01615169887471,,
123,0.7935483870967743,169.80658465714453,,
124,0.8000000000000002,50.97458775967532,,
125,0.8064516129032259,44.80448821616774,,
126,0.8129032258064517,282.25460915684835,,
127,0.8193548387096774,116.10657389293007,,
128,0.8258064516129033,49.769096008242755,,
129,0.8322580645161292,250.1198670223252,,
130,0.8387096774193549,189.45263258265345,,
131,0.8451612903225807,117.3637647881762,,
132,0.8516129032258065,152.52446261098754,,
133,0.8580645161290323,49.96396981901062,,
134,0.8645161290322582,231.68105096172079,,
135,0.8709677419354839,61.04329696337494,,
136,0.8774193548387098,161.09671835448808,,
137,0.8838709677419356,94.87325139401685,,
138,0.8903225806451613,50.49623520732557,,
139,0.8967741935483872,228.1434265803414,,
140,0.903225806451613,103.28905522425373,,
141,0.9096774193548388,28.97319128328789,,
142,0.9161290322580646,209.92373094492038,,
143,0.9225806451612903,138.38888622290943,,
144,0.9290322580645163,62.83853859679817,,
145,0.935483870967742,199.6204887230826,,
146,0.9419354838709678,116.13060743327883,,
147,0.9483870967741936,173.0038719855966,,
148,0.9548387096774195,105.26022822491656,,
149,0.9612903225806453,144.44690189776182,,
150,0.9677419354838711,243.33305286034908,,
151,0.9741935483870968,138.17113285001585,,
152,0.9806451612903226,73.07809040128713,,
153,0.9870967741935485,200.11375283484543,,
154,0.9935483870967743,72.91074390850672,,
155,1.0000000000000002,154.75311593544862,,
156,1.006451612903226,185.56374756634523,,
157,1.0129032258064516,47.151390726209215,,
158,1.0193548387096776,22.01656396112333,,
159,1.0258064516129035,254.91755374371976,,
160,1.032258064516129,114.70867494006282,,
161,1.038709677419355,105.35157218905282,,
162,1.0451612903225806,194.6288267595208,,
163,1.0516129032258066,170.2194857956603,,
164,1.0580645161290325,280.11014522781994,,
165,1.064516129032258,205.99048503712316,,
166,1.070967741935484,290.7172226876018,,
167,1.0774193548387099,1415.3162566953447,,
168,1.0838709677419356,551.977974148325,,
169,1.0903225806451615,315.5125760909785,,
170,1.096774193548387,170.9934932810259,,
171,1.103225806451613,195.80826357295126,,
172,1.1096774193548389,172.3015500888832,,
173,1.1161290322580646,105.49085616753734,,
174,1.1225806451612905,53.21753450055013,,
175,1.1290322580645165,167.08190365689623,,
176,1.135483870967742,125.35228148875282,,
177,1.1419354838709679,202.95002333723104,,
178,1.1483870967741936,102.10243386590852,,
179,1.1548387096774195,70.7386042812893,,
180,1.1612903225806455,126.46527270383638,,
181,1.167741935483871,100.15676459794992,,
182,1.1741935483870969,115.41501721166674,,
183,1.1806451612903226,51.69838569916092,,
184,1.1870967741935485,15.056758080114385,,
185,1.1935483870967745,117.62606749469067,,
186,1.2,99.05688521131688,,
187,1.206451612903226,196.77188437379772,,
188,1.2129032258064518,136.38541316170327,,
189,1.2193548387096775,38.09795558664816,,
190,1.2258064516129035,73.90781777155365,,
191,1.232258064516129,37.1576296047655,,
192,1.238709677419355,214.7175721335944,,
193,1.2451612903225808,114.8277524127484,,
194,1.2516129032258065,39.871985495803806,,
195,1.2580645161290325,69.52911515643554,,
196,1.2645161290322582,111.11093358995608,,
197,1.270967741935484,122.20329115452694,,
198,1.2774193548387098,137.99174094102872,,
199,1.2838709677419355,133.97288614149645,,
200,1.2903225806451615,179.09448645830378,,
201,1.2967741935483874,137.0478174748428,,
202,1.303225806451613,163.37896730207436,,
203,1.3096774193548388,105.99818947414461,,
204,1.3161290322580645,63.7564095334416,,
205,1.3225806451612905,187.3130111353044,,
206,1.3290322580645164,152.631834810129,,
207,1.335483870967742,54.0467050015688,,
208,1.3419354838709678,61.43470636042291,,
209,1.3483870967741938,176.89964262282783,,
210,1.3548387096774195,173.23352068819457,,
211,1.3612903225806454,132.97263428634662,,
212,1.367741935483871,149.36110978001372,,
213,1.3741935483870968,190.13954517651302,,
214,1.3806451612903228,65.16819776535418,,
215,1.3870967741935485,148.32056848857152,,
216,1.3935483870967744,174.83477919906912,,
217,1.4000000000000001,106.79970181416084,,
218,1.4064516129032258,168.8817884751525,,
219,1.4129032258064518,60.324198215687666,,
220,1.4193548387096775,43.646975585236994,,
221,1.4258064516129034,35.90235375152816,,
222,1.4322580645161294,157.24258026182542,,
223,1.4387096774193548,120.93602841582782,,
224,1.4451612903225808,126.60240366950349,,
225,1.4516129032258067,116.1225509728255,,
226,1.4580645161290324,133.6314658130148,,
227,1.4645161290322584,38.61447615791627,,
228,1.4709677419354839,92.91779447665506,,
229,1.4774193548387098,131.03212836849087,,
230,1.4838709677419357,132.5347859198008,,
231,1.4903225806451614,69.31088530304001,,
232,1.4967741935483874,70.64320719999206,,
233,1.5032258064516129,55.224975887134356,,
234,1.5096774193548388,233.37469259347787,,
235,1.5161290322580647,229.48850171844228,,
236,1.5225806451612904,69.31472288126882,,
237,1.5290322580645164,37.35529639027193,,
238,1.535483870967742,125.6976570623792,,
239,1.5419354838709678,70.69222480461262,,
240,1.5483870967741937,64.68951844275307,,
241,1.5548387096774194,57.95024732860015,,
242,1.5612903225806454,226.65021522971477,,
243,1.567741935483871,151.08139872280591,,
244,1.5741935483870968,82.88596912077496,,
245,1.5806451612903227,85.89858156433651,,
246,1.5870967741935487,105.73735854271729,,
247,1.5935483870967744,132.38815496785432,,
248,1.6000000000000003,181.3054116732413,,
249,1.6064516129032258,91.9638356886723,,
250,1.6129032258064517,121.38443200377694,,
251,1.6193548387096777,102.05974650885983,,
252,1.6258064516129034,115.09609312757331,,
253,1.6322580645161293,208.8999834439784,,
254,1.6387096774193548,77.86932989864971,,
255,1.6451612903225807,126.15494671845339,,
256,1.6516129032258067,59.361059929131564,,
257,1.6580645161290324,169.94604890401155,,
258,1.6645161290322583,185.51698739740849,,
259,1.670967741935484,184.86024868648423,,
260,1.6774193548387097,181.7137207243775,,
261,1.6838709677419357,169.77297573945285,,
262,1.6903225806451614,78.99159146134043,,
263,1.6967741935483873,221.71330207190505,,
264,1.703225806451613,129.73232995127,,
265,1.7096774193548387,81.95789540715388,,
266,1.7161290322580647,107.36173654876056,,
267,1.7225806451612906,105.55563633519684,,
268,1.7290322580645163,120.345532481291,,
269,1.7354838709677423,72.53090984492147,,
270,1.7419354838709677,121.67387495687744,,
271,1.7483870967741937,144.7060038247488,,
272,1.7548387096774196,178.61033228166548,,
273,1.7612903225806453,144.1729118504821,,
274,1.7677419354838713,230.50958263657083,,
275,1.7741935483870968,260.0106976536373,,
276,1.7806451612903227,214.93806817718985,,
277,1.7870967741935486,111.30622797154766,,
278,1.7935483870967743,59.05941432228503,,
279,1.8000000000000003,122.7081728058679,,
280,1.806451612903226,64.25687094060203,,
281,1.8129032258064517,12.713376938294301,,
282,1.8193548387096776,81.14906618097017,,
283,1.8258064516129033,140.8180901043672,,
284,1.8322580645161293,126.77441939831103,,
285,1.838709677419355,84.84161187625212,,
286,1.8451612903225807,57.46340363686735,,
287,1.8516129032258066,233.73187456558736,,
288,1.8580645161290326,120.16328024223746,,
289,1.8645161290322583,28.87933031886755,,
290,1.870967741935484,91.6872534739364,,
291,1.8774193548387097,132.96320182122423,,
292,1.8838709677419356,276.5428009837878,,
293,1.8903225806451616,148.27874792028894,,
294,1.8967741935483873,79.12145074192519,,
295,1.9032258064516132,107.84670561968149,,
296,1.909677419354839,85.9877285068093,,
297,1.9161290322580646,185.51525474863996,,
298,1.9225806451612906,109.58635249058845,,
299,1.9290322580645163,137.79999331625598,,
300,1.9354838709677422,97.67623835922319,,
301,1.941935483870968,123.67113941459944,,
302,1.9483870967741936,119.45937115822385,,
303,1.9548387096774196,34.52985924880823,,
304,1.9612903225806453,79.69713127694392,,
305,1.9677419354838712,51.740706487853764,,
306,1.974193548387097,55.42079263400418,,
307,1.9806451612903226,66.80485588570343,,
308,1.9870967741935486,186.86108351751088,,
309,1.9935483870967745,162.36391762840515,,
310,2.0000000000000004,146.91311882773013,,
311,2.0064516129032257,144.2140431479249,,
312,2.012903225806452,110.42518924338299,,
313,2.0193548387096776,85.2122140763845,,
314,2.0258064516129033,80.65969300787323,,
315,2.0322580645161294,44.972612378620425,,
316,2.038709677419355,68.9890097693095,,
317,2.045161290322581,24.493125195923014,,
318,2.051612903225807,271.90810592386555,,
319,2.0580645161290323,247.6104004076592,,
320,2.064516129032258,317.5175209277276,,
321,2.070967741935484,198.62740000379463,,
322,2.07741935483871,48.81774926156731,,
323,2.0838709677419356,40.449018014905484,,
324,2.0903225806451613,176.53089987080065,,
325,2.0967741935483875,164.62627540629668,,
326,2.103225806451613,125.22791335881941,,
327,2.109677419354839,186.00899429085783,,
328,2.116129032258065,164.00821248911143,,
329,2.1225806451612907,211.31906096841527,,
330,2.129032258064516,62.72552261729762,,
331,2.135483870967742,186.23408517982892,,
332,2.141935483870968,278.91739293392885,,
333,2.1483870967741936,188.9516582762541,,
334,2.1548387096774198,101.4497947993927,,
335,2.1612903225806455,132.56343374767698,,
336,2.167741935483871,110.79563057226036,,
337,2.174193548387097,58.70419425967358,,
338,2.180645161290323,150.7592194238904,,
339,2.1870967741935488,76.6982213673808,,
340,2.193548387096774,134.10717907228195,,
341,2.2,223.71657569018927,,
342,2.206451612903226,286.63119256916264,,
343,2.2129032258064516,219.4696749412737,,
344,2.2193548387096778,192.3799670709287,,
345,2.2258064516129035,104.79161338616562,,
346,2.232258064516129,132.6116196556473,,
347,2.2387096774193553,196.0611546951944,,
348,2.245161290322581,173.9317764248692,,
349,2.2516129032258068,117.03309006606268,,
350,2.258064516129033,38.05032216128886,,
351,2.264516129032258,215.62322825050018,,
352,2.270967741935484,198.32406146207123,,
353,2.2774193548387096,79.35836294036977,,
354,2.2838709677419358,126.8759768549036,,
355,2.2903225806451615,256.0800499981391,,
356,2.296774193548387,200.99308530631018,,
357,2.3032258064516133,346.05799493468567,,
358,2.309677419354839,39.70707997973484,,
359,2.3161290322580648,121.94027141447016,,
360,2.322580645161291,221.87037765435556,,
361,2.329032258064516,211.91210296272237,,
362,2.335483870967742,201.83731600497245,,
363,2.341935483870968,51.948409288156626,,
364,2.3483870967741938,150.9622745076617,,
365,2.3548387096774195,46.404254296505584,,
366,2.361290322580645,25.26198009273502,,
367,2.3677419354838714,148.27363302817224,,
368,2.374193548387097,142.4385739385421,,
369,2.3806451612903228,24.041022293696816,,
370,2.387096774193549,105.13747606806457,,
371,2.393548387096774,110.93915156749779,,
372,2.4,95.0499443536894,,
373,2.406451612903226,87.8178347281376,,
374,2.412903225806452,30.69192602666186,,
375,2.4193548387096775,166.03350843739727,,
376,2.4258064516129036,62.71184803210826,,
377,2.4322580645161294,157.2446014018124,,
378,2.438709677419355,25.488680007581767,,
379,2.445161290322581,236.20413352756538,,
380,2.451612903225807,176.02699614601832,,
381,2.4580645161290327,258.8493643524572,,
382,2.464516129032258,88.49304736424037,,
383,2.470967741935484,148.44977484356525,,
384,2.47741935483871,76.62085076099044,,
385,2.4838709677419355,130.55312189798224,,
386,2.4903225806451617,81.82674423154577,,
387,2.4967741935483874,52.28359265262118,,
388,2.503225806451613,71.73179242377435,,
389,2.5096774193548392,77.86529011630614,,
390,2.516129032258065,56.42728634054964,,
391,2.5225806451612907,109.30478783679938,,
392,2.5290322580645164,91.40095841958099,,
393,2.535483870967742,107.68150400566017,,
394,2.541935483870968,182.91774771479393,,
395,2.5483870967741935,172.09618597738424,,
396,2.5548387096774197,112.21541036556886,,
397,2.5612903225806454,144.75901314368306,,
398,2.567741935483871,58.207830407249105,,
399,2.5741935483870972,119.6764992963447,,
400,2.580645161290323,91.25202118082773,,
401,2.5870967741935487,10.183395227461686,,
402,2.593548387096775,135.11883593888976,,
403,2.6,69.44017806672039,,
404,2.606451612903226,99.63922598454141,,
405,2.612903225806452,112.92712435927223,,
406,2.6193548387096777,41.84982276844963,,
407,2.6258064516129034,199.81522225742603,,
408,2.632258064516129,215.15809459545244,,
409,2.6387096774193552,128.22236388492828,,
410,2.645161290322581,121.60673283562545,,
411,2.6516129032258067,142.71857654238391,,
412,2.658064516129033,185.07960522456816,,
413,2.664516129032258,98.09592053427336,,
414,2.670967741935484,50.072489014822914,,
415,2.67741935483871,107.63242250709797,,
416,2.6838709677419357,309.71680019848685,,
417,2.6903225806451614,172.57130559096163,,
418,2.6967741935483875,217.17653060963008,,
419,2.7032258064516133,93.49715947623622,,
420,2.709677419354839,73.34052614174477,,
421,2.716129032258065,127.81659402797474,,
422,2.722580645161291,63.77962206292516,,
423,2.7290322580645165,138.36409089769296,,
424,2.735483870967742,129.06427360673104,,
425,2.741935483870968,172.1551653303385,,
426,2.7483870967741937,69.7583496069567,,
427,2.7548387096774194,163.49021066829,,
428,2.7612903225806456,110.24381680460915,,
429,2.7677419354838713,88.1667316101891,,
430,2.774193548387097,75.23357954389294,,
431,2.780645161290323,156.51069644114955,,
432,2.787096774193549,272.4914357353516,,
433,2.7935483870967746,359.354927088347,,
434,2.8000000000000003,261.64866688813476,,
435,2.806451612903226,149.58675507416586,,
436,2.8129032258064517,92.25362188900084,,
437,2.8193548387096774,81.95650356868403,,
438,2.8258064516129036,117.19740868505859,,
439,2.8322580645161293,113.97188133894417,,
440,2.838709677419355,36.28790770832822,,
441,2.845161290322581,127.97695588752374,,
442,2.851612903225807,209.383004883758,,
443,2.8580645161290326,76.72462607993673,,
444,2.8645161290322587,125.59362808733441,,
445,2.870967741935484,197.3650626410423,,
446,2.8774193548387097,141.34025775657582,,
447,2.883870967741936,15.483192332923279,,
448,2.8903225806451616,97.20241712582735,,
449,2.8967741935483873,59.08805456838311,,
450,2.9032258064516134,111.38270530364154,,
451,2.909677419354839,183.06813076547107,,
452,2.916129032258065,222.94747481822426,,
453,2.9225806451612906,45.016592789438896,,
454,2.9290322580645167,88.94459122733318,,
455,2.935483870967742,148.18310824813776,,
456,2.9419354838709677,110.63069705360117,,
457,2.948387096774194,115.48752161666351,,
458,2.9548387096774196,139.73049115840948,,
459,2.9612903225806453,82.58683094001726,,
460,2.9677419354838714,222.6809776053851,,
461,2.974193548387097,218.5426227932238,,
462,2.980645161290323,145.79556323411356,,
463,2.987096774193549,60.119771898687745,,
464,2.9935483870967747,200.77323972272563,,
465,3.0,66.45655052942254,,
466,3.0064516129032257,154.08642090079647,,
467,3.012903225806452,177.02817881070206,,
468,3.0193548387096776,178.70741000916226,,
469,3.0258064516129033,98.52674417429857,,
470,3.0322580645161294,85.40404107827491,,
471,3.038709677419355,99.11077094371579,,
472,3.045161290322581,208.0188407242656,,
473,3.051612903225807,140.75610711130278,,
474,3.0580645161290327,144.84840773651985,,
475,3.0645161290322585,144.77733098341963,,
476,3.070967741935484,186.79963653188543,,
477,3.07741935483871,96.97559637134752,,
478,3.0838709677419356,211.78726123411982,,
479,3.0903225806451613,298.1145126854368,,
480,3.0967741935483875,284.1941717354482,,
481,3.103225806451613,162.98219759264475,,
482,3.109677419354839,108.95312802523264,,
483,3.116129032258065,33.583980199635185,,
484,3.1225806451612907,75.7422711463882,,
485,3.1290322580645165,117.09139732123217,,
486,3.135483870967742,149.86140617619557,,
487,3.141935483870968,71.88734265183602,,
488,3.1483870967741936,88.18325386930823,,
489,3.1548387096774198,60.975266819001526,,
490,3.1612903225806455,91.8801321312793,,
491,3.167741935483871,199.95010953400023,,
492,3.1741935483870973,109.03686294915443,,
493,3.180645161290323,98.83661558126668,,
494,3.1870967741935488,123.89472261620617,,
495,3.1935483870967745,96.63102849191861,,
496,3.2000000000000006,95.72779209606394,,
497,3.206451612903226,91.99057840773004,,
498,3.2129032258064516,141.22270195712733,,
499,3.2193548387096778,67.84475306998263,,
500,3.2258064516129035,102.44667494412043,,
501,3.232258064516129,24.27899969314896,,
502,3.2387096774193553,90.88481427383778,,
503,3.245161290322581,42.783467679322015,,
504,3.2516129032258068,120.60362290686248,,
505,3.258064516129033,128.154611370307,,
506,3.2645161290322586,274.433450834127,,
507,3.270967741935484,272.17785965113484,,
508,3.2774193548387096,144.36615245961607,,
509,3.2838709677419358,66.1205791882693,,
510,3.2903225806451615,170.8063408942155,,
511,3.296774193548387,154.8461545859652,,
512,3.3032258064516133,116.20715927148463,,
513,3.309677419354839,65.32181939224046,,
514,3.3161290322580648,72.1675893722282,,
515,3.322580645161291,260.5012989725771,,
516,3.3290322580645166,152.79340177561184,,
517,3.3354838709677423,34.03773024733384,,
518,3.341935483870968,197.7189919735501,,
519,3.3483870967741938,315.37406319568674,,
520,3.3548387096774195,251.94676492582684,,
521,3.3612903225806456,135.11146439245724,,
522,3.3677419354838714,124.33373241867481,,
523,3.374193548387097,108.6259900661267,,
524,3.3806451612903228,221.89655552056334,,
525,3.387096774193549,56.15069737774887,,
526,3.3935483870967746,15.218248892867171,,
527,3.4000000000000004,193.36209867609708,,
528,3.406451612903226,134.90414406131163,,
529,3.412903225806452,253.99693904746866,,
530,3.4193548387096775,200.15125425813727,,
531,3.4258064516129036,138.3105807949034,,
532,3.4322580645161294,220.7825528062575,,
533,3.438709677419355,184.41796524903512,,
534,3.4451612903225812,118.17480908213709,,
535,3.451612903225807,139.88585423246892,,
536,3.4580645161290327,158.86866610003946,,
537,3.4645161290322584,278.256209529936,,
538,3.4709677419354845,39.359851790400434,,
539,3.47741935483871,205.4846599984202,,
540,3.4838709677419355,87.204835041192,,
541,3.4903225806451617,176.51994236551678,,
542,3.4967741935483874,200.26497896758286,,
543,3.503225806451613,204.4464477171411,,
544,3.5096774193548392,149.31870316239113,,
545,3.516129032258065,259.67204182000233,,
546,3.5225806451612907,173.91311239481087,,
547,3.529032258064517,23.19447252568322,,
548,3.5354838709677425,152.04596854642648,,
549,3.541935483870968,96.58451585451296,,
550,3.5483870967741935,90.64099474628438,,
551,3.5548387096774197,122.97806724179226,,
552,3.5612903225806454,235.95708916434666,,
553,3.567741935483871,125.44048085802174,,
554,3.5741935483870972,250.28598157136403,,
555,3.580645161290323,121.7869457143558,,
556,3.5870967741935487,139.22341142032963,,
557,3.593548387096775,188.6033162740716,,
558,3.6000000000000005,194.25139296538066,,
559,3.6064516129032262,249.84307405572636,,
560,3.612903225806452,93.48074929093922,,
561,3.6193548387096777,22.30554337549833,,
562,3.6258064516129034,99.03470930882587,,
563,3.6322580645161295,203.70673653371043,,
564,3.6387096774193552,155.44061739101693,,
565,3.645161290322581,170.38410058949032,,
566,3.6516129032258067,192.57562074767577,,
567,3.658064516129033,53.956193963967294,,
568,3.6645161290322585,171.97620395042318,,
569,3.6709677419354843,223.5879614973841,,
570,3.67741935483871,92.94796636328657,,
571,3.6838709677419357,231.19715422069206,,
572,3.6903225806451614,138.9164262893994,,
573,3.6967741935483875,238.26413942995092,,
574,3.7032258064516133,41.22648958524221,,
575,3.709677419354839,194.00130393975186,,
576,3.716129032258065,203.29727046617145,,
577,3.722580645161291,147.76234080240323,,
578,3.7290322580645165,103.0943711050798,,
579,3.7354838709677427,28.557504019927414,,
580,3.741935483870968,53.83113329010418,,
581,3.7483870967741937,220.67469230946267,,
582,3.7548387096774194,264.53566347088343,,
583,3.7612903225806456,133.49384626940773,,
584,3.7677419354838713,51.800363625312315,,
585,3.774193548387097,134.135126604606,,
586,3.780645161290323,248.72844955359741,,
587,3.787096774193549,325.9404063816577,,
588,3.7935483870967746,273.4077433942792,,
589,3.8000000000000007,96.67345688954617,,
590,3.8064516129032264,88.91250224860559,,
591,3.8129032258064517,39.07911175773111,,
592,3.819354838709678,198.49848610895475,,
593,3.8258064516129036,80.50846983631487,,
594,3.8322580645161293,87.25476823712864,,
595,3.838709677419355,55.96515137524463,,
596,3.845161290322581,184.88294340622113,,
597,3.851612903225807,228.46257948910448,,
598,3.8580645161290326,119.97125677542064,,
599,3.8645161290322587,266.907289532446,,
600,3.8709677419354844,104.5832326915818,,
601,3.8774193548387097,155.7207298073816,,
602,3.883870967741936,191.41606222410093,,
603,3.8903225806451616,175.70089701629936,,
604,3.8967741935483873,243.259744919388,,
605,3.9032258064516134,132.2807344014588,,
606,3.909677419354839,40.60296792889048,,
607,3.916129032258065,68.96591344029196,,
608,3.9225806451612906,220.66199720824898,,
609,3.9290322580645167,189.5565485446831,,
610,3.9354838709677424,85.65816121449478,,
611,3.941935483870968,186.25765789964183,,
612,3.948387096774194,90.81715716637216,,
613,3.9548387096774196,109.85801804911146,,
614,3.9612903225806453,224.1573901509084,,
615,3.9677419354838714,90.47765545620713,,
616,3.974193548387097,109.92346311369305,,
617,3.980645161290323,12.861252533317936,,
618,3.987096774193549,133.3301117653584,,
619,3.9935483870967747,243.42145266520154,,
620,4.000000000000001,251.518459593544,,
621,4.006451612903226,153.9018666976264,,
622,4.012903225806451,121.2834426688532,,
623,4.019354838709678,121.24309779487612,,
624,4.025806451612904,377.47410684990524,,
625,4.032258064516129,119.76077287673986,,
626,4.038709677419355,48.644947129345795,,
627,4.045161290322581,119.23005813057927,,
628,4.051612903225807,316.57102152024004,,
629,4.058064516129033,111.9894243080585,,
630,4.064516129032259,161.6434524492958,,
631,4.070967741935484,94.46442390732692,,
632,4.07741935483871,174.62282326514693,,
633,4.083870967741936,167.49353353593708,,
634,4.090322580645162,175.86290293738998,,
635,4.096774193548387,237.77000892055594,,
636,4.103225806451614,20.807514862250958,,
637,4.109677419354839,190.3181162839742,,
638,4.116129032258065,106.70091719947618,,
639,4.122580645161291,135.80439239632742,,
640,4.129032258064516,204.20449040901627,,
641,4.135483870967742,178.75615471909748,,
642,4.141935483870968,157.33541345552175,,
643,4.1483870967741945,71.16315868921443,,
644,4.15483870967742,306.4190225061125,,
645,4.161290322580646,186.45845184100796,,
646,4.167741935483871,35.41125479980544,,
647,4.174193548387097,119.2168372091955,,
648,4.180645161290323,169.89012725879044,,
649,4.187096774193549,96.64635377523646,,
650,4.193548387096775,116.4026526551758,,
651,4.2,108.8686021107857,,
652,4.206451612903226,100.80753569514656,,
653,4.212903225806452,25.07640165007216,,
654,4.219354838709678,84.97410700189018,,
655,4.225806451612904,182.06696158260846,,
656,4.23225806451613,156.70780651059323,,
657,4.238709677419355,131.0341012096101,,
658,4.2451612903225815,188.26537603121437,,
659,4.251612903225807,77.89966465317136,,
660,4.258064516129032,217.0553313292876,,
661,4.264516129032258,252.7280338655803,,
662,4.270967741935484,180.93464786374858,,
663,4.2774193548387105,139.1763602332645,,
664,4.283870967741936,166.34107992204915,,
665,4.290322580645162,202.76320536244094,,
666,4.296774193548387,142.4463565659746,,
667,4.303225806451613,205.18827082299077,,
668,4.3096774193548395,197.01122469828584,,
669,4.316129032258065,265.9949744006191,,
670,4.322580645161291,230.96981320031517,,
671,4.329032258064516,226.62785231777826,,
672,4.335483870967742,173.092689091358,,
673,4.341935483870968,94.76511612486547,,
674,4.348387096774194,75.41351237444506,,
675,4.35483870967742,191.87125224628363,,
676,4.361290322580646,192.57737029461825,,
677,4.367741935483871,249.57848814951825,,
678,4.3741935483870975,166.42763667676684,,
679,4.380645161290323,113.13810792272486,,
680,4.387096774193548,90.07472613252143,,
681,4.393548387096775,153.03556390864262,,
682,4.4,231.86723858034475,,
683,4.4064516129032265,204.06205671673408,,
684,4.412903225806452,101.3539903800891,,
685,4.419354838709678,222.85394862781203,,
686,4.425806451612903,349.5686158254723,,
687,4.432258064516129,165.02799378788256,,
688,4.4387096774193555,126.28049023672722,,
689,4.445161290322582,117.10815022488383,,
690,4.451612903225807,165.85552778775454,,
691,4.458064516129032,183.23573306263046,,
692,4.464516129032258,176.33774401204218,,
693,4.470967741935484,195.36850467730113,,
694,4.477419354838711,79.0311985651119,,
695,4.483870967741936,175.1647257447649,,
696,4.490322580645162,13.696919363817349,,
697,4.496774193548387,185.8665899079326,,
698,4.5032258064516135,376.2194612958541,,
699,4.509677419354839,155.6502373587656,,
700,4.516129032258066,149.8506058090012,,
701,4.522580645161291,64.94658276766012,,
702,4.529032258064516,117.44412691089327,,
703,4.5354838709677425,321.0821947190114,,
704,4.541935483870968,332.6979668441028,,
705,4.548387096774194,158.37067024992442,,
706,4.554838709677419,144.68026164814611,,
707,4.561290322580646,121.45922525681588,,
708,4.5677419354838715,107.60076792038257,,
709,4.574193548387098,154.0993743592272,,
710,4.580645161290323,161.81878302813953,,
711,4.587096774193548,67.41285836491909,,
712,4.593548387096774,48.70872285644308,,
713,4.6000000000000005,68.18223071071776,,
714,4.606451612903227,228.82239927027913,,
715,4.612903225806452,115.73963844434412,,
716,4.619354838709678,251.22994351623777,,
717,4.625806451612903,142.34838749789796,,
718,4.6322580645161295,97.7741427243817,,
719,4.638709677419355,113.2082207985622,,
720,4.645161290322582,106.08175846581172,,
721,4.651612903225807,285.96038398962367,,
722,4.658064516129032,189.35201584458449,,
723,4.6645161290322585,57.54256872256045,,
724,4.670967741935484,176.9347246002058,,
725,4.67741935483871,75.55094857466693,,
726,4.683870967741936,182.13147471492192,,
727,4.690322580645162,166.91431000468364,,
728,4.6967741935483875,66.61482738933452,,
729,4.703225806451614,36.86484816175235,,
730,4.709677419354839,188.81924925548327,,
731,4.716129032258065,135.14702602788748,,
732,4.72258064516129,87.40616032510825,,
733,4.7290322580645165,63.88914053547665,,
734,4.735483870967743,155.42657430498497,,
735,4.741935483870968,143.52106683774707,,
736,4.748387096774194,142.67564588489,,
737,4.754838709677419,37.52303593005002,,
738,4.7612903225806456,156.8658592688848,,
739,4.767741935483872,119.43745544373706,,
740,4.774193548387098,134.10593988185403,,
741,4.780645161290323,74.33855716378237,,
742,4.787096774193548,66.64986352420684,,
743,4.7935483870967746,227.32960330422284,,
744,4.8,147.46750818543572,,
745,4.806451612903226,214.9834790089539,,
746,4.812903225806452,147.29623216156062,,
747,4.819354838709678,118.77998193481157,,
748,4.825806451612904,211.50466880725125,,
749,4.83225806451613,184.75733036020407,,
750,4.838709677419355,281.28630327442346,,
751,4.845161290322581,225.4456423161053,,
752,4.851612903225807,320.4907660636482,,
753,4.858064516129033,27.588643593150355,,
754,4.864516129032259,95.09762135598498,,
755,4.870967741935484,39.82468786980357,,
756,4.87741935483871,76.25105584837314,,
757,4.883870967741935,211.16809731017963,,
758,4.890322580645162,250.0255407998938,,
759,4.896774193548388,223.70811837459604,,
760,4.903225806451614,205.8112380192567,,
761,4.909677419354839,167.19017288405487,,
762,4.916129032258065,205.28919214521787,,
763,4.922580645161291,182.4198797498335,,
764,4.929032258064516,24.42639269098025,,
765,4.935483870967743,147.95570986981562,,
766,4.941935483870968,156.11956677104104,,
767,4.948387096774194,93.34094048821004,,
768,4.95483870967742,355.63132527307613,,
769,4.961290322580646,169.32108460692422,,
770,4.967741935483871,111.7488245334983,,
771,4.974193548387098,254.0198890388279,,
772,4.980645161290323,196.25616747537563,,
773,4.9870967741935495,210.60172783081322,,
774,4.993548387096775,327.7546499708029,,
775,5.0,155.0,,
0,0.0,13395.0,2,sampling period
1,0.006451612903225807,3188.9385400071596,0,sampling bounds
2,0.012903225806451615,1978.986054306511,2,
3,0.01935483870967742,1471.0075546118596,2,
4,0.02580645161290323,1036.0288261789622,-,
5,0.03225806451612903,70.28916268815378,1,
6,0.03870967741935484,183.527496674248,1,
7,0.04516129032258065,365.7033124633876,-,
8,0.05161290322580646,383.2911194816836,1,
9,0.05806451612903227,237.30487517388912,6,
10,0.06451612903225806,201.4424876462702,T,
11,0.07096774193548387,273.23975894246064,1,
12,0.07741935483870968,170.1741879556995,5,
13,0.08387096774193549,152.3036597553837,:,
14,0.0903225806451613,185.17796958251972,0,
15,0.09677419354838711,241.56858321516108,1,
16,0.10322580645161292,187.23486595336783,:,
17,0.10967741935483873,161.6976685545432,1,
18,0.11612903225806454,115.07026422099659,0,
19,0.12258064516129033,382.0633147399223,.,
20,0.12903225806451613,204.19292166786806,3,
21,0.13548387096774195,275.65427649452,7,
22,0.14193548387096774,129.35329034428625,7,
23,0.14838709677419357,63.52758706300658,0,
24,0.15483870967741936,70.71738639568284,9,
25,0.16129032258064518,97.56418834814087,0,
26,0.16774193548387098,105.77134232243509,,
27,0.1741935483870968,114.94889391180325,,
28,0.1806451612903226,221.19974936962873,,
29,0.18709677419354842,163.9077884311894,,
30,0.19354838709677422,221.44501322593516,,
31,0.20000000000000004,217.8603470248862,,
32,0.20645161290322583,314.4807396979857,,
33,0.21290322580645163,204.55384040317048,,
34,0.21935483870967745,341.2005545635213,,
35,0.22580645161290325,96.93496682746516,,
36,0.23225806451612907,160.77368423444184,,
37,0.23870967741935487,43.05797052885496,,
38,0.24516129032258066,148.23605582179735,,
39,0.2516129032258065,380.39048845690786,,
40,0.25806451612903225,139.70873342355318,,
41,0.26451612903225813,186.64049641732012,,
42,0.2709677419354839,264.4641080232231,,
43,0.2774193548387097,125.50794120177102,,
44,0.2838709677419355,348.92709203393457,,
45,0.29032258064516137,316.4598629364872,,
46,0.29677419354838713,45.50105688520953,,
47,0.30322580645161296,231.3998648560236,,
48,0.3096774193548387,354.072773956912,,
49,0.31612903225806455,117.06341790022753,,
50,0.32258064516129037,626.6307128692551,,
51,0.32903225806451614,361.599329282008,,
52,0.33548387096774196,105.81871087206629,,
53,0.3419354838709677,414.23171758927657,,
54,0.3483870967741936,196.88641928489048,,
55,0.3548387096774194,405.7264848757158,,
56,0.3612903225806452,237.5389717290531,,
57,0.36774193548387096,133.34031520111893,,
58,0.37419354838709684,245.0055079342532,,
59,0.3806451612903226,183.52012096003068,,
60,0.38709677419354843,225.26352662092748,,
61,0.3935483870967742,130.30136457233078,,
62,0.4000000000000001,178.66633606000877,,
63,0.40645161290322585,63.904018559472085,,
64,0.41290322580645167,189.19350667951295,,
65,0.41935483870967744,67.55463515625284,,
66,0.42580645161290326,95.51089186095172,,
67,0.4322580645161291,274.6629790939181,,
68,0.4387096774193549,181.57955787777203,,
69,0.44516129032258067,224.73300580515917,,
70,0.4516129032258065,202.5949418760261,,
71,0.4580645161290323,163.24781989367855,,
72,0.46451612903225814,148.67171368026416,,
73,0.4709677419354839,190.23220722359306,,
74,0.47741935483870973,274.6581961461528,,
75,0.48387096774193555,117.58413578812997,,
76,0.4903225806451613,184.25415098561803,,
77,0.49677419354838714,261.3794279175109,,
78,0.503225806451613,272.76551854259657,,
79,0.5096774193548388,206.84976517155272,,
80,0.5161290322580645,109.61734233858935,,
81,0.5225806451612903,73.05693217675294,,
82,0.5290322580645163,262.2873304674816,,
83,0.535483870967742,251.00684069038257,,
84,0.5419354838709678,439.28519160492795,,
85,0.5483870967741935,116.99218437761813,,
86,0.5548387096774194,302.9369708216064,,
87,0.5612903225806453,351.8075661203905,,
88,0.567741935483871,290.6137127886485,,
89,0.5741935483870968,302.9936889719577,,
90,0.5806451612903227,179.86070083918096,,
91,0.5870967741935484,233.24010134646238,,
92,0.5935483870967743,211.34879683110222,,
93,0.6,373.0301664250762,,
94,0.6064516129032259,241.12688998018015,,
95,0.6129032258064517,296.0501629673828,,
96,0.6193548387096774,160.60914071349777,,
97,0.6258064516129033,161.91637919303724,,
98,0.6322580645161291,290.97214886347786,,
99,0.6387096774193549,401.0704279598954,,
100,0.6451612903225807,863.2594725705928,,
101,0.6516129032258065,464.8243093626631,,
102,0.6580645161290323,152.32518228025376,,
103,0.6645161290322582,207.2649673065879,,
104,0.6709677419354839,268.36458518455663,,
105,0.6774193548387097,226.39384588585534,,
106,0.6838709677419355,103.61241118929205,,
107,0.6903225806451614,220.13518803529686,,
108,0.6967741935483872,243.95286111936997,,
109,0.7032258064516129,295.5962622165539,,
110,0.7096774193548387,213.00932589657057,,
111,0.7161290322580647,735.9863256718203,,
112,0.7225806451612904,765.7916504535925,,
113,0.7290322580645162,487.3875680612996,,
114,0.7354838709677419,260.970533693051,,
115,0.7419354838709679,274.91514289343394,,
116,0.7483870967741937,203.02114960448088,,
117,0.7548387096774194,190.2813958775922,,
118,0.7612903225806452,359.3353379799896,,
119,0.767741935483871,65.63357340230378,,
120,0.7741935483870969,241.13761994592122,,
121,0.7806451612903227,282.6241717312704,,
122,0.7870967741935484,99.01615169887471,,
123,0.7935483870967743,169.80658465714453,,
124,0.8000000000000002,50.97458775967532,,
125,0.8064516129032259,44.80448821616774,,
126,0.8129032258064517,282.25460915684835,,
127,0.8193548387096774,116.10657389293007,,
128,0.8258064516129033,49.769096008242755,,
129,0.8322580645161292,250.1198670223252,,
130,0.8387096774193549,189.45263258265345,,
131,0.8451612903225807,117.3637647881762,,
132,0.8516129032258065,152.52446261098754,,
133,0.8580645161290323,49.96396981901062,,
134,0.8645161290322582,231.68105096172079,,
135,0.8709677419354839,61.04329696337494,,
136,0.8774193548387098,161.09671835448808,,
137,0.8838709677419356,94.87325139401685,,
138,0.8903225806451613,50.49623520732557,,
139,0.8967741935483872,228.1434265803414,,
140,0.903225806451613,103.28905522425373,,
141,0.9096774193548388,28.97319128328789,,
142,0.9161290322580646,209.92373094492038,,
143,0.9225806451612903,138.38888622290943,,
144,0.9290322580645163,62.83853859679817,,
145,0.935483870967742,199.6204887230826,,
146,0.9419354838709678,116.13060743327883,,
147,0.9483870967741936,173.0038719855966,,
148,0.9548387096774195,105.26022822491656,,
149,0.9612903225806453,144.44690189776182,,
150,0.9677419354838711,243.33305286034908,,
151,0.9741935483870968,138.17113285001585,,
152,0.9806451612903226,73.07809040128713,,
153,0.9870967741935485,200.11375283484543,,
154,0.9935483870967743,72.91074390850672,,
155,1.0000000000000002,154.75311593544862,,
156,1.006451612903226,185.56374756634523,,
157,1.0129032258064516,47.151390726209215,,
158,1.0193548387096776,22.01656396112333,,
159,1.0258064516129035,254.91755374371976,,
160,1.032258064516129,114.70867494006282,,
161,1.038709677419355,105.35157218905282,,
162,1.0451612903225806,194.6288267595208,,
163,1.0516129032258066,170.2194857956603,,
164,1.0580645161290325,280.11014522781994,,
165,1.064516129032258,205.99048503712316,,
166,1.070967741935484,290.7172226876018,,
167,1.0774193548387099,1415.3162566953447,,
168,1.0838709677419356,551.977974148325,,
169,1.0903225806451615,315.5125760909785,,
170,1.096774193548387,170.9934932810259,,
171,1.103225806451613,195.80826357295126,,
172,1.1096774193548389,172.3015500888832,,
173,1.1161290322580646,105.49085616753734,,
174,1.1225806451612905,53.21753450055013,,
175,1.1290322580645165,167.08190365689623,,
176,1.135483870967742,125.35228148875282,,
177,1.1419354838709679,202.95002333723104,,
178,1.1483870967741936,102.10243386590852,,
179,1.1548387096774195,70.7386042812893,,
180,1.1612903225806455,126.46527270383638,,
181,1.167741935483871,100.15676459794992,,
182,1.1741935483870969,115.41501721166674,,
183,1.1806451612903226,51.69838569916092,,
184,1.1870967741935485,15.056758080114385,,
185,1.1935483870967745,117.62606749469067,,
186,1.2,99.05688521131688,,
187,1.206451612903226,196.77188437379772,,
188,1.2129032258064518,136.38541316170327,,
189,1.2193548387096775,38.09795558664816,,
190,1.2258064516129035,73.90781777155365,,
191,1.232258064516129,37.1576296047655,,
192,1.238709677419355,214.7175721335944,,
193,1.2451612903225808,114.8277524127484,,
194,1.2516129032258065,39.871985495803806,,
195,1.2580645161290325,69.52911515643554,,
196,1.2645161290322582,111.11093358995608,,
197,1.270967741935484,122.20329115452694,,
198,1.2774193548387098,137.99174094102872,,
199,1.2838709677419355,133.97288614149645,,
200,1.2903225806451615,179.09448645830378,,
201,1.2967741935483874,137.0478174748428,,
202,1.303225806451613,163.37896730207436,,
203,1.3096774193548388,105.99818947414461,,
204,1.3161290322580645,63.7564095334416,,
205,1.3225806451612905,187.3130111353044,,
206,1.3290322580645164,152.631834810129,,
207,1.335483870967742,54.0467050015688,,
208,1.3419354838709678,61.43470636042291,,
209,1.3483870967741938,176.89964262282783,,
210,1.3548387096774195,173.23352068819457,,
211,1.3612903225806454,132.97263428634662,,
212,1.367741935483871,149.36110978001372,,
213,1.3741935483870968,190.13954517651302,,
214,1.3806451612903228,65.16819776535418,,
215,1.3870967741935485,148.32056848857152,,
216,1.3935483870967744,174.83477919906912,,
217,1.4000000000000001,106.79970181416084,,
218,1.4064516129032258,168.8817884751525,,
219,1.4129032258064518,60.324198215687666,,
220,1.4193548387096775,43.646975585236994,,
221,1.4258064516129034,35.90235375152816,,
222,1.4322580645161294,157.24258026182542,,
223,1.4387096774193548,120.93602841582782,,
224,1.4451612903225808,126.60240366950349,,
225,1.4516129032258067,116.1225509728255,,
226,1.4580645161290324,133.6314658130148,,
227,1.4645161290322584,38.61447615791627,,
228,1.4709677419354839,92.91779447665506,,
229,1.4774193548387098,131.03212836849087,,
230,1.4838709677419357,132.5347859198008,,
231,1.4903225806451614,69.31088530304001,,
232,1.4967741935483874,70.64320719999206,,
233,1.5032258064516129,55.224975887134356,,
234,1.5096774193548388,233.37469259347787,,
235,1.5161290322580647,229.48850171844228,,
236,1.5225806451612904,69.31472288126882,,
237,1.5290322580645164,37.35529639027193,,
238,1.535483870967742,125.6976570623792,,
239,1.5419354838709678,70.69222480461262,,
240,1.5483870967741937,64.68951844275307,,
241,1.5548387096774194,57.95024732860015,,
242,1.5612903225806454,226.65021522971477,,
243,1.567741935483871,151.08139872280591,,
244,1.5741935483870968,82.88596912077496,,
245,1.5806451612903227,85.89858156433651,,
246,1.5870967741935487,105.73735854271729,,
247,1.5935483870967744,132.38815496785432,,
248,1.6000000000000003,181.3054116732413,,
249,1.6064516129032258,91.9638356886723,,
250,1.6129032258064517,121.38443200377694,,
251,1.6193548387096777,102.05974650885983,,
252,1.6258064516129034,115.09609312757331,,
253,1.6322580645161293,208.8999834439784,,
254,1.6387096774193548,77.86932989864971,,
255,1.6451612903225807,126.15494671845339,,
256,1.6516129032258067,59.361059929131564,,
257,1.6580645161290324,169.94604890401155,,
258,1.6645161290322583,185.51698739740849,,
259,1.670967741935484,184.86024868648423,,
260,1.6774193548387097,181.7137207243775,,
261,1.6838709677419357,169.77297573945285,,
262,1.6903225806451614,78.99159146134043,,
263,1.6967741935483873,221.71330207190505,,
264,1.703225806451613,129.73232995127,,
265,1.7096774193548387,81.95789540715388,,
266,1.7161290322580647,107.36173654876056,,
267,1.7225806451612906,105.55563633519684,,
268,1.7290322580645163,120.345532481291,,
269,1.7354838709677423,72.53090984492147,,
270,1.7419354838709677,121.67387495687744,,
271,1.7483870967741937,144.7060038247488,,
272,1.7548387096774196,178.61033228166548,,
273,1.7612903225806453,144.1729118504821,,
274,1.7677419354838713,230.50958263657083,,
275,1.7741935483870968,260.0106976536373,,
276,1.7806451612903227,214.93806817718985,,
277,1.7870967741935486,111.30622797154766,,
278,1.7935483870967743,59.05941432228503,,
279,1.8000000000000003,122.7081728058679,,
280,1.806451612903226,64.25687094060203,,
281,1.8129032258064517,12.713376938294301,,
282,1.8193548387096776,81.14906618097017,,
283,1.8258064516129033,140.8180901043672,,
284,1.8322580645161293,126.77441939831103,,
285,1.838709677419355,84.84161187625212,,
286,1.8451612903225807,57.46340363686735,,
287,1.8516129032258066,233.73187456558736,,
288,1.8580645161290326,120.16328024223746,,
289,1.8645161290322583,28.87933031886755,,
290,1.870967741935484,91.6872534739364,,
291,1.8774193548387097,132.96320182122423,,
292,1.8838709677419356,276.5428009837878,,
293,1.8903225806451616,148.27874792028894,,
294,1.8967741935483873,79.12145074192519,,
295,1.9032258064516132,107.84670561968149,,
296,1.909677419354839,85.9877285068093,,
297,1.9161290322580646,185.51525474863996,,
298,1.9225806451612906,109.58635249058845,,
299,1.9290322580645163,137.79999331625598,,
300,1.9354838709677422,97.67623835922319,,
301,1.941935483870968,123.67113941459944,,
302,1.9483870967741936,119.45937115822385,,
303,1.9548387096774196,34.52985924880823,,
304,1.9612903225806453,79.69713127694392,,
305,1.9677419354838712,51.740706487853764,,
306,1.974193548387097,55.42079263400418,,
307,1.9806451612903226,66.80485588570343,,
308,1.9870967741935486,186.86108351751088,,
309,1.9935483870967745,162.36391762840515,,
310,2.0000000000000004,146.91311882773013,,
311,2.0064516129032257,144.2140431479249,,
312,2.012903225806452,110.42518924338299,,
313,2.0193548387096776,85.2122140763845,,
314,2.0258064516129033,80.65969300787323,,
315,2.0322580645161294,44.972612378620425,,
316,2.038709677419355,68.9890097693095,,
317,2.045161290322581,24.493125195923014,,
318,2.051612903225807,271.90810592386555,,
319,2.0580645161290323,247.6104004076592,,
320,2.064516129032258,317.5175209277276,,
321,2.070967741935484,198.62740000379463,,
322,2.07741935483871,48.81774926156731,,
323,2.0838709677419356,40.449018014905484,,
324,2.0903225806451613,176.53089987080065,,
325,2.0967741935483875,164.62627540629668,,
326,2.103225806451613,125.22791335881941,,
327,2.109677419354839,186.00899429085783,,
328,2.116129032258065,164.00821248911143,,
329,2.1225806451612907,211.31906096841527,,
330,2.129032258064516,62.72552261729762,,
331,2.135483870967742,186.23408517982892,,
332,2.141935483870968,278.91739293392885,,
333,2.1483870967741936,188.9516582762541,,
334,2.1548387096774198,101.4497947993927,,
335,2.1612903225806455,132.56343374767698,,
336,2.167741935483871,110.79563057226036,,
337,2.174193548387097,58.70419425967358,,
338,2.180645161290323,150.7592194238904,,
339,2.1870967741935488,76.6982213673808,,
340,2.193548387096774,134.10717907228195,,
341,2.2,223.71657569018927,,
342,2.206451612903226,286.63119256916264,,
343,2.2129032258064516,219.4696749412737,,
344,2.2193548387096778,192.3799670709287,,
345,2.2258064516129035,104.79161338616562,,
346,2.232258064516129,132.6116196556473,,
347,2.2387096774193553,196.0611546951944,,
348,2.245161290322581,173.9317764248692,,
349,2.2516129032258068,117.03309006606268,,
350,2.258064516129033,38.05032216128886,,
351,2.264516129032258,215.62322825050018,,
352,2.270967741935484,198.32406146207123,,
353,2.2774193548387096,79.35836294036977,,
354,2.2838709677419358,126.8759768549036,,
355,2.2903225806451615,256.0800499981391,,
356,2.296774193548387,200.99308530631018,,
357,2.3032258064516133,346.05799493468567,,
358,2.309677419354839,39.70707997973484,,
359,2.3161290322580648,121.94027141447016,,
360,2.322580645161291,221.87037765435556,,
361,2.329032258064516,211.91210296272237,,
362,2.335483870967742,201.83731600497245,,
363,2.341935483870968,51.948409288156626,,
364,2.3483870967741938,150.9622745076617,,
365,2.3548387096774195,46.404254296505584,,
366,2.361290322580645,25.26198009273502,,
367,2.3677419354838714,148.27363302817224,,
368,2.374193548387097,142.4385739385421,,
369,2.3806451612903228,24.041022293696816,,
370,2.387096774193549,105.13747606806457,,
371,2.393548387096774,110.93915156749779,,
372,2.4,95.0499443536894,,
373,2.406451612903226,87.8178347281376,,
374,2.412903225806452,30.69192602666186,,
375,2.4193548387096775,166.03350843739727,,
376,2.4258064516129036,62.71184803210826,,
377,2.4322580645161294,157.2446014018124,,
378,2.438709677419355,25.488680007581767,,
379,2.445161290322581,236.20413352756538,,
380,2.451612903225807,176.02699614601832,,
381,2.4580645161290327,258.8493643524572,,
382,2.464516129032258,88.49304736424037,,
383,2.470967741935484,148.44977484356525,,
384,2.47741935483871,76.62085076099044,,
385,2.4838709677419355,130.55312189798224,,
386,2.4903225806451617,81.82674423154577,,
387,2.4967741935483874,52.28359265262118,,
388,2.503225806451613,71.73179242377435,,
389,2.5096774193548392,77.86529011630614,,
390,2.516129032258065,56.42728634054964,,
391,2.5225806451612907,109.30478783679938,,
392,2.5290322580645164,91.40095841958099,,
393,2.535483870967742,107.68150400566017,,
394,2.541935483870968,182.91774771479393,,
395,2.5483870967741935,172.09618597738424,,
396,2.5548387096774197,112.21541036556886,,
397,2.5612903225806454,144.75901314368306,,
398,2.567741935483871,58.207830407249105,,
399,2.5741935483870972,119.6764992963447,,
400,2.580645161290323,91.25202118082773,,
401,2.5870967741935487,10.183395227461686,,
402,2.593548387096775,135.11883593888976,,
403,2.6,69.44017806672039,,
404,2.606451612903226,99.63922598454141,,
405,2.612903225806452,112.92712435927223,,
406,2.6193548387096777,41.84982276844963,,
407,2.6258064516129034,199.81522225742603,,
408,2.632258064516129,215.15809459545244,,
409,2.6387096774193552,128.22236388492828,,
410,2.645161290322581,121.60673283562545,,
411,2.6516129032258067,142.71857654238391,,
412,2.658064516129033,185.07960522456816,,
413,2.664516129032258,98.09592053427336,,
414,2.670967741935484,50.072489014822914,,
415,2.67741935483871,107.63242250709797,,
416,2.6838709677419357,309.71680019848685,,
417,2.6903225806451614,172.57130559096163,,
418,2.6967741935483875,217.17653060963008,,
419,2.7032258064516133,93.49715947623622,,
420,2.709677419354839,73.34052614174477,,
421,2.716129032258065,127.81659402797474,,
422,2.722580645161291,63.77962206292516,,
423,2.7290322580645165,138.36409089769296,,
424,2.735483870967742,129.06427360673104,,
425,2.741935483870968,172.1551653303385,,
426,2.7483870967741937,69.7583496069567,,
427,2.7548387096774194,163.49021066829,,
428,2.7612903225806456,110.24381680460915,,
429,2.7677419354838713,88.1667316101891,,
430,2.774193548387097,75.23357954389294,,
431,2.780645161290323,156.51069644114955,,
432,2.787096774193549,272.4914357353516,,
433,2.7935483870967746,359.354927088347,,
434,2.8000000000000003,261.64866688813476,,
435,2.806451612903226,149.58675507416586,,
436,2.8129032258064517,92.25362188900084,,
437,2.8193548387096774,81.95650356868403,,
438,2.8258064516129036,117.19740868505859,,
439,2.8322580645161293,113.97188133894417,,
440,2.838709677419355,36.28790770832822,,
441,2.845161290322581,127.97695588752374,,
442,2.851612903225807,209.383004883758,,
443,2.8580645161290326,76.72462607993673,,
444,2.8645161290322587,125.59362808733441,,
445,2.870967741935484,197.3650626410423,,
446,2.8774193548387097,141.34025775657582,,
447,2.883870967741936,15.483192332923279,,
448,2.8903225806451616,97.20241712582735,,
449,2.8967741935483873,59.08805456838311,,
450,2.9032258064516134,111.38270530364154,,
451,2.909677419354839,183.06813076547107,,
452,2.916129032258065,222.94747481822426,,
453,2.9225806451612906,45.016592789438896,,
454,2.9290322580645167,88.94459122733318,,
455,2.935483870967742,148.18310824813776,,
456,2.9419354838709677,110.63069705360117,,
457,2.948387096774194,115.48752161666351,,
458,2.9548387096774196,139.73049115840948,,
459,2.9612903225806453,82.58683094001726,,
460,2.9677419354838714,222.6809776053851,,
461,2.974193548387097,218.5426227932238,,
462,2.980645161290323,145.79556323411356,,
463,2.987096774193549,60.119771898687745,,
464,2.9935483870967747,200.77323972272563,,
465,3.0,66.45655052942254,,
466,3.0064516129032257,154.08642090079647,,
467,3.012903225806452,177.02817881070206,,
468,3.0193548387096776,178.70741000916226,,
469,3.0258064516129033,98.52674417429857,,
470,3.0322580645161294,85.40404107827491,,
471,3.038709677419355,99.11077094371579,,
472,3.045161290322581,208.0188407242656,,
473,3.051612903225807,140.75610711130278,,
474,3.0580645161290327,144.84840773651985,,
475,3.0645161290322585,144.77733098341963,,
476,3.070967741935484,186.79963653188543,,
477,3.07741935483871,96.97559637134752,,
478,3.0838709677419356,211.78726123411982,,
479,3.0903225806451613,298.1145126854368,,
480,3.0967741935483875,284.1941717354482,,
481,3.103225806451613,162.98219759264475,,
482,3.109677419354839,108.95312802523264,,
483,3.116129032258065,33.583980199635185,,
484,3.1225806451612907,75.7422711463882,,
485,3.1290322580645165,117.09139732123217,,
486,3.135483870967742,149.86140617619557,,
487,3.141935483870968,71.88734265183602,,
488,3.1483870967741936,88.18325386930823,,
489,3.1548387096774198,60.975266819001526,,
490,3.1612903225806455,91.8801321312793,,
491,3.167741935483871,199.95010953400023,,
492,3.1741935483870973,109.03686294915443,,
493,3.180645161290323,98.83661558126668,,
494,3.1870967741935488,123.89472261620617,,
495,3.1935483870967745,96.63102849191861,,
496,3.2000000000000006,95.72779209606394,,
497,3.206451612903226,91.99057840773004,,
498,3.2129032258064516,141.22270195712733,,
499,3.2193548387096778,67.84475306998263,,
500,3.2258064516129035,102.44667494412043,,
501,3.232258064516129,24.27899969314896,,
502,3.2387096774193553,90.88481427383778,,
503,3.245161290322581,42.783467679322015,,
504,3.2516129032258068,120.60362290686248,,
505,3.258064516129033,128.154611370307,,
506,3.2645161290322586,274.433450834127,,
507,3.270967741935484,272.17785965113484,,
508,3.2774193548387096,144.36615245961607,,
509,3.2838709677419358,66.1205791882693,,
510,3.2903225806451615,170.8063408942155,,
511,3.296774193548387,154.8461545859652,,
512,3.3032258064516133,116.20715927148463,,
513,3.309677419354839,65.32181939224046,,
514,3.3161290322580648,72.1675893722282,,
515,3.322580645161291,260.5012989725771,,
516,3.3290322580645166,152.79340177561184,,
517,3.3354838709677423,34.03773024733384,,
518,3.341935483870968,197.7189919735501,,
519,3.3483870967741938,315.37406319568674,,
520,3.3548387096774195,251.94676492582684,,
521,3.3612903225806456,135.11146439245724,,
522,3.3677419354838714,124.33373241867481,,
523,3.374193548387097,108.6259900661267,,
524,3.3806451612903228,221.89655552056334,,
525,3.387096774193549,56.15069737774887,,
526,3.3935483870967746,15.218248892867171,,
527,3.4000000000000004,193.36209867609708,,
528,3.406451612903226,134.90414406131163,,
529,3.412903225806452,253.99693904746866,,
530,3.4193548387096775,200.15125425813727,,
531,3.4258064516129036,138.3105807949034,,
532,3.4322580645161294,220.7825528062575,,
533,3.438709677419355,184.41796524903512,,
534,3.4451612903225812,118.17480908213709,,
535,3.451612903225807,139.88585423246892,,
536,3.4580645161290327,158.86866610003946,,
537,3.4645161290322584,278.256209529936,,
538,3.4709677419354845,39.359851790400434,,
539,3.47741935483871,205.4846599984202,,
540,3.4838709677419355,87.204835041192,,
541,3.4903225806451617,176.51994236551678,,
542,3.4967741935483874,200.26497896758286,,
543,3.503225806451613,204.4464477171411,,
544,3.5096774193548392,149.31870316239113,,
545,3.516129032258065,259.67204182000233,,
546,3.5225806451612907,173.91311239481087,,
547,3.529032258064517,23.19447252568322,,
548,3.5354838709677425,152.04596854642648,,
549,3.541935483870968,96.58451585451296,,
550,3.5483870967741935,90.64099474628438,,
551,3.5548387096774197,122.97806724179226,,
552,3.5612903225806454,235.95708916434666,,
553,3.567741935483871,125.44048085802174,,
554,3.5741935483870972,250.28598157136403,,
555,3.580645161290323,121.7869457143558,,
556,3.5870967741935487,139.22341142032963,,
557,3.593548387096775,188.6033162740716,,
558,3.6000000000000005,194.25139296538066,,
559,3.6064516129032262,249.84307405572636,,
560,3.612903225806452,93.48074929093922,,
561,3.6193548387096777,22.30554337549833,,
562,3.6258064516129034,99.03470930882587,,
563,3.6322580645161295,203.70673653371043,,
564,3.6387096774193552,155.44061739101693,,
565,3.645161290322581,170.38410058949032,,
566,3.6516129032258067,192.57562074767577,,
567,3.658064516129033,53.956193963967294,,
568,3.6645161290322585,171.97620395042318,,
569,3.6709677419354843,223.5879614973841,,
570,3.67741935483871,92.94796636328657,,
571,3.6838709677419357,231.19715422069206,,
572,3.6903225806451614,138.9164262893994,,
573,3.6967741935483875,238.26413942995092,,
574,3.7032258064516133,41.22648958524221,,
575,3.709677419354839,194.00130393975186,,
576,3.716129032258065,203.29727046617145,,
577,3.722580645161291,147.76234080240323,,
578,3.7290322580645165,103.0943711050798,,
579,3.7354838709677427,28.557504019927414,,
580,3.741935483870968,53.83113329010418,,
581,3.7483870967741937,220.67469230946267,,
582,3.7548387096774194,264.53566347088343,,
583,3.7612903225806456,133.49384626940773,,
584,3.7677419354838713,51.800363625312315,,
585,3.774193548387097,134.135126604606,,
586,3.780645161290323,248.72844955359741,,
587,3.787096774193549,325.9404063816577,,
588,3.7935483870967746,273.4077433942792,,
589,3.8000000000000007,96.67345688954617,,
590,3.8064516129032264,88.91250224860559,,
591,3.8129032258064517,39.07911175773111,,
592,3.819354838709678,198.49848610895475,,
593,3.8258064516129036,80.50846983631487,,
594,3.8322580645161293,87.25476823712864,,
595,3.838709677419355,55.96515137524463,,
596,3.845161290322581,184.88294340622113,,
597,3.851612903225807,228.46257948910448,,
598,3.8580645161290326,119.97125677542064,,
599,3.8645161290322587,266.907289532446,,
600,3.8709677419354844,104.5832326915818,,
601,3.8774193548387097,155.7207298073816,,
602,3.883870967741936,191.41606222410093,,
603,3.8903225806451616,175.70089701629936,,
604,3.8967741935483873,243.259744919388,,
605,3.9032258064516134,132.2807344014588,,
606,3.909677419354839,40.60296792889048,,
607,3.916129032258065,68.96591344029196,,
608,3.9225806451612906,220.66199720824898,,
609,3.9290322580645167,189.5565485446831,,
610,3.9354838709677424,85.65816121449478,,
611,3.941935483870968,186.25765789964183,,
612,3.948387096774194,90.81715716637216,,
613,3.9548387096774196,109.85801804911146,,
614,3.9612903225806453,224.1573901509084,,
615,3.9677419354838714,90.47765545620713,,
616,3.974193548387097,109.92346311369305,,
617,3.980645161290323,12.861252533317936,,
618,3.987096774193549,133.3301117653584,,
619,3.9935483870967747,243.42145266520154,,
620,4.000000000000001,251.518459593544,,
621,4.006451612903226,153.9018666976264,,
622,4.012903225806451,121.2834426688532,,
623,4.019354838709678,121.24309779487612,,
624,4.025806451612904,377.47410684990524,,
625,4.032258064516129,119.76077287673986,,
626,4.038709677419355,48.644947129345795,,
627,4.045161290322581,119.23005813057927,,
628,4.051612903225807,316.57102152024004,,
629,4.058064516129033,111.9894243080585,,
630,4.064516129032259,161.6434524492958,,
631,4.070967741935484,94.46442390732692,,
632,4.07741935483871,174.62282326514693,,
633,4.083870967741936,167.49353353593708,,
634,4.090322580645162,175.86290293738998,,
635,4.096774193548387,237.77000892055594,,
636,4.103225806451614,20.807514862250958,,
637,4.109677419354839,190.3181162839742,,
638,4.116129032258065,106.70091719947618,,
639,4.122580645161291,135.80439239632742,,
640,4.129032258064516,204.20449040901627,,
641,4.135483870967742,178.75615471909748,,
642,4.141935483870968,157.33541345552175,,
643,4.1483870967741945,71.16315868921443,,
644,4.15483870967742,306.4190225061125,,
645,4.161290322580646,186.45845184100796,,
646,4.167741935483871,35.41125479980544,,
647,4.174193548387097,119.2168372091955,,
648,4.180645161290323,169.89012725879044,,
649,4.187096774193549,96.64635377523646,,
650,4.193548387096775,116.4026526551758,,
651,4.2,108.8686021107857,,
652,4.206451612903226,100.80753569514656,,
653,4.212903225806452,25.07640165007216,,
654,4.219354838709678,84.97410700189018,,
655,4.225806451612904,182.06696158260846,,
656,4.23225806451613,156.70780651059323,,
657,4.238709677419355,131.0341012096101,,
658,4.2451612903225815,188.26537603121437,,
659,4.251612903225807,77.89966465317136,,
660,4.258064516129032,217.0553313292876,,
661,4.264516129032258,252.7280338655803,,
662,4.270967741935484,180.93464786374858,,
663,4.2774193548387105,139.1763602332645,,
664,4.283870967741936,166.34107992204915,,
665,4.290322580645162,202.76320536244094,,
666,4.296774193548387,142.4463565659746,,
667,4.303225806451613,205.18827082299077,,
668,4.3096774193548395,197.01122469828584,,
669,4.316129032258065,265.9949744006191,,
670,4.322580645161291,230.96981320031517,,
671,4.329032258064516,226.62785231777826,,
672,4.335483870967742,173.092689091358,,
673,4.341935483870968,94.76511612486547,,
674,4.348387096774194,75.41351237444506,,
675,4.35483870967742,191.87125224628363,,
676,4.361290322580646,192.57737029461825,,
677,4.367741935483871,249.57848814951825,,
678,4.3741935483870975,166.42763667676684,,
679,4.380645161290323,113.13810792272486,,
680,4.387096774193548,90.07472613252143,,
681,4.393548387096775,153.03556390864262,,
682,4.4,231.86723858034475,,
683,4.4064516129032265,204.06205671673408,,
684,4.412903225806452,101.3539903800891,,
685,4.419354838709678,222.85394862781203,,
686,4.425806451612903,349.5686158254723,,
687,4.432258064516129,165.02799378788256,,
688,4.4387096774193555,126.28049023672722,,
689,4.445161290322582,117.10815022488383,,
690,4.451612903225807,165.85552778775454,,
691,4.458064516129032,183.23573306263046,,
692,4.464516129032258,176.33774401204218,,
693,4.470967741935484,195.36850467730113,,
694,4.477419354838711,79.0311985651119,,
695,4.483870967741936,175.1647257447649,,
696,4.490322580645162,13.696919363817349,,
697,4.496774193548387,185.8665899079326,,
698,4.5032258064516135,376.2194612958541,,
699,4.509677419354839,155.6502373587656,,
700,4.516129032258066,149.8506058090012,,
701,4.522580645161291,64.94658276766012,,
702,4.529032258064516,117.44412691089327,,
703,4.5354838709677425,321.0821947190114,,
704,4.541935483870968,332.6979668441028,,
705,4.548387096774194,158.37067024992442,,
706,4.554838709677419,144.68026164814611,,
707,4.561290322580646,121.45922525681588,,
708,4.5677419354838715,107.60076792038257,,
709,4.574193548387098,154.0993743592272,,
710,4.580645161290323,161.81878302813953,,
711,4.587096774193548,67.41285836491909,,
712,4.593548387096774,48.70872285644308,,
713,4.6000000000000005,68.18223071071776,,
714,4.606451612903227,228.82239927027913,,
715,4.612903225806452,115.73963844434412,,
716,4.619354838709678,251.22994351623777,,
717,4.625806451612903,142.34838749789796,,
718,4.6322580645161295,97.7741427243817,,
719,4.638709677419355,113.2082207985622,,
720,4.645161290322582,106.08175846581172,,
721,4.651612903225807,285.96038398962367,,
722,4.658064516129032,189.35201584458449,,
723,4.6645161290322585,57.54256872256045,,
724,4.670967741935484,176.9347246002058,,
725,4.67741935483871,75.55094857466693,,
726,4.683870967741936,182.13147471492192,,
727,4.690322580645162,166.91431000468364,,
728,4.6967741935483875,66.61482738933452,,
729,4.703225806451614,36.86484816175235,,
730,4.709677419354839,188.81924925548327,,
731,4.716129032258065,135.14702602788748,,
732,4.72258064516129,87.40616032510825,,
733,4.7290322580645165,63.88914053547665,,
734,4.735483870967743,155.42657430498497,,
735,4.741935483870968,143.52106683774707,,
736,4.748387096774194,142.67564588489,,
737,4.754838709677419,37.52303593005002,,
738,4.7612903225806456,156.8658592688848,,
739,4.767741935483872,119.43745544373706,,
740,4.774193548387098,134.10593988185403,,
741,4.780645161290323,74.33855716378237,,
742,4.787096774193548,66.64986352420684,,
743,4.7935483870967746,227.32960330422284,,
744,4.8,147.46750818543572,,
745,4.806451612903226,214.9834790089539,,
746,4.812903225806452,147.29623216156062,,
747,4.819354838709678,118.77998193481157,,
748,4.825806451612904,211.50466880725125,,
749,4.83225806451613,184.75733036020407,,
750,4.838709677419355,281.28630327442346,,
751,4.845161290322581,225.4456423161053,,
752,4.851612903225807,320.4907660636482,,
753,4.858064516129033,27.588643593150355,,
754,4.864516129032259,95.09762135598498,,
755,4.870967741935484,39.82468786980357,,
756,4.87741935483871,76.25105584837314,,
757,4.883870967741935,211.16809731017963,,
758,4.890322580645162,250.0255407998938,,
759,4.896774193548388,223.70811837459604,,
760,4.903225806451614,205.8112380192567,,
761,4.909677419354839,167.19017288405487,,
762,4.916129032258065,205.28919214521787,,
763,4.922580645161291,182.4198797498335,,
764,4.929032258064516,24.42639269098025,,
765,4.935483870967743,147.95570986981562,,
766,4.941935483870968,156.11956677104104,,
767,4.948387096774194,93.34094048821004,,
768,4.95483870967742,355.63132527307613,,
769,4.961290322580646,169.32108460692422,,
770,4.967741935483871,111.7488245334983,,
771,4.974193548387098,254.0198890388279,,
772,4.980645161290323,196.25616747537563,,
773,4.9870967741935495,210.60172783081322,,
774,4.993548387096775,327.7546499708029,,
775,5.0,155.0,,
