variable,amplitude,timestamp,settings
0,10,103500000.0,2022-11-17T13:25:25.755251,"{'ex_mode': ('#exMode', 1), 'acq_on': ('#acqState', 1), 'acq_mode': ('#acqMode', 0), 'det_fft_window': ('#fftWindowFunction', 1), 'n_measurements': ('#nbOfMeas', 500), 'n_turns': ('#nbOfTurns', 256), 'interval': ('#acqPeriod', 10), 'from': ('#acqOffset', 1025), 'ex_h_amplitude': ('#exAmplitudeH', 0.1), 'ex_v_amplitude': ('#exAmplitudeV', 0.06), 'ex_h_enable': ('#exEnableH', 'True'), 'ex_v_enable': ('#exEnableV', 'False'), 'chirp_h_start': ('#chirpStartFreqH', 0.3), 'chirp_h_stop': ('#chirpStopFreqH', 0.35), 'chirp_v_start': ('#chirpStartFreqV', 0.25), 'chirp_v_stop': ('#chirpStopFreqV', 0.4), 'bias_h': ('#biasH', 0), 'bias_v': ('#biasV', 0), 'time_const_1h': ('#timeConstant1H', 1), 'time_const_2h': ('#timeConstant2H', 1), 'time_const_1v': ('#timeConstant1V', 1), 'time_const_2v': ('#timeConstant2V', 1), 'DC_det_1': ('#DCdet1', 0), 'DC_det_2': ('#DCdet2', 0), 'ex_pattern': ('#exPattern', 1)}"
0,10,103500000.0,2022-11-17T13:25:25.759268,"{'ex_mode': ('#exMode', 1), 'acq_on': ('#acqState', 1), 'acq_mode': ('#acqMode', 0), 'det_fft_window': ('#fftWindowFunction', 1), 'n_measurements': ('#nbOfMeas', 500), 'n_turns': ('#nbOfTurns', 256), 'interval': ('#acqPeriod', 10), 'from': ('#acqOffset', 1025), 'ex_h_amplitude': ('#exAmplitudeH', 0.1), 'ex_v_amplitude': ('#exAmplitudeV', 0.06), 'ex_h_enable': ('#exEnableH', 'True'), 'ex_v_enable': ('#exEnableV', 'False'), 'chirp_h_start': ('#chirpStartFreqH', 0.3), 'chirp_h_stop': ('#chirpStopFreqH', 0.35), 'chirp_v_start': ('#chirpStartFreqV', 0.25), 'chirp_v_stop': ('#chirpStopFreqV', 0.4), 'bias_h': ('#biasH', 0), 'bias_v': ('#biasV', 0), 'time_const_1h': ('#timeConstant1H', 1), 'time_const_2h': ('#timeConstant2H', 1), 'time_const_1v': ('#timeConstant1V', 1), 'time_const_2v': ('#timeConstant2V', 1), 'DC_det_1': ('#DCdet1', 0), 'DC_det_2': ('#DCdet2', 0), 'ex_pattern': ('#exPattern', 1)}"
0,10,114712500.0,2022-11-17T13:25:27.653619,"{'ex_mode': ('#exMode', 1), 'acq_on': ('#acqState', 1), 'acq_mode': ('#acqMode', 0), 'det_fft_window': ('#fftWindowFunction', 1), 'n_measurements': ('#nbOfMeas', 50), 'n_turns': ('#nbOfTurns', 256), 'interval': ('#acqPeriod', 10), 'from': ('#acqOffset', 1025), 'ex_h_amplitude': ('#exAmplitudeH', 0.1), 'ex_v_amplitude': ('#exAmplitudeV', 0.06), 'ex_h_enable': ('#exEnableH', 'True'), 'ex_v_enable': ('#exEnableV', 'False'), 'chirp_h_start': ('#chirpStartFreqH', 0.3), 'chirp_h_stop': ('#chirpStopFreqH', 0.35), 'chirp_v_start': ('#chirpStartFreqV', 0.25), 'chirp_v_stop': ('#chirpStopFreqV', 0.4), 'bias_h': ('#biasH', 0), 'bias_v': ('#biasV', 0), 'time_const_1h': ('#timeConstant1H', 1), 'time_const_2h': ('#timeConstant2H', 1), 'time_const_1v': ('#timeConstant1V', 1), 'time_const_2v': ('#timeConstant2V', 1), 'DC_det_1': ('#DCdet1', 0), 'DC_det_2': ('#DCdet2', 0), 'ex_pattern': ('#exPattern', 1)}"
0,10,114712500.0,2022-11-17T13:25:27.656027,"{'ex_mode': ('#exMode', 1), 'acq_on': ('#acqState', 1), 'acq_mode': ('#acqMode', 0), 'det_fft_window': ('#fftWindowFunction', 1), 'n_measurements': ('#nbOfMeas', 50), 'n_turns': ('#nbOfTurns', 256), 'interval': ('#acqPeriod', 10), 'from': ('#acqOffset', 1025), 'ex_h_amplitude': ('#exAmplitudeH', 0.1), 'ex_v_amplitude': ('#exAmplitudeV', 0.06), 'ex_h_enable': ('#exEnableH', 'True'), 'ex_v_enable': ('#exEnableV', 'False'), 'chirp_h_start': ('#chirpStartFreqH', 0.3), 'chirp_h_stop': ('#chirpStopFreqH', 0.35), 'chirp_v_start': ('#chirpStartFreqV', 0.25), 'chirp_v_stop': ('#chirpStopFreqV', 0.4), 'bias_h': ('#biasH', 0), 'bias_v': ('#biasV', 0), 'time_const_1h': ('#timeConstant1H', 1), 'time_const_2h': ('#timeConstant2H', 1), 'time_const_1v': ('#timeConstant1V', 1), 'time_const_2v': ('#timeConstant2V', 1), 'DC_det_1': ('#DCdet1', 0), 'DC_det_2': ('#DCdet2', 0), 'ex_pattern': ('#exPattern', 1)}"
