  Normal            1

 etall    1, NO =    1, NV =    2, INA =   23
 *********************************************

    I  COEFFICIENT          ORDER   EXPONENTS
     1    0.000000000000        0     0 0
   0.0000000000000000     
     2    0.000000000000        1     1 0
   0.0000000000000000     
     3   -1.000000000000        1     0 1
  -1.0000000000000000     
                                      
   0.0000000000000000     

 etall    1, NO =    1, NV =    2, INA =   19
 *********************************************

    I  COEFFICIENT          ORDER   EXPONENTS
     1   -1.000000000000        0     0 0
  -1.0000000000000000     
     2   -1.000000000000        1     1 0
  -1.0000000000000000     
     3    0.000000000000        1     0 1
   0.0000000000000000     
                                      

 etall    1, NO =    1, NV =    2, INA =   20
 *********************************************

    I  COEFFICIENT          ORDER   EXPONENTS
     1    0.000000000000        0     0 0
   0.0000000000000000     
     2    0.000000000000        1     1 0
   0.0000000000000000     
     3    0.000000000000        1     0 1
   0.0000000000000000     
                                      
  Skew            1

 etall    1, NO =    1, NV =    2, INA =   23
 *********************************************

    I  COEFFICIENT          ORDER   EXPONENTS
     1    0.000000000000        0     0 0
   0.0000000000000000     
     2   -1.000000000000        1     1 0
  -1.0000000000000000     
     3    0.000000000000        1     0 1
   0.0000000000000000     
                                      
   0.0000000000000000     

 etall    1, NO =    1, NV =    2, INA =   19
 *********************************************

    I  COEFFICIENT          ORDER   EXPONENTS
     1    0.000000000000        0     0 0
   0.0000000000000000     
     2    0.000000000000        1     1 0
   0.0000000000000000     
     3    0.000000000000        1     0 1
   0.0000000000000000     
                                      

 etall    1, NO =    1, NV =    2, INA =   20
 *********************************************

    I  COEFFICIENT          ORDER   EXPONENTS
     1    1.000000000000        0     0 0
   1.0000000000000000     
     2    1.000000000000        1     1 0
   1.0000000000000000     
     3    0.000000000000        1     0 1
   0.0000000000000000     
                                      
