variable,amplitude,timestamp,settings
0,0.2,249837500.0,2022-11-17T15:20:33,"{'ex_mode': ('#exMode', 1), 'acq_on': ('#acqState', 1), 'acq_mode': ('#acqMode', 0), 'det_fft_window': ('#fftWindowFunction', 1), 'n_measurements': ('#nbOfMeas', 500), 'n_turns': ('#nbOfTurns', 256), 'interval': ('#acqPeriod', 1), 'from': ('#acqOffset', 1025), 'ex_h_amplitude': ('#exAmplitudeH', 0.2), 'ex_v_amplitude': ('#exAmplitudeV', 0.06), 'ex_h_enable': ('#exEnableH', 'True'), 'ex_v_enable': ('#exEnableV', 'False'), 'chirp_h_start': ('#chirpStartFreqH', 0.2), 'chirp_h_stop': ('#chirpStopFreqH', 0.35), 'chirp_v_start': ('#chirpStartFreqV', 0.25), 'chirp_v_stop': ('#chirpStopFreqV', 0.4), 'bias_h': ('#biasH', 0), 'bias_v': ('#biasV', 0), 'time_const_1h': ('#timeConstant1H', 1), 'time_const_2h': ('#timeConstant2H', 1), 'time_const_1v': ('#timeConstant1V', 1), 'time_const_2v': ('#timeConstant2V', 1), 'DC_det_1': ('#DCdet1', 0), 'DC_det_2': ('#DCdet2', 0), 'ex_pattern': ('#exPattern', 1)}"
0,0.2,249837500.0,2022-11-17T15:20:33,"{'ex_mode': ('#exMode', 1), 'acq_on': ('#acqState', 1), 'acq_mode': ('#acqMode', 0), 'det_fft_window': ('#fftWindowFunction', 1), 'n_measurements': ('#nbOfMeas', 500), 'n_turns': ('#nbOfTurns', 256), 'interval': ('#acqPeriod', 1), 'from': ('#acqOffset', 1025), 'ex_h_amplitude': ('#exAmplitudeH', 0.2), 'ex_v_amplitude': ('#exAmplitudeV', 0.06), 'ex_h_enable': ('#exEnableH', 'True'), 'ex_v_enable': ('#exEnableV', 'False'), 'chirp_h_start': ('#chirpStartFreqH', 0.2), 'chirp_h_stop': ('#chirpStopFreqH', 0.35), 'chirp_v_start': ('#chirpStartFreqV', 0.25), 'chirp_v_stop': ('#chirpStopFreqV', 0.4), 'bias_h': ('#biasH', 0), 'bias_v': ('#biasV', 0), 'time_const_1h': ('#timeConstant1H', 1), 'time_const_2h': ('#timeConstant2H', 1), 'time_const_1v': ('#timeConstant1V', 1), 'time_const_2v': ('#timeConstant2V', 1), 'DC_det_1': ('#DCdet1', 0), 'DC_det_2': ('#DCdet2', 0), 'ex_pattern': ('#exPattern', 1)}"
0,0.2,748075000.0,2022-11-17T15:21:03,"{'ex_mode': ('#exMode', 1), 'acq_on': ('#acqState', 1), 'acq_mode': ('#acqMode', 0), 'det_fft_window': ('#fftWindowFunction', 1), 'n_measurements': ('#nbOfMeas', 500), 'n_turns': ('#nbOfTurns', 256), 'interval': ('#acqPeriod', 1), 'from': ('#acqOffset', 1025), 'ex_h_amplitude': ('#exAmplitudeH', 0.2), 'ex_v_amplitude': ('#exAmplitudeV', 0.06), 'ex_h_enable': ('#exEnableH', 'True'), 'ex_v_enable': ('#exEnableV', 'False'), 'chirp_h_start': ('#chirpStartFreqH', 0.2), 'chirp_h_stop': ('#chirpStopFreqH', 0.35), 'chirp_v_start': ('#chirpStartFreqV', 0.25), 'chirp_v_stop': ('#chirpStopFreqV', 0.4), 'bias_h': ('#biasH', 0), 'bias_v': ('#biasV', 0), 'time_const_1h': ('#timeConstant1H', 1), 'time_const_2h': ('#timeConstant2H', 1), 'time_const_1v': ('#timeConstant1V', 1), 'time_const_2v': ('#timeConstant2V', 1), 'DC_det_1': ('#DCdet1', 0), 'DC_det_2': ('#DCdet2', 0), 'ex_pattern': ('#exPattern', 1)}"
0,0.2,748075000.0,2022-11-17T15:21:03,"{'ex_mode': ('#exMode', 1), 'acq_on': ('#acqState', 1), 'acq_mode': ('#acqMode', 0), 'det_fft_window': ('#fftWindowFunction', 1), 'n_measurements': ('#nbOfMeas', 500), 'n_turns': ('#nbOfTurns', 256), 'interval': ('#acqPeriod', 1), 'from': ('#acqOffset', 1025), 'ex_h_amplitude': ('#exAmplitudeH', 0.2), 'ex_v_amplitude': ('#exAmplitudeV', 0.06), 'ex_h_enable': ('#exEnableH', 'True'), 'ex_v_enable': ('#exEnableV', 'False'), 'chirp_h_start': ('#chirpStartFreqH', 0.2), 'chirp_h_stop': ('#chirpStopFreqH', 0.35), 'chirp_v_start': ('#chirpStartFreqV', 0.25), 'chirp_v_stop': ('#chirpStopFreqV', 0.4), 'bias_h': ('#biasH', 0), 'bias_v': ('#biasV', 0), 'time_const_1h': ('#timeConstant1H', 1), 'time_const_2h': ('#timeConstant2H', 1), 'time_const_1v': ('#timeConstant1V', 1), 'time_const_2v': ('#timeConstant2V', 1), 'DC_det_1': ('#DCdet1', 0), 'DC_det_2': ('#DCdet2', 0), 'ex_pattern': ('#exPattern', 1)}"
0,0.21000000000000002,623875000.0,2022-11-17T15:21:53,"{'ex_mode': ('#exMode', 1), 'acq_on': ('#acqState', 1), 'acq_mode': ('#acqMode', 0), 'det_fft_window': ('#fftWindowFunction', 1), 'n_measurements': ('#nbOfMeas', 500), 'n_turns': ('#nbOfTurns', 256), 'interval': ('#acqPeriod', 1), 'from': ('#acqOffset', 1025), 'ex_h_amplitude': ('#exAmplitudeH', 0.2), 'ex_v_amplitude': ('#exAmplitudeV', 0.06), 'ex_h_enable': ('#exEnableH', 'True'), 'ex_v_enable': ('#exEnableV', 'False'), 'chirp_h_start': ('#chirpStartFreqH', 0.21000000000000002), 'chirp_h_stop': ('#chirpStopFreqH', 0.35), 'chirp_v_start': ('#chirpStartFreqV', 0.25), 'chirp_v_stop': ('#chirpStopFreqV', 0.4), 'bias_h': ('#biasH', 0), 'bias_v': ('#biasV', 0), 'time_const_1h': ('#timeConstant1H', 1), 'time_const_2h': ('#timeConstant2H', 1), 'time_const_1v': ('#timeConstant1V', 1), 'time_const_2v': ('#timeConstant2V', 1), 'DC_det_1': ('#DCdet1', 0), 'DC_det_2': ('#DCdet2', 0), 'ex_pattern': ('#exPattern', 1)}"
0,0.21000000000000002,623875000.0,2022-11-17T15:21:53,"{'ex_mode': ('#exMode', 1), 'acq_on': ('#acqState', 1), 'acq_mode': ('#acqMode', 0), 'det_fft_window': ('#fftWindowFunction', 1), 'n_measurements': ('#nbOfMeas', 500), 'n_turns': ('#nbOfTurns', 256), 'interval': ('#acqPeriod', 1), 'from': ('#acqOffset', 1025), 'ex_h_amplitude': ('#exAmplitudeH', 0.2), 'ex_v_amplitude': ('#exAmplitudeV', 0.06), 'ex_h_enable': ('#exEnableH', 'True'), 'ex_v_enable': ('#exEnableV', 'False'), 'chirp_h_start': ('#chirpStartFreqH', 0.21000000000000002), 'chirp_h_stop': ('#chirpStopFreqH', 0.35), 'chirp_v_start': ('#chirpStartFreqV', 0.25), 'chirp_v_stop': ('#chirpStopFreqV', 0.4), 'bias_h': ('#biasH', 0), 'bias_v': ('#biasV', 0), 'time_const_1h': ('#timeConstant1H', 1), 'time_const_2h': ('#timeConstant2H', 1), 'time_const_1v': ('#timeConstant1V', 1), 'time_const_2v': ('#timeConstant2V', 1), 'DC_det_1': ('#DCdet1', 0), 'DC_det_2': ('#DCdet2', 0), 'ex_pattern': ('#exPattern', 1)}"
0,0.22000000000000003,922300000.0,2022-11-17T15:22:42,"{'ex_mode': ('#exMode', 1), 'acq_on': ('#acqState', 1), 'acq_mode': ('#acqMode', 0), 'det_fft_window': ('#fftWindowFunction', 1), 'n_measurements': ('#nbOfMeas', 500), 'n_turns': ('#nbOfTurns', 256), 'interval': ('#acqPeriod', 1), 'from': ('#acqOffset', 1025), 'ex_h_amplitude': ('#exAmplitudeH', 0.2), 'ex_v_amplitude': ('#exAmplitudeV', 0.06), 'ex_h_enable': ('#exEnableH', 'True'), 'ex_v_enable': ('#exEnableV', 'False'), 'chirp_h_start': ('#chirpStartFreqH', 0.22000000000000003), 'chirp_h_stop': ('#chirpStopFreqH', 0.35), 'chirp_v_start': ('#chirpStartFreqV', 0.25), 'chirp_v_stop': ('#chirpStopFreqV', 0.4), 'bias_h': ('#biasH', 0), 'bias_v': ('#biasV', 0), 'time_const_1h': ('#timeConstant1H', 1), 'time_const_2h': ('#timeConstant2H', 1), 'time_const_1v': ('#timeConstant1V', 1), 'time_const_2v': ('#timeConstant2V', 1), 'DC_det_1': ('#DCdet1', 0), 'DC_det_2': ('#DCdet2', 0), 'ex_pattern': ('#exPattern', 1)}"
0,0.22000000000000003,922300000.0,2022-11-17T15:22:42,"{'ex_mode': ('#exMode', 1), 'acq_on': ('#acqState', 1), 'acq_mode': ('#acqMode', 0), 'det_fft_window': ('#fftWindowFunction', 1), 'n_measurements': ('#nbOfMeas', 500), 'n_turns': ('#nbOfTurns', 256), 'interval': ('#acqPeriod', 1), 'from': ('#acqOffset', 1025), 'ex_h_amplitude': ('#exAmplitudeH', 0.2), 'ex_v_amplitude': ('#exAmplitudeV', 0.06), 'ex_h_enable': ('#exEnableH', 'True'), 'ex_v_enable': ('#exEnableV', 'False'), 'chirp_h_start': ('#chirpStartFreqH', 0.22000000000000003), 'chirp_h_stop': ('#chirpStopFreqH', 0.35), 'chirp_v_start': ('#chirpStartFreqV', 0.25), 'chirp_v_stop': ('#chirpStopFreqV', 0.4), 'bias_h': ('#biasH', 0), 'bias_v': ('#biasV', 0), 'time_const_1h': ('#timeConstant1H', 1), 'time_const_2h': ('#timeConstant2H', 1), 'time_const_1v': ('#timeConstant1V', 1), 'time_const_2v': ('#timeConstant2V', 1), 'DC_det_1': ('#DCdet1', 0), 'DC_det_2': ('#DCdet2', 0), 'ex_pattern': ('#exPattern', 1)}"
0,0.23000000000000004,1008550000.0,2022-11-17T15:23:31,"{'ex_mode': ('#exMode', 1), 'acq_on': ('#acqState', 1), 'acq_mode': ('#acqMode', 0), 'det_fft_window': ('#fftWindowFunction', 1), 'n_measurements': ('#nbOfMeas', 500), 'n_turns': ('#nbOfTurns', 256), 'interval': ('#acqPeriod', 1), 'from': ('#acqOffset', 1025), 'ex_h_amplitude': ('#exAmplitudeH', 0.2), 'ex_v_amplitude': ('#exAmplitudeV', 0.06), 'ex_h_enable': ('#exEnableH', 'True'), 'ex_v_enable': ('#exEnableV', 'False'), 'chirp_h_start': ('#chirpStartFreqH', 0.23000000000000004), 'chirp_h_stop': ('#chirpStopFreqH', 0.35), 'chirp_v_start': ('#chirpStartFreqV', 0.25), 'chirp_v_stop': ('#chirpStopFreqV', 0.4), 'bias_h': ('#biasH', 0), 'bias_v': ('#biasV', 0), 'time_const_1h': ('#timeConstant1H', 1), 'time_const_2h': ('#timeConstant2H', 1), 'time_const_1v': ('#timeConstant1V', 1), 'time_const_2v': ('#timeConstant2V', 1), 'DC_det_1': ('#DCdet1', 0), 'DC_det_2': ('#DCdet2', 0), 'ex_pattern': ('#exPattern', 1)}"
0,0.23000000000000004,1008550000.0,2022-11-17T15:23:31,"{'ex_mode': ('#exMode', 1), 'acq_on': ('#acqState', 1), 'acq_mode': ('#acqMode', 0), 'det_fft_window': ('#fftWindowFunction', 1), 'n_measurements': ('#nbOfMeas', 500), 'n_turns': ('#nbOfTurns', 256), 'interval': ('#acqPeriod', 1), 'from': ('#acqOffset', 1025), 'ex_h_amplitude': ('#exAmplitudeH', 0.2), 'ex_v_amplitude': ('#exAmplitudeV', 0.06), 'ex_h_enable': ('#exEnableH', 'True'), 'ex_v_enable': ('#exEnableV', 'False'), 'chirp_h_start': ('#chirpStartFreqH', 0.23000000000000004), 'chirp_h_stop': ('#chirpStopFreqH', 0.35), 'chirp_v_start': ('#chirpStartFreqV', 0.25), 'chirp_v_stop': ('#chirpStopFreqV', 0.4), 'bias_h': ('#biasH', 0), 'bias_v': ('#biasV', 0), 'time_const_1h': ('#timeConstant1H', 1), 'time_const_2h': ('#timeConstant2H', 1), 'time_const_1v': ('#timeConstant1V', 1), 'time_const_2v': ('#timeConstant2V', 1), 'DC_det_1': ('#DCdet1', 0), 'DC_det_2': ('#DCdet2', 0), 'ex_pattern': ('#exPattern', 1)}"
0,0.24000000000000005,1524900000.0,2022-11-17T15:24:20,"{'ex_mode': ('#exMode', 1), 'acq_on': ('#acqState', 1), 'acq_mode': ('#acqMode', 0), 'det_fft_window': ('#fftWindowFunction', 1), 'n_measurements': ('#nbOfMeas', 500), 'n_turns': ('#nbOfTurns', 256), 'interval': ('#acqPeriod', 1), 'from': ('#acqOffset', 1025), 'ex_h_amplitude': ('#exAmplitudeH', 0.2), 'ex_v_amplitude': ('#exAmplitudeV', 0.06), 'ex_h_enable': ('#exEnableH', 'True'), 'ex_v_enable': ('#exEnableV', 'False'), 'chirp_h_start': ('#chirpStartFreqH', 0.24000000000000005), 'chirp_h_stop': ('#chirpStopFreqH', 0.35), 'chirp_v_start': ('#chirpStartFreqV', 0.25), 'chirp_v_stop': ('#chirpStopFreqV', 0.4), 'bias_h': ('#biasH', 0), 'bias_v': ('#biasV', 0), 'time_const_1h': ('#timeConstant1H', 1), 'time_const_2h': ('#timeConstant2H', 1), 'time_const_1v': ('#timeConstant1V', 1), 'time_const_2v': ('#timeConstant2V', 1), 'DC_det_1': ('#DCdet1', 0), 'DC_det_2': ('#DCdet2', 0), 'ex_pattern': ('#exPattern', 1)}"
0,0.24000000000000005,1524900000.0,2022-11-17T15:24:20,"{'ex_mode': ('#exMode', 1), 'acq_on': ('#acqState', 1), 'acq_mode': ('#acqMode', 0), 'det_fft_window': ('#fftWindowFunction', 1), 'n_measurements': ('#nbOfMeas', 500), 'n_turns': ('#nbOfTurns', 256), 'interval': ('#acqPeriod', 1), 'from': ('#acqOffset', 1025), 'ex_h_amplitude': ('#exAmplitudeH', 0.2), 'ex_v_amplitude': ('#exAmplitudeV', 0.06), 'ex_h_enable': ('#exEnableH', 'True'), 'ex_v_enable': ('#exEnableV', 'False'), 'chirp_h_start': ('#chirpStartFreqH', 0.24000000000000005), 'chirp_h_stop': ('#chirpStopFreqH', 0.35), 'chirp_v_start': ('#chirpStartFreqV', 0.25), 'chirp_v_stop': ('#chirpStopFreqV', 0.4), 'bias_h': ('#biasH', 0), 'bias_v': ('#biasV', 0), 'time_const_1h': ('#timeConstant1H', 1), 'time_const_2h': ('#timeConstant2H', 1), 'time_const_1v': ('#timeConstant1V', 1), 'time_const_2v': ('#timeConstant2V', 1), 'DC_det_1': ('#DCdet1', 0), 'DC_det_2': ('#DCdet2', 0), 'ex_pattern': ('#exPattern', 1)}"
0,0.25000000000000006,1143387500.0,2022-11-17T15:25:09,"{'ex_mode': ('#exMode', 1), 'acq_on': ('#acqState', 1), 'acq_mode': ('#acqMode', 0), 'det_fft_window': ('#fftWindowFunction', 1), 'n_measurements': ('#nbOfMeas', 500), 'n_turns': ('#nbOfTurns', 256), 'interval': ('#acqPeriod', 1), 'from': ('#acqOffset', 1025), 'ex_h_amplitude': ('#exAmplitudeH', 0.2), 'ex_v_amplitude': ('#exAmplitudeV', 0.06), 'ex_h_enable': ('#exEnableH', 'True'), 'ex_v_enable': ('#exEnableV', 'False'), 'chirp_h_start': ('#chirpStartFreqH', 0.25000000000000006), 'chirp_h_stop': ('#chirpStopFreqH', 0.35), 'chirp_v_start': ('#chirpStartFreqV', 0.25), 'chirp_v_stop': ('#chirpStopFreqV', 0.4), 'bias_h': ('#biasH', 0), 'bias_v': ('#biasV', 0), 'time_const_1h': ('#timeConstant1H', 1), 'time_const_2h': ('#timeConstant2H', 1), 'time_const_1v': ('#timeConstant1V', 1), 'time_const_2v': ('#timeConstant2V', 1), 'DC_det_1': ('#DCdet1', 0), 'DC_det_2': ('#DCdet2', 0), 'ex_pattern': ('#exPattern', 1)}"
0,0.25000000000000006,1143387500.0,2022-11-17T15:25:09,"{'ex_mode': ('#exMode', 1), 'acq_on': ('#acqState', 1), 'acq_mode': ('#acqMode', 0), 'det_fft_window': ('#fftWindowFunction', 1), 'n_measurements': ('#nbOfMeas', 500), 'n_turns': ('#nbOfTurns', 256), 'interval': ('#acqPeriod', 1), 'from': ('#acqOffset', 1025), 'ex_h_amplitude': ('#exAmplitudeH', 0.2), 'ex_v_amplitude': ('#exAmplitudeV', 0.06), 'ex_h_enable': ('#exEnableH', 'True'), 'ex_v_enable': ('#exEnableV', 'False'), 'chirp_h_start': ('#chirpStartFreqH', 0.25000000000000006), 'chirp_h_stop': ('#chirpStopFreqH', 0.35), 'chirp_v_start': ('#chirpStartFreqV', 0.25), 'chirp_v_stop': ('#chirpStopFreqV', 0.4), 'bias_h': ('#biasH', 0), 'bias_v': ('#biasV', 0), 'time_const_1h': ('#timeConstant1H', 1), 'time_const_2h': ('#timeConstant2H', 1), 'time_const_1v': ('#timeConstant1V', 1), 'time_const_2v': ('#timeConstant2V', 1), 'DC_det_1': ('#DCdet1', 0), 'DC_det_2': ('#DCdet2', 0), 'ex_pattern': ('#exPattern', 1)}"
0,0.26000000000000006,932937500.0,2022-11-17T15:25:58,"{'ex_mode': ('#exMode', 1), 'acq_on': ('#acqState', 1), 'acq_mode': ('#acqMode', 0), 'det_fft_window': ('#fftWindowFunction', 1), 'n_measurements': ('#nbOfMeas', 500), 'n_turns': ('#nbOfTurns', 256), 'interval': ('#acqPeriod', 1), 'from': ('#acqOffset', 1025), 'ex_h_amplitude': ('#exAmplitudeH', 0.2), 'ex_v_amplitude': ('#exAmplitudeV', 0.06), 'ex_h_enable': ('#exEnableH', 'True'), 'ex_v_enable': ('#exEnableV', 'False'), 'chirp_h_start': ('#chirpStartFreqH', 0.26000000000000006), 'chirp_h_stop': ('#chirpStopFreqH', 0.35), 'chirp_v_start': ('#chirpStartFreqV', 0.25), 'chirp_v_stop': ('#chirpStopFreqV', 0.4), 'bias_h': ('#biasH', 0), 'bias_v': ('#biasV', 0), 'time_const_1h': ('#timeConstant1H', 1), 'time_const_2h': ('#timeConstant2H', 1), 'time_const_1v': ('#timeConstant1V', 1), 'time_const_2v': ('#timeConstant2V', 1), 'DC_det_1': ('#DCdet1', 0), 'DC_det_2': ('#DCdet2', 0), 'ex_pattern': ('#exPattern', 1)}"
0,0.26000000000000006,932937500.0,2022-11-17T15:25:58,"{'ex_mode': ('#exMode', 1), 'acq_on': ('#acqState', 1), 'acq_mode': ('#acqMode', 0), 'det_fft_window': ('#fftWindowFunction', 1), 'n_measurements': ('#nbOfMeas', 500), 'n_turns': ('#nbOfTurns', 256), 'interval': ('#acqPeriod', 1), 'from': ('#acqOffset', 1025), 'ex_h_amplitude': ('#exAmplitudeH', 0.2), 'ex_v_amplitude': ('#exAmplitudeV', 0.06), 'ex_h_enable': ('#exEnableH', 'True'), 'ex_v_enable': ('#exEnableV', 'False'), 'chirp_h_start': ('#chirpStartFreqH', 0.26000000000000006), 'chirp_h_stop': ('#chirpStopFreqH', 0.35), 'chirp_v_start': ('#chirpStartFreqV', 0.25), 'chirp_v_stop': ('#chirpStopFreqV', 0.4), 'bias_h': ('#biasH', 0), 'bias_v': ('#biasV', 0), 'time_const_1h': ('#timeConstant1H', 1), 'time_const_2h': ('#timeConstant2H', 1), 'time_const_1v': ('#timeConstant1V', 1), 'time_const_2v': ('#timeConstant2V', 1), 'DC_det_1': ('#DCdet1', 0), 'DC_det_2': ('#DCdet2', 0), 'ex_pattern': ('#exPattern', 1)}"
0,0.2700000000000001,1457625000.0,2022-11-17T15:26:48,"{'ex_mode': ('#exMode', 1), 'acq_on': ('#acqState', 1), 'acq_mode': ('#acqMode', 0), 'det_fft_window': ('#fftWindowFunction', 1), 'n_measurements': ('#nbOfMeas', 500), 'n_turns': ('#nbOfTurns', 256), 'interval': ('#acqPeriod', 1), 'from': ('#acqOffset', 1025), 'ex_h_amplitude': ('#exAmplitudeH', 0.2), 'ex_v_amplitude': ('#exAmplitudeV', 0.06), 'ex_h_enable': ('#exEnableH', 'True'), 'ex_v_enable': ('#exEnableV', 'False'), 'chirp_h_start': ('#chirpStartFreqH', 0.2700000000000001), 'chirp_h_stop': ('#chirpStopFreqH', 0.35), 'chirp_v_start': ('#chirpStartFreqV', 0.25), 'chirp_v_stop': ('#chirpStopFreqV', 0.4), 'bias_h': ('#biasH', 0), 'bias_v': ('#biasV', 0), 'time_const_1h': ('#timeConstant1H', 1), 'time_const_2h': ('#timeConstant2H', 1), 'time_const_1v': ('#timeConstant1V', 1), 'time_const_2v': ('#timeConstant2V', 1), 'DC_det_1': ('#DCdet1', 0), 'DC_det_2': ('#DCdet2', 0), 'ex_pattern': ('#exPattern', 1)}"
0,0.2700000000000001,1457625000.0,2022-11-17T15:26:48,"{'ex_mode': ('#exMode', 1), 'acq_on': ('#acqState', 1), 'acq_mode': ('#acqMode', 0), 'det_fft_window': ('#fftWindowFunction', 1), 'n_measurements': ('#nbOfMeas', 500), 'n_turns': ('#nbOfTurns', 256), 'interval': ('#acqPeriod', 1), 'from': ('#acqOffset', 1025), 'ex_h_amplitude': ('#exAmplitudeH', 0.2), 'ex_v_amplitude': ('#exAmplitudeV', 0.06), 'ex_h_enable': ('#exEnableH', 'True'), 'ex_v_enable': ('#exEnableV', 'False'), 'chirp_h_start': ('#chirpStartFreqH', 0.2700000000000001), 'chirp_h_stop': ('#chirpStopFreqH', 0.35), 'chirp_v_start': ('#chirpStartFreqV', 0.25), 'chirp_v_stop': ('#chirpStopFreqV', 0.4), 'bias_h': ('#biasH', 0), 'bias_v': ('#biasV', 0), 'time_const_1h': ('#timeConstant1H', 1), 'time_const_2h': ('#timeConstant2H', 1), 'time_const_1v': ('#timeConstant1V', 1), 'time_const_2v': ('#timeConstant2V', 1), 'DC_det_1': ('#DCdet1', 0), 'DC_det_2': ('#DCdet2', 0), 'ex_pattern': ('#exPattern', 1)}"
0,0.2800000000000001,1635300000.0,2022-11-17T15:27:37,"{'ex_mode': ('#exMode', 1), 'acq_on': ('#acqState', 1), 'acq_mode': ('#acqMode', 0), 'det_fft_window': ('#fftWindowFunction', 1), 'n_measurements': ('#nbOfMeas', 500), 'n_turns': ('#nbOfTurns', 256), 'interval': ('#acqPeriod', 1), 'from': ('#acqOffset', 1025), 'ex_h_amplitude': ('#exAmplitudeH', 0.2), 'ex_v_amplitude': ('#exAmplitudeV', 0.06), 'ex_h_enable': ('#exEnableH', 'True'), 'ex_v_enable': ('#exEnableV', 'False'), 'chirp_h_start': ('#chirpStartFreqH', 0.2800000000000001), 'chirp_h_stop': ('#chirpStopFreqH', 0.35), 'chirp_v_start': ('#chirpStartFreqV', 0.25), 'chirp_v_stop': ('#chirpStopFreqV', 0.4), 'bias_h': ('#biasH', 0), 'bias_v': ('#biasV', 0), 'time_const_1h': ('#timeConstant1H', 1), 'time_const_2h': ('#timeConstant2H', 1), 'time_const_1v': ('#timeConstant1V', 1), 'time_const_2v': ('#timeConstant2V', 1), 'DC_det_1': ('#DCdet1', 0), 'DC_det_2': ('#DCdet2', 0), 'ex_pattern': ('#exPattern', 1)}"
0,0.2800000000000001,1635300000.0,2022-11-17T15:27:37,"{'ex_mode': ('#exMode', 1), 'acq_on': ('#acqState', 1), 'acq_mode': ('#acqMode', 0), 'det_fft_window': ('#fftWindowFunction', 1), 'n_measurements': ('#nbOfMeas', 500), 'n_turns': ('#nbOfTurns', 256), 'interval': ('#acqPeriod', 1), 'from': ('#acqOffset', 1025), 'ex_h_amplitude': ('#exAmplitudeH', 0.2), 'ex_v_amplitude': ('#exAmplitudeV', 0.06), 'ex_h_enable': ('#exEnableH', 'True'), 'ex_v_enable': ('#exEnableV', 'False'), 'chirp_h_start': ('#chirpStartFreqH', 0.2800000000000001), 'chirp_h_stop': ('#chirpStopFreqH', 0.35), 'chirp_v_start': ('#chirpStartFreqV', 0.25), 'chirp_v_stop': ('#chirpStopFreqV', 0.4), 'bias_h': ('#biasH', 0), 'bias_v': ('#biasV', 0), 'time_const_1h': ('#timeConstant1H', 1), 'time_const_2h': ('#timeConstant2H', 1), 'time_const_1v': ('#timeConstant1V', 1), 'time_const_2v': ('#timeConstant2V', 1), 'DC_det_1': ('#DCdet1', 0), 'DC_det_2': ('#DCdet2', 0), 'ex_pattern': ('#exPattern', 1)}"
0,0.2900000000000001,1524325000.0,2022-11-17T15:28:26,"{'ex_mode': ('#exMode', 1), 'acq_on': ('#acqState', 1), 'acq_mode': ('#acqMode', 0), 'det_fft_window': ('#fftWindowFunction', 1), 'n_measurements': ('#nbOfMeas', 500), 'n_turns': ('#nbOfTurns', 256), 'interval': ('#acqPeriod', 1), 'from': ('#acqOffset', 1025), 'ex_h_amplitude': ('#exAmplitudeH', 0.2), 'ex_v_amplitude': ('#exAmplitudeV', 0.06), 'ex_h_enable': ('#exEnableH', 'True'), 'ex_v_enable': ('#exEnableV', 'False'), 'chirp_h_start': ('#chirpStartFreqH', 0.2900000000000001), 'chirp_h_stop': ('#chirpStopFreqH', 0.35), 'chirp_v_start': ('#chirpStartFreqV', 0.25), 'chirp_v_stop': ('#chirpStopFreqV', 0.4), 'bias_h': ('#biasH', 0), 'bias_v': ('#biasV', 0), 'time_const_1h': ('#timeConstant1H', 1), 'time_const_2h': ('#timeConstant2H', 1), 'time_const_1v': ('#timeConstant1V', 1), 'time_const_2v': ('#timeConstant2V', 1), 'DC_det_1': ('#DCdet1', 0), 'DC_det_2': ('#DCdet2', 0), 'ex_pattern': ('#exPattern', 1)}"
0,0.2900000000000001,1524325000.0,2022-11-17T15:28:26,"{'ex_mode': ('#exMode', 1), 'acq_on': ('#acqState', 1), 'acq_mode': ('#acqMode', 0), 'det_fft_window': ('#fftWindowFunction', 1), 'n_measurements': ('#nbOfMeas', 500), 'n_turns': ('#nbOfTurns', 256), 'interval': ('#acqPeriod', 1), 'from': ('#acqOffset', 1025), 'ex_h_amplitude': ('#exAmplitudeH', 0.2), 'ex_v_amplitude': ('#exAmplitudeV', 0.06), 'ex_h_enable': ('#exEnableH', 'True'), 'ex_v_enable': ('#exEnableV', 'False'), 'chirp_h_start': ('#chirpStartFreqH', 0.2900000000000001), 'chirp_h_stop': ('#chirpStopFreqH', 0.35), 'chirp_v_start': ('#chirpStartFreqV', 0.25), 'chirp_v_stop': ('#chirpStopFreqV', 0.4), 'bias_h': ('#biasH', 0), 'bias_v': ('#biasV', 0), 'time_const_1h': ('#timeConstant1H', 1), 'time_const_2h': ('#timeConstant2H', 1), 'time_const_1v': ('#timeConstant1V', 1), 'time_const_2v': ('#timeConstant2V', 1), 'DC_det_1': ('#DCdet1', 0), 'DC_det_2': ('#DCdet2', 0), 'ex_pattern': ('#exPattern', 1)}"
